<?xml version="1.0" encoding="UTF-8"?>
<svg xmlns="http://www.w3.org/2000/svg" xmlns:xlink="http://www.w3.org/1999/xlink" width="1160.453125pt" height="1516.8125pt" viewBox="0 0 1160.453125 1516.8125" version="1.1">
<defs>
<g>
<symbol overflow="visible" id="glyph0-0">
<path style="stroke:none;" d="M 204.796875 0 L 204.796875 -204.796875 L 0 -204.796875 L 0 0 Z M 26.875 -20.21875 C 19.453125 -24.0625 16.390625 -33.28125 20.21875 -40.953125 C 20.984375 -42.234375 22.015625 -43.78125 23.046875 -44.796875 L 160.25 -181.765625 C 164.859375 -186.375 172.03125 -187.640625 177.921875 -184.578125 C 185.34375 -180.734375 188.421875 -171.515625 184.578125 -163.84375 C 183.8125 -162.5625 183.046875 -161.28125 181.765625 -160.25 L 44.546875 -23.046875 C 39.9375 -18.4375 33.03125 -17.15625 26.875 -20.21875 Z M 177.921875 -20.21875 C 171.78125 -17.15625 164.859375 -18.4375 160.25 -23.046875 L 23.046875 -160.25 C 21.765625 -161.28125 20.984375 -162.5625 20.21875 -163.84375 C 16.390625 -171.515625 19.453125 -180.734375 26.875 -184.578125 C 32.765625 -187.640625 39.9375 -186.375 44.546875 -181.765625 L 181.765625 -44.796875 C 182.78125 -43.78125 183.8125 -42.234375 184.578125 -40.953125 C 188.421875 -33.28125 185.34375 -24.0625 177.921875 -20.21875 Z M 177.921875 -20.21875 "/>
</symbol>
<symbol overflow="visible" id="glyph0-1">
<path style="stroke:none;" d="M 66.296875 -30.71875 L 161.28125 -204.796875 L 33.53125 -204.796875 C 25.09375 -204.796875 18.171875 -197.890625 18.171875 -189.4375 C 18.171875 -180.984375 25.09375 -174.078125 33.53125 -174.078125 L 104.953125 -174.078125 L 12.796875 0 L 142.59375 0 C 151.046875 0 157.953125 -6.90625 157.953125 -15.359375 C 157.953125 -23.8125 151.046875 -30.71875 142.59375 -30.71875 Z M 66.296875 -30.71875 "/>
</symbol>
<symbol overflow="visible" id="glyph0-2">
<path style="stroke:none;" d="M 25.59375 -10.234375 C 25.59375 -1.03125 32 5.125 41.21875 5.125 C 50.6875 5.125 56.3125 -1.03125 56.3125 -10.234375 L 56.3125 -82.171875 L 79.875 -82.171875 L 132.859375 -1.796875 C 135.6875 2.296875 140.546875 5.125 145.921875 5.125 C 154.375 5.125 161.28125 -1.796875 161.28125 -10.234375 C 161.28125 -13.3125 160.25 -16.125 158.71875 -18.4375 L 115.203125 -82.9375 C 144.640625 -87.8125 163.84375 -110.84375 163.84375 -143.359375 C 163.84375 -180.21875 139.78125 -204.796875 103.6875 -204.796875 L 25.59375 -204.796875 Z M 56.3125 -174.078125 L 103.6875 -174.078125 C 122.875 -174.078125 135.171875 -161.796875 135.171875 -143.359375 C 135.171875 -122.625 122.875 -109.3125 103.9375 -109.3125 L 56.3125 -109.3125 Z M 56.3125 -174.078125 "/>
</symbol>
<symbol overflow="visible" id="glyph0-3">
<path style="stroke:none;" d="M 25.59375 -10.234375 C 25.59375 -1.03125 31.484375 5.125 40.953125 5.125 C 49.921875 5.125 56.3125 -1.03125 56.3125 -10.234375 L 56.3125 -44.796875 L 103.9375 -44.796875 C 142.84375 -44.796875 163.84375 -65.796875 163.84375 -104.953125 C 163.84375 -144.125 142.84375 -165.125 103.9375 -165.125 L 56.3125 -165.125 L 56.3125 -194.5625 C 56.3125 -203.78125 49.921875 -209.921875 40.953125 -209.921875 C 31.484375 -209.921875 25.59375 -203.78125 25.59375 -194.5625 Z M 56.3125 -134.40625 L 103.9375 -134.40625 C 122.625 -134.40625 135.171875 -122.625 135.171875 -104.953125 C 135.171875 -87.296875 122.625 -75.515625 103.9375 -75.515625 L 56.3125 -75.515625 Z M 56.3125 -134.40625 "/>
</symbol>
<symbol overflow="visible" id="glyph0-4">
<path style="stroke:none;" d="M 19.203125 -100.359375 C 19.203125 -36.859375 50.6875 4.09375 98.046875 4.09375 C 116.984375 4.09375 139.015625 -6.90625 153.34375 -23.546875 C 155.90625 -26.375 157.4375 -30.46875 157.4375 -34.296875 C 157.4375 -43.515625 151.296875 -49.65625 142.078125 -49.65625 C 139.015625 -49.65625 133.890625 -46.84375 129.03125 -42.5 C 120.3125 -34.5625 108.03125 -29.1875 98.046875 -29.1875 C 68.359375 -29.1875 48.890625 -56.828125 48.890625 -100.359375 C 48.890625 -143.109375 66.8125 -175.109375 94.46875 -175.109375 C 107.265625 -175.109375 121.859375 -168.453125 130.5625 -159.484375 C 132.359375 -157.703125 136.1875 -156.421875 140.03125 -156.421875 C 149.25 -156.421875 155.390625 -162.5625 155.390625 -171.78125 C 155.390625 -175.109375 152.828125 -180.21875 148.984375 -184.3125 C 135.171875 -199.171875 114.171875 -208.890625 96 -208.890625 C 49.921875 -208.890625 19.203125 -163.84375 19.203125 -100.359375 Z M 19.203125 -100.359375 "/>
</symbol>
<symbol overflow="visible" id="glyph0-5">
<path style="stroke:none;" d="M 109.828125 -196.609375 C 107.015625 -204.546875 100.609375 -209.921875 93.4375 -209.921875 C 87.046875 -209.921875 79.875 -204.796875 77.0625 -196.609375 L 15.359375 -22.015625 C 14.078125 -18.171875 12.796875 -13.5625 12.796875 -10.75 C 12.796875 -1.28125 18.4375 5.125 27.140625 5.125 C 33.53125 5.125 39.6875 0.765625 41.984375 -5.625 L 52.734375 -36.359375 L 134.140625 -36.359375 L 144.890625 -5.625 C 147.203125 0.765625 153.34375 5.125 159.75 5.125 C 168.453125 5.125 174.078125 -1.28125 174.078125 -10.75 C 174.078125 -13.5625 172.796875 -18.171875 171.515625 -22.015625 Z M 93.4375 -152.828125 L 123.90625 -66.046875 L 62.96875 -66.046875 Z M 93.4375 -152.828125 "/>
</symbol>
<symbol overflow="visible" id="glyph0-6">
<path style="stroke:none;" d="M 22.53125 -10.234375 C 22.53125 -1.796875 29.4375 5.125 37.890625 5.125 C 46.34375 5.125 53.25 -1.796875 53.25 -10.234375 L 53.25 -91.640625 L 76.796875 -113.65625 L 136.953125 -2.8125 C 139.515625 2.046875 144.640625 5.125 150.53125 5.125 C 158.96875 5.125 165.890625 -1.796875 165.890625 -10.234375 C 165.890625 -13.5625 164.609375 -16.390625 163.078125 -19.203125 L 100.359375 -135.6875 L 149.25 -183.296875 C 152.3125 -186.109375 154.109375 -190.203125 154.109375 -194.5625 C 154.109375 -203.015625 147.203125 -209.921875 138.75 -209.921875 C 134.65625 -209.921875 131.078125 -208.390625 128.25 -205.828125 L 53.25 -134.140625 L 53.25 -194.5625 C 53.25 -203.015625 46.34375 -209.921875 37.890625 -209.921875 C 29.4375 -209.921875 22.53125 -203.015625 22.53125 -194.5625 Z M 22.53125 -10.234375 "/>
</symbol>
<symbol overflow="visible" id="glyph0-7">
<path style="stroke:none;" d="M 101.125 -114.4375 L 140.03125 -187.390625 C 141.0625 -189.4375 141.828125 -192 141.828125 -194.5625 C 141.828125 -203.015625 134.90625 -209.921875 126.46875 -209.921875 C 120.578125 -209.921875 115.453125 -206.59375 112.890625 -201.734375 L 83.453125 -146.4375 L 52.734375 -202.234375 C 50.171875 -206.84375 45.0625 -209.921875 39.421875 -209.921875 C 30.96875 -209.921875 24.0625 -203.015625 24.0625 -194.5625 C 24.0625 -191.75 24.828125 -189.1875 26.109375 -186.875 L 66.046875 -114.171875 L 14.59375 -17.40625 C 13.5625 -15.359375 12.796875 -12.796875 12.796875 -10.234375 C 12.796875 -1.796875 19.71875 5.125 28.15625 5.125 C 34.046875 5.125 39.171875 1.796875 41.734375 -3.078125 L 83.71875 -81.921875 L 127.484375 -2.5625 C 130.296875 2.046875 135.171875 5.125 140.796875 5.125 C 149.25 5.125 156.15625 -1.796875 156.15625 -10.234375 C 156.15625 -13.0625 155.390625 -15.609375 154.109375 -17.921875 Z M 101.125 -114.4375 "/>
</symbol>
<symbol overflow="visible" id="glyph0-8">
<path style="stroke:none;" d="M 22.53125 -204.796875 L 22.53125 -10.234375 C 22.53125 -1.03125 28.671875 5.125 37.890625 5.125 C 47.109375 5.125 53.25 -1.03125 53.25 -10.234375 L 53.25 -93.703125 L 120.828125 -93.703125 C 130.046875 -93.703125 136.1875 -99.84375 136.1875 -109.0625 C 136.1875 -118.265625 130.046875 -124.421875 120.828125 -124.421875 L 53.25 -124.421875 L 53.25 -174.078125 L 137.734375 -174.078125 C 146.9375 -174.078125 153.09375 -180.21875 153.09375 -189.4375 C 153.09375 -198.65625 146.9375 -204.796875 137.734375 -204.796875 Z M 22.53125 -204.796875 "/>
</symbol>
<symbol overflow="visible" id="glyph0-9">
<path style="stroke:none;" d="M 106.5 0 C 143.875 0 168.953125 -25.59375 168.953125 -63.234375 C 168.953125 -79.609375 160 -98.046875 145.921875 -110.078125 C 158.46875 -119.046875 166.40625 -134.90625 166.40625 -149.5 C 166.40625 -185.34375 146.4375 -204.796875 108.546875 -204.796875 L 25.59375 -204.796875 L 25.59375 0 Z M 56.3125 -173.0625 L 113.15625 -173.0625 C 124.421875 -173.0625 132.09375 -163.84375 132.09375 -150.53125 C 132.09375 -137.21875 124.421875 -128 113.15625 -128 L 56.3125 -128 Z M 56.3125 -95.75 L 106.5 -95.75 C 124.421875 -95.75 136.1875 -82.4375 136.1875 -63.234375 C 136.1875 -43.78125 124.421875 -30.71875 106.5 -30.71875 L 56.3125 -30.71875 Z M 56.3125 -95.75 "/>
</symbol>
<symbol overflow="visible" id="glyph0-10">
<path style="stroke:none;" d="M 25.59375 -10.234375 C 25.59375 -1.03125 31.75 5.125 40.953125 5.125 C 50.171875 5.125 56.3125 -1.03125 56.3125 -10.234375 L 56.3125 -140.03125 L 92.15625 -75.78125 C 95.75 -69.625 101.375 -65.53125 106.5 -65.53125 C 111.609375 -65.53125 117.25 -69.625 120.3125 -75.78125 L 153.59375 -140.03125 L 153.59375 -10.234375 C 153.59375 -1.03125 159.75 5.125 168.953125 5.125 C 178.171875 5.125 184.3125 -1.03125 184.3125 -10.234375 L 184.3125 -194.5625 C 184.3125 -203.78125 178.171875 -209.921875 168.953125 -209.921875 C 163.328125 -209.921875 157.953125 -206.59375 155.390625 -201.734375 L 106.5 -107.515625 L 54.265625 -202.234375 C 51.71875 -206.84375 46.34375 -209.921875 40.953125 -209.921875 C 31.75 -209.921875 25.59375 -203.78125 25.59375 -194.5625 Z M 25.59375 -10.234375 "/>
</symbol>
<symbol overflow="visible" id="glyph0-11">
<path style="stroke:none;" d="M 2.5625 -67.078125 C 2.5625 -24.3125 30.203125 4.09375 73.21875 4.09375 C 112.125 4.09375 138.234375 -19.453125 138.234375 -54.265625 L 138.234375 -194.5625 C 138.234375 -203.78125 132.09375 -209.921875 122.875 -209.921875 C 113.65625 -209.921875 107.515625 -203.78125 107.515625 -194.5625 L 107.515625 -60.421875 C 107.515625 -40.703125 93.703125 -26.625 73.21875 -26.625 C 50.6875 -26.625 35.328125 -42.75 35.328125 -67.078125 L 35.328125 -72.1875 C 35.328125 -81.40625 29.1875 -87.546875 19.96875 -87.546875 C 9.46875 -87.546875 2.5625 -79.359375 2.5625 -67.078125 Z M 2.5625 -67.078125 "/>
</symbol>
<symbol overflow="visible" id="glyph0-12">
<path style="stroke:none;" d="M 139.515625 -189.4375 C 139.515625 -198.65625 133.375 -204.796875 124.15625 -204.796875 L 21.765625 -204.796875 C 12.546875 -204.796875 6.40625 -198.65625 6.40625 -189.4375 C 6.40625 -180.21875 12.546875 -174.078125 21.765625 -174.078125 L 57.09375 -174.078125 L 57.09375 -10.234375 C 57.09375 -1.03125 63.234375 5.125 72.453125 5.125 C 81.65625 5.125 87.8125 -1.03125 87.8125 -10.234375 L 87.8125 -174.078125 L 124.15625 -174.078125 C 133.375 -174.078125 139.515625 -180.21875 139.515625 -189.4375 Z M 139.515625 -189.4375 "/>
</symbol>
<symbol overflow="visible" id="glyph0-13">
<path style="stroke:none;" d="M 227.84375 -194.5625 C 227.84375 -203.015625 220.921875 -209.921875 212.484375 -209.921875 C 205.0625 -209.921875 198.65625 -204.546875 197.375 -197.375 L 197.125 -196.359375 L 174.078125 -72.953125 L 134.140625 -198.65625 C 133.890625 -198.90625 133.890625 -198.90625 133.890625 -199.171875 C 131.84375 -205.3125 126.203125 -209.921875 119.296875 -209.921875 C 112.125 -209.921875 106.234375 -205.0625 104.453125 -198.40625 L 71.6875 -74.5 L 43.265625 -197.890625 C 41.734375 -204.796875 35.578125 -209.921875 28.15625 -209.921875 C 19.71875 -209.921875 12.796875 -203.015625 12.796875 -194.5625 C 12.796875 -193.53125 12.796875 -192.25 13.0625 -191.234375 L 55.296875 -7.171875 L 55.296875 -6.90625 C 56.828125 0 62.96875 5.125 70.40625 5.125 C 77.5625 5.125 83.453125 0.25 85.25 -6.40625 L 120.578125 -139.78125 L 163.078125 -5.890625 C 163.328125 -5.625 163.328125 -5.625 163.328125 -5.375 C 165.375 0.765625 171.265625 5.125 177.921875 5.125 C 185.34375 5.125 191.75 -0.25 193.03125 -7.421875 L 193.28125 -8.453125 L 227.578125 -191.75 C 227.84375 -192.765625 227.84375 -193.53125 227.84375 -194.5625 Z M 227.84375 -194.5625 "/>
</symbol>
<symbol overflow="visible" id="glyph0-14">
<path style="stroke:none;" d="M 12.796875 -194.5625 C 12.796875 -193.03125 13.0625 -191.484375 13.3125 -190.203125 L 67.078125 -5.890625 C 68.859375 0.515625 75.015625 5.125 81.921875 5.125 C 88.828125 5.125 94.96875 0.515625 96.765625 -5.890625 L 150.53125 -190.203125 C 150.78125 -191.484375 151.046875 -193.03125 151.046875 -194.5625 C 151.046875 -203.015625 144.125 -209.921875 135.6875 -209.921875 C 128.765625 -209.921875 122.875 -205.3125 121.09375 -198.90625 L 81.921875 -65.53125 L 42.75 -198.90625 C 40.953125 -205.3125 35.078125 -209.921875 28.15625 -209.921875 C 19.71875 -209.921875 12.796875 -203.015625 12.796875 -194.5625 Z M 12.796875 -194.5625 "/>
</symbol>
<symbol overflow="visible" id="glyph0-15">
<path style="stroke:none;" d="M 51.71875 -30.71875 L 51.71875 -93.1875 L 118.265625 -93.1875 C 127.484375 -93.1875 133.625 -99.328125 133.625 -108.546875 C 133.625 -117.765625 127.484375 -123.90625 118.265625 -123.90625 L 51.71875 -123.90625 L 51.71875 -174.078125 L 140.28125 -174.078125 C 149.5 -174.078125 155.640625 -180.21875 155.640625 -189.4375 C 155.640625 -198.65625 149.5 -204.796875 140.28125 -204.796875 L 22.53125 -204.796875 L 22.53125 0 L 140.28125 0 C 149.5 0 155.640625 -6.140625 155.640625 -15.359375 C 155.640625 -24.578125 149.5 -30.71875 140.28125 -30.71875 Z M 51.71875 -30.71875 "/>
</symbol>
<symbol overflow="visible" id="glyph0-16">
<path style="stroke:none;" d="M 92.15625 -208.890625 C 47.875 -208.890625 19.203125 -168.1875 19.203125 -106.5 C 19.203125 -40.1875 47.875 4.09375 92.15625 4.09375 C 135.421875 4.09375 165.125 -40.1875 165.125 -106.5 C 165.125 -168.1875 135.421875 -208.890625 92.15625 -208.890625 Z M 92.15625 -178.171875 C 118.015625 -178.171875 135.421875 -147.453125 135.421875 -101.375 C 135.421875 -56.578125 118.015625 -26.625 92.15625 -26.625 C 66.296875 -26.625 48.890625 -56.578125 48.890625 -101.375 C 48.890625 -147.453125 66.296875 -178.171875 92.15625 -178.171875 Z M 92.15625 -178.171875 "/>
</symbol>
<symbol overflow="visible" id="glyph0-17">
<path style="stroke:none;" d="M 156.15625 -209.921875 C 146.9375 -209.921875 140.796875 -203.78125 140.796875 -194.5625 L 140.796875 -62.203125 L 54.265625 -202.234375 C 51.453125 -206.84375 46.078125 -209.921875 40.953125 -209.921875 C 31.484375 -209.921875 25.59375 -203.78125 25.59375 -194.5625 L 25.59375 -10.234375 C 25.59375 -1.03125 32 5.125 41.734375 5.125 C 50.4375 5.125 56.3125 -1.03125 56.3125 -10.234375 L 56.3125 -142.59375 L 142.84375 -2.5625 C 145.65625 2.046875 150.78125 5.125 156.15625 5.125 C 163.84375 5.125 171.515625 -1.53125 171.515625 -10.234375 L 171.515625 -194.5625 C 171.515625 -203.78125 165.375 -209.921875 156.15625 -209.921875 Z M 156.15625 -209.921875 "/>
</symbol>
<symbol overflow="visible" id="glyph0-18">
<path style="stroke:none;" d="M 12.796875 -194.5625 C 12.796875 -191.234375 14.078125 -188.15625 15.875 -185.34375 L 75.265625 -83.96875 L 75.265625 -10.234375 C 75.265625 -1.03125 81.40625 5.125 90.625 5.125 C 99.84375 5.125 105.984375 -1.03125 105.984375 -10.234375 L 105.984375 -90.109375 L 158.96875 -186.625 C 160.25 -188.921875 161.28125 -191.484375 161.28125 -194.5625 C 161.28125 -203.015625 154.375 -209.921875 145.921875 -209.921875 C 140.28125 -209.921875 135.421875 -207.109375 132.859375 -202.5 L 88.578125 -121.09375 L 41.984375 -201.21875 C 38.90625 -206.34375 34.296875 -209.921875 28.15625 -209.921875 C 19.71875 -209.921875 12.796875 -203.015625 12.796875 -194.5625 Z M 12.796875 -194.5625 "/>
</symbol>
<symbol overflow="visible" id="glyph0-19">
<path style="stroke:none;" d="M 151.046875 -209.921875 C 142.34375 -209.921875 135.6875 -203.78125 135.6875 -194.5625 L 135.6875 -124.421875 L 56.3125 -124.421875 L 56.3125 -194.5625 C 56.3125 -203.78125 50.6875 -209.921875 40.953125 -209.921875 C 32.25 -209.921875 25.59375 -203.78125 25.59375 -194.5625 L 25.59375 -10.234375 C 25.59375 -1.03125 31.484375 5.125 40.953125 5.125 C 49.921875 5.125 56.3125 -1.03125 56.3125 -10.234375 L 56.3125 -93.703125 L 135.6875 -93.703125 L 135.6875 -10.234375 C 135.6875 -1.03125 141.5625 5.125 151.046875 5.125 C 160 5.125 166.40625 -1.03125 166.40625 -10.234375 L 166.40625 -194.5625 C 166.40625 -203.78125 160.765625 -209.921875 151.046875 -209.921875 Z M 151.046875 -209.921875 "/>
</symbol>
<symbol overflow="visible" id="glyph0-20">
<path style="stroke:none;" d="M 162.8125 -185.34375 C 164.359375 -187.640625 165.125 -190.46875 165.125 -193.53125 C 165.125 -201.984375 158.203125 -208.890625 149.765625 -208.890625 C 144.390625 -208.890625 139.515625 -206.078125 136.703125 -201.734375 L 132.09375 -194.5625 C 121.09375 -203.78125 107.515625 -208.890625 92.15625 -208.890625 C 47.875 -208.890625 19.203125 -168.1875 19.203125 -106.5 C 19.203125 -79.109375 24.0625 -55.546875 32.765625 -37.375 L 21.5 -19.453125 C 19.96875 -17.15625 19.203125 -14.34375 19.203125 -11.265625 C 19.203125 -2.8125 26.109375 4.09375 34.5625 4.09375 C 39.9375 4.09375 44.796875 1.28125 47.609375 -3.078125 L 52.484375 -10.75 C 63.484375 -1.28125 76.796875 4.09375 92.15625 4.09375 C 135.421875 4.09375 165.125 -40.1875 165.125 -106.5 C 165.125 -130.8125 160.515625 -152.0625 152.3125 -168.453125 Z M 48.890625 -101.375 C 48.890625 -147.453125 66.296875 -178.171875 92.15625 -178.171875 C 101.125 -178.171875 108.796875 -174.59375 115.453125 -167.9375 L 52.484375 -68.609375 C 50.171875 -78.34375 48.890625 -89.34375 48.890625 -101.375 Z M 135.421875 -101.375 C 135.421875 -56.578125 118.015625 -26.625 92.15625 -26.625 C 83.203125 -26.625 75.265625 -30.203125 68.859375 -36.609375 L 131.578125 -135.9375 C 134.140625 -125.703125 135.421875 -114.171875 135.421875 -101.375 Z M 135.421875 -101.375 "/>
</symbol>
<symbol overflow="visible" id="glyph0-21">
<path style="stroke:none;" d="M 56.3125 -194.5625 C 56.3125 -203.78125 50.171875 -209.921875 40.953125 -209.921875 C 31.75 -209.921875 25.59375 -203.78125 25.59375 -194.5625 L 25.59375 0 L 151.046875 0 C 160.25 0 166.40625 -6.140625 166.40625 -15.359375 C 166.40625 -24.578125 160.25 -30.71875 151.046875 -30.71875 L 56.3125 -30.71875 Z M 56.3125 -194.5625 "/>
</symbol>
<symbol overflow="visible" id="glyph0-22">
<path style="stroke:none;" d="M 25.59375 -204.796875 L 25.59375 -117.765625 L 12.28125 -117.765625 C 3.328125 -117.765625 -2.5625 -111.609375 -2.5625 -102.40625 C -2.5625 -93.1875 3.328125 -87.046875 12.28125 -87.046875 L 25.59375 -87.046875 L 25.59375 0 L 88.0625 0 C 135.171875 -0.25 166.40625 -40.703125 166.40625 -103.421875 C 166.40625 -165.125 135.171875 -204.796875 88.0625 -204.796875 Z M 56.3125 -30.71875 L 56.3125 -87.046875 L 79.875 -87.046875 C 88.828125 -87.046875 94.71875 -93.1875 94.71875 -102.40625 C 94.71875 -111.609375 88.828125 -117.765625 79.875 -117.765625 L 56.3125 -117.765625 L 56.3125 -174.078125 L 83.96875 -174.078125 C 116.21875 -174.34375 133.625 -150.015625 133.625 -103.421875 C 133.625 -55.046875 116.21875 -29.953125 83.96875 -30.71875 Z M 56.3125 -30.71875 "/>
</symbol>
<symbol overflow="visible" id="glyph0-23">
<path style="stroke:none;" d="M 151.046875 -209.921875 C 142.59375 -209.921875 135.6875 -203.015625 135.6875 -194.5625 L 135.6875 -68.09375 C 135.6875 -43.265625 120.3125 -26.625 97.28125 -26.625 C 72.703125 -26.625 56.3125 -43.265625 56.3125 -68.09375 L 56.3125 -194.5625 C 56.3125 -203.015625 49.40625 -209.921875 40.953125 -209.921875 C 32.515625 -209.921875 25.59375 -203.015625 25.59375 -194.5625 L 25.59375 -68.09375 C 25.59375 -24.828125 54.265625 4.09375 97.28125 4.09375 C 138.75 4.09375 166.40625 -24.828125 166.40625 -68.09375 L 166.40625 -194.5625 C 166.40625 -203.015625 159.484375 -209.921875 151.046875 -209.921875 Z M 151.046875 -209.921875 "/>
</symbol>
<symbol overflow="visible" id="glyph0-24">
<path style="stroke:none;" d="M 19.203125 -99.328125 C 19.203125 -38.90625 47.359375 4.09375 89.59375 4.09375 C 124.15625 4.09375 147.203125 -24.0625 147.203125 -66.5625 L 147.203125 -116.21875 L 93.4375 -116.21875 C 83.71875 -116.21875 77.0625 -109.5625 77.0625 -99.328125 C 77.0625 -89.09375 83.71875 -82.4375 93.4375 -82.4375 L 118.015625 -82.4375 C 118.015625 -48.890625 106.75 -26.625 89.59375 -26.625 C 64.765625 -26.625 48.890625 -56.828125 48.890625 -99.328125 C 48.890625 -143.875 65.53125 -176.640625 91.390625 -176.640625 C 102.90625 -176.640625 114.4375 -168.1875 120.3125 -155.640625 C 122.875 -150.015625 128.765625 -146.4375 134.40625 -146.4375 C 143.609375 -146.4375 149.765625 -152.828125 149.765625 -162.296875 C 149.765625 -163.578125 149.25 -165.890625 148.734375 -167.9375 C 141.828125 -192.515625 121.09375 -208.890625 92.421875 -208.890625 C 48.390625 -208.890625 19.203125 -163.84375 19.203125 -99.328125 Z M 19.203125 -99.328125 "/>
</symbol>
<symbol overflow="visible" id="glyph0-25">
<path style="stroke:none;" d="M 25.59375 -10.234375 C 25.59375 -1.03125 31.484375 5.125 40.953125 5.125 C 49.921875 5.125 56.3125 -1.03125 56.3125 -10.234375 L 56.3125 -84.484375 L 103.9375 -84.484375 C 142.84375 -84.484375 163.84375 -105.46875 163.84375 -144.640625 C 163.84375 -183.8125 142.84375 -204.796875 103.9375 -204.796875 L 25.59375 -204.796875 Z M 56.3125 -174.078125 L 103.9375 -174.078125 C 122.625 -174.078125 135.171875 -162.296875 135.171875 -144.640625 C 135.171875 -126.96875 122.625 -115.203125 103.9375 -115.203125 L 56.3125 -115.203125 Z M 56.3125 -174.078125 "/>
</symbol>
<symbol overflow="visible" id="glyph0-26">
<path style="stroke:none;" d="M 19.203125 -55.296875 L 19.71875 -51.71875 C 27.90625 -16.890625 52.484375 4.09375 84.984375 4.09375 C 130.046875 4.09375 160 -20.21875 160 -56.578125 C 160 -83.71875 138.234375 -106.75 97.796875 -122.875 C 71.9375 -132.359375 58.109375 -143.875 58.109375 -155.640625 C 58.109375 -167.9375 68.09375 -178.171875 86.53125 -178.171875 C 104.1875 -178.171875 117.5 -170.234375 124.15625 -153.34375 C 126.46875 -147.96875 131.84375 -144.125 138.234375 -144.125 C 147.453125 -144.125 153.59375 -150.265625 153.59375 -159.484375 C 153.59375 -160.765625 153.34375 -163.328125 152.578125 -165.375 C 142.84375 -193.796875 119.546875 -208.890625 83.453125 -208.890625 C 49.921875 -208.890625 27.390625 -185.859375 27.390625 -154.109375 C 27.390625 -128.765625 47.609375 -108.546875 85.25 -95.75 C 113.921875 -86.78125 129.28125 -72.703125 129.28125 -55.046875 C 129.28125 -37.890625 114.171875 -26.625 91.640625 -26.625 C 69.375 -26.625 54.53125 -37.890625 49.40625 -58.875 C 47.609375 -66.046875 41.984375 -70.65625 34.5625 -70.65625 C 25.34375 -70.65625 19.203125 -64.515625 19.203125 -55.296875 Z M 19.203125 -55.296875 "/>
</symbol>
<symbol overflow="visible" id="glyph0-27">
<path style="stroke:none;" d="M 147.203125 -33.03125 C 156.921875 -51.96875 162.5625 -77.0625 162.5625 -106.5 C 162.5625 -168.453125 133.890625 -209.921875 90.875 -209.921875 C 47.875 -209.921875 19.203125 -168.453125 19.203125 -106.5 C 19.203125 -39.421875 47.875 5.125 90.875 5.125 C 105.21875 5.125 117.765625 0.25 128.25 -8.703125 L 154.875 16.125 C 157.703125 18.4375 161.28125 19.96875 165.125 19.96875 C 173.5625 19.96875 180.484375 13.0625 180.484375 4.609375 C 180.484375 0.25 178.6875 -3.578125 175.875 -6.40625 Z M 90.875 -25.59375 C 65.28125 -25.59375 48.390625 -55.8125 48.390625 -101.375 C 48.390625 -147.96875 65.28125 -179.203125 90.875 -179.203125 C 116.484375 -179.203125 133.375 -147.96875 133.375 -101.375 C 133.375 -82.4375 130.5625 -66.046875 125.1875 -53.5 L 118.015625 -60.15625 C 115.453125 -62.96875 111.609375 -64.515625 107.515625 -64.515625 C 99.078125 -64.515625 92.15625 -57.59375 92.15625 -49.15625 C 92.15625 -44.796875 94.203125 -40.703125 97.03125 -37.890625 L 105.984375 -29.4375 C 101.375 -26.875 96.25 -25.59375 90.875 -25.59375 Z M 90.875 -25.59375 "/>
</symbol>
<symbol overflow="visible" id="glyph0-28">
<path style="stroke:none;" d="M 40.953125 -209.921875 C 31.75 -209.921875 25.59375 -203.78125 25.59375 -194.5625 L 25.59375 -10.234375 C 25.59375 -1.03125 31.75 5.125 40.953125 5.125 C 50.171875 5.125 56.3125 -1.03125 56.3125 -10.234375 L 56.3125 -194.5625 C 56.3125 -203.78125 50.171875 -209.921875 40.953125 -209.921875 Z M 40.953125 -209.921875 "/>
</symbol>
<symbol overflow="visible" id="glyph0-29">
<path style="stroke:none;" d="M 173.3125 -30.71875 L 173.3125 -93.1875 L 239.875 -93.1875 C 249.09375 -93.1875 255.234375 -99.328125 255.234375 -108.546875 C 255.234375 -117.765625 249.09375 -123.90625 239.875 -123.90625 L 173.3125 -123.90625 L 173.3125 -174.078125 L 261.890625 -174.078125 C 271.109375 -174.078125 277.25 -180.21875 277.25 -189.4375 C 277.25 -198.65625 271.109375 -204.796875 261.890625 -204.796875 L 158.71875 -204.796875 C 153.59375 -204.796875 148.984375 -202.234375 146.171875 -198.40625 L 15.609375 -20.21875 C 13.828125 -17.65625 12.796875 -14.59375 12.796875 -11.265625 C 12.796875 -2.8125 19.71875 4.09375 28.15625 4.09375 C 33.28125 4.09375 37.890625 1.53125 40.703125 -2.296875 L 65.53125 -36.359375 L 144.125 -36.359375 L 144.125 0 L 261.890625 0 C 271.109375 0 277.25 -6.140625 277.25 -15.359375 C 277.25 -24.578125 271.109375 -30.71875 261.890625 -30.71875 Z M 144.125 -143.609375 L 144.125 -66.046875 L 87.296875 -66.046875 Z M 144.125 -143.609375 "/>
</symbol>
<symbol overflow="visible" id="glyph0-30">
<path style="stroke:none;" d="M 25.59375 0 L 88.0625 0 C 135.171875 -0.25 166.40625 -40.703125 166.40625 -103.421875 C 166.40625 -165.125 135.171875 -204.796875 88.0625 -204.796875 L 25.59375 -204.796875 Z M 56.3125 -30.71875 L 56.3125 -174.078125 L 83.96875 -174.078125 C 116.21875 -174.34375 133.625 -150.015625 133.625 -103.421875 C 133.625 -55.046875 116.21875 -29.953125 83.96875 -30.71875 Z M 56.3125 -30.71875 "/>
</symbol>
</g>
</defs>
<g id="surface1">
<rect x="0" y="0" width="1160.453125" height="1516.8125" style="fill:rgb(13.333333%,46.666667%,73.333333%);fill-opacity:1;stroke:none;"/>
<g style="fill:rgb(93.333333%,93.333333%,93.333333%);fill-opacity:1;">
  <use xlink:href="#glyph0-1" x="16" y="246.40625"/>
  <use xlink:href="#glyph0-2" x="190.078125" y="246.40625"/>
  <use xlink:href="#glyph0-3" x="373.125" y="246.40625"/>
  <use xlink:href="#glyph0-4" x="556.171875" y="246.40625"/>
  <use xlink:href="#glyph0-5" x="726.40625" y="246.40625"/>
  <use xlink:href="#glyph0-6" x="913.28125" y="246.40625"/>
</g>
<g style="fill:rgb(93.333333%,93.333333%,93.333333%);fill-opacity:1;">
  <use xlink:href="#glyph0-7" x="16" y="553.609375"/>
  <use xlink:href="#glyph0-8" x="184.953125" y="553.609375"/>
  <use xlink:href="#glyph0-9" x="350.84375" y="553.609375"/>
  <use xlink:href="#glyph0-10" x="532.609375" y="553.609375"/>
  <use xlink:href="#glyph0-11" x="742.53125" y="553.609375"/>
  <use xlink:href="#glyph0-12" x="906.375" y="553.609375"/>
</g>
<g style="fill:rgb(93.333333%,93.333333%,93.333333%);fill-opacity:1;">
  <use xlink:href="#glyph0-13" x="16" y="860.8125"/>
  <use xlink:href="#glyph0-14" x="256.640625" y="860.8125"/>
  <use xlink:href="#glyph0-15" x="420.484375" y="860.8125"/>
  <use xlink:href="#glyph0-16" x="588.9375" y="860.8125"/>
  <use xlink:href="#glyph0-17" x="773.25" y="860.8125"/>
  <use xlink:href="#glyph0-18" x="970.375" y="860.8125"/>
</g>
<g style="fill:rgb(93.333333%,93.333333%,93.333333%);fill-opacity:1;">
  <use xlink:href="#glyph0-19" x="16" y="1168.015625"/>
  <use xlink:href="#glyph0-20" x="208" y="1168.015625"/>
  <use xlink:href="#glyph0-21" x="392.3125" y="1168.015625"/>
  <use xlink:href="#glyph0-22" x="561.265625" y="1168.015625"/>
  <use xlink:href="#glyph0-23" x="746.859375" y="1168.015625"/>
  <use xlink:href="#glyph0-24" x="938.859375" y="1168.015625"/>
</g>
<g style="fill:rgb(93.333333%,93.333333%,93.333333%);fill-opacity:1;">
  <use xlink:href="#glyph0-25" x="16" y="1475.21875"/>
  <use xlink:href="#glyph0-26" x="199.046875" y="1475.21875"/>
  <use xlink:href="#glyph0-27" x="378.25" y="1475.21875"/>
  <use xlink:href="#glyph0-28" x="560.015625" y="1475.21875"/>
  <use xlink:href="#glyph0-29" x="641.9375" y="1475.21875"/>
  <use xlink:href="#glyph0-30" x="946.578125" y="1475.21875"/>
</g>
</g>
</svg>
