<?xml version="1.0" encoding="UTF-8"?>
<svg xmlns="http://www.w3.org/2000/svg" xmlns:xlink="http://www.w3.org/1999/xlink" width="1027.59375pt" height="1516.8125pt" viewBox="0 0 1027.59375 1516.8125" version="1.1">
<defs>
<g>
<symbol overflow="visible" id="glyph0-0">
<path style="stroke:none;" d=""/>
</symbol>
<symbol overflow="visible" id="glyph0-1">
<path style="stroke:none;" d="M 151.8125 -86.015625 C 144.890625 -117.25 116.734375 -140.796875 83.203125 -140.796875 C 44.546875 -140.796875 13.0625 -109.5625 12.796875 -70.90625 C 12.796875 -70.90625 12.796875 -70.90625 12.796875 -70.65625 C 12.796875 -52.484375 19.71875 -34.5625 33.53125 -20.734375 C 60.15625 6.140625 102.90625 6.90625 130.296875 -18.4375 C 131.328125 -18.9375 132.359375 -19.71875 133.125 -20.484375 C 138.234375 -25.59375 138.234375 -33.53125 133.125 -38.65625 C 128 -43.78125 120.0625 -43.78125 114.9375 -38.65625 C 97.28125 -21.25 69.125 -21.25 51.453125 -38.65625 C 42.75 -47.609375 38.40625 -58.875 38.40625 -70.40625 L 139.265625 -70.40625 C 146.4375 -70.40625 152.0625 -76.03125 152.0625 -83.203125 C 152.0625 -84.21875 152.0625 -84.984375 151.8125 -86.015625 Z M 46.34375 -96 C 54.53125 -107.515625 67.84375 -115.203125 83.203125 -115.203125 C 98.5625 -115.203125 111.875 -107.515625 120.0625 -96 Z M 46.34375 -96 "/>
</symbol>
<symbol overflow="visible" id="glyph0-2">
<path style="stroke:none;" d="M 38.40625 -115.203125 L 38.40625 -140.796875 C 38.40625 -158.46875 52.734375 -172.796875 70.40625 -172.796875 C 77.5625 -172.796875 83.203125 -178.4375 83.203125 -185.59375 C 83.203125 -192.765625 77.5625 -198.40625 70.40625 -198.40625 C 38.65625 -198.40625 12.796875 -172.546875 12.796875 -140.796875 L 12.796875 -12.796875 C 12.796875 -5.625 18.4375 0 25.59375 0 C 32.765625 0 38.40625 -5.625 38.40625 -12.796875 L 38.40625 -89.59375 L 70.40625 -89.59375 C 77.5625 -89.59375 83.203125 -95.234375 83.203125 -102.40625 C 83.203125 -109.5625 77.5625 -115.203125 70.40625 -115.203125 Z M 38.40625 -115.203125 "/>
</symbol>
<symbol overflow="visible" id="glyph0-3">
<path style="stroke:none;" d="M 33.53125 -20.734375 C 47.359375 -6.90625 65.28125 0 83.203125 0 C 101.625 0 120.828125 -8.1875 133.125 -20.484375 C 135.6875 -23.046875 136.953125 -26.375 136.953125 -29.703125 C 136.953125 -32.765625 135.6875 -36.09375 133.125 -38.65625 C 130.5625 -41.21875 127.234375 -42.5 124.15625 -42.5 C 120.828125 -42.5 117.5 -41.21875 114.9375 -38.65625 C 106.234375 -29.953125 94.71875 -25.59375 83.203125 -25.59375 C 71.6875 -25.59375 60.421875 -29.953125 51.453125 -38.65625 C 42.75 -47.609375 38.40625 -58.875 38.40625 -70.40625 C 38.40625 -81.921875 42.75 -93.4375 51.453125 -102.140625 C 60.421875 -110.84375 71.6875 -115.203125 83.203125 -115.203125 C 94.71875 -115.203125 106.234375 -110.84375 114.9375 -102.140625 C 117.5 -99.578125 120.828125 -98.296875 124.15625 -98.296875 C 127.234375 -98.296875 130.5625 -99.578125 133.125 -102.140625 C 135.6875 -104.703125 136.953125 -108.03125 136.953125 -111.359375 C 136.953125 -114.4375 135.6875 -117.765625 133.125 -120.3125 C 121.34375 -132.09375 102.140625 -140.796875 83.203125 -140.796875 C 65.28125 -140.796875 47.359375 -133.890625 33.53125 -120.0625 C 19.71875 -106.5 12.796875 -88.3125 12.796875 -70.40625 C 12.796875 -52.484375 19.71875 -34.5625 33.53125 -20.734375 Z M 33.53125 -20.734375 "/>
</symbol>
<symbol overflow="visible" id="glyph0-4">
<path style="stroke:none;" d="M 169.46875 10.234375 C 164.859375 4.859375 156.921875 4.09375 151.296875 8.703125 L 148.484375 11.015625 L 148.484375 -128 C 148.484375 -135.171875 142.84375 -140.796875 135.6875 -140.796875 C 128.765625 -140.796875 123.140625 -135.421875 122.875 -128.515625 C 111.609375 -136.1875 97.796875 -140.796875 83.203125 -140.796875 C 44.28125 -140.796875 12.796875 -109.3125 12.796875 -70.40625 C 12.796875 -31.484375 44.28125 0 83.203125 0 C 97.796875 0 111.609375 -4.609375 122.875 -12.28125 L 122.875 38.40625 C 122.875 45.5625 128.515625 51.203125 135.6875 51.203125 C 138.234375 51.203125 140.796875 50.4375 142.84375 49.15625 C 143.359375 48.890625 143.609375 48.390625 144.125 48.125 L 167.9375 28.421875 C 173.3125 23.8125 174.078125 15.875 169.46875 10.234375 Z M 83.203125 -25.59375 C 58.375 -25.59375 38.40625 -45.5625 38.40625 -70.40625 C 38.40625 -95.234375 58.375 -115.203125 83.203125 -115.203125 C 100.359375 -115.203125 115.453125 -105.46875 122.875 -91.390625 L 122.875 -49.40625 C 115.453125 -35.328125 100.359375 -25.59375 83.203125 -25.59375 Z M 83.203125 -25.59375 "/>
</symbol>
<symbol overflow="visible" id="glyph0-5">
<path style="stroke:none;" d="M 140.796875 -140.796875 C 133.625 -140.796875 128 -135.171875 128 -128 L 128 -70.40625 C 128 -45.5625 108.03125 -25.59375 83.203125 -25.59375 C 58.375 -25.59375 38.40625 -45.5625 38.40625 -70.40625 L 38.40625 -128 C 38.40625 -135.171875 32.765625 -140.796875 25.59375 -140.796875 C 18.4375 -140.796875 12.796875 -135.171875 12.796875 -128 L 12.796875 -70.40625 C 12.796875 -31.484375 44.28125 0 83.203125 0 C 122.109375 0 153.59375 -31.484375 153.59375 -70.40625 L 153.59375 -128 C 153.59375 -135.171875 147.96875 -140.796875 140.796875 -140.796875 Z M 140.796875 -140.796875 "/>
</symbol>
<symbol overflow="visible" id="glyph0-6">
<path style="stroke:none;" d="M 135.6875 -204.796875 C 128.515625 -204.796875 122.875 -199.171875 122.875 -192 L 122.875 -128.515625 C 111.609375 -136.1875 97.796875 -140.796875 83.203125 -140.796875 C 44.28125 -140.796875 12.796875 -109.3125 12.796875 -70.40625 C 12.796875 -31.484375 44.28125 0 83.203125 0 C 97.796875 0 111.609375 -4.609375 122.875 -12.28125 C 123.140625 -5.375 128.765625 0 135.6875 0 C 142.84375 0 148.484375 -5.625 148.484375 -12.796875 L 148.484375 -192 C 148.484375 -199.171875 142.84375 -204.796875 135.6875 -204.796875 Z M 83.203125 -25.59375 C 58.375 -25.59375 38.40625 -45.5625 38.40625 -70.40625 C 38.40625 -95.234375 58.375 -115.203125 83.203125 -115.203125 C 100.359375 -115.203125 115.453125 -105.46875 122.875 -91.390625 L 122.875 -49.40625 C 115.453125 -35.328125 100.359375 -25.59375 83.203125 -25.59375 Z M 83.203125 -25.59375 "/>
</symbol>
<symbol overflow="visible" id="glyph0-7">
<path style="stroke:none;" d="M 185.859375 -140.796875 C 180.484375 -140.796875 175.609375 -137.46875 173.828125 -132.09375 L 145.921875 -51.71875 L 118.53125 -130.8125 C 118.015625 -132.859375 116.984375 -134.65625 115.71875 -136.1875 C 113.40625 -139.015625 109.828125 -140.796875 105.984375 -140.796875 L 105.734375 -140.796875 C 101.890625 -140.796875 98.296875 -139.015625 96 -136.1875 C 94.71875 -134.65625 93.703125 -132.859375 93.1875 -130.8125 L 65.796875 -51.71875 L 37.890625 -132.09375 C 36.09375 -137.46875 31.234375 -140.796875 25.859375 -140.796875 C 18.171875 -140.796875 12.796875 -134.65625 12.796875 -128 C 12.796875 -126.71875 13.0625 -125.1875 13.5625 -123.90625 L 53.5 -8.703125 C 55.296875 -3.328125 60.15625 0 65.53125 0 C 65.53125 0 65.796875 0 65.796875 0 L 66.046875 0 C 71.421875 0 76.28125 -3.328125 78.078125 -8.703125 L 105.984375 -88.828125 L 133.625 -8.703125 C 135.421875 -3.328125 140.28125 0 145.65625 0 C 145.65625 0 145.921875 0 145.921875 0 L 146.171875 0 C 151.546875 0 156.421875 -3.328125 158.203125 -8.703125 L 198.140625 -123.90625 C 198.65625 -125.1875 198.90625 -126.71875 198.90625 -128 C 198.90625 -134.65625 193.53125 -140.796875 185.859375 -140.796875 Z M 185.859375 -140.796875 "/>
</symbol>
<symbol overflow="visible" id="glyph0-8">
<path style="stroke:none;" d="M 115.203125 -140.796875 C 83.453125 -140.796875 57.59375 -114.9375 57.59375 -83.203125 L 57.59375 -57.59375 C 57.59375 -39.9375 43.265625 -25.59375 25.59375 -25.59375 C 18.4375 -25.59375 12.796875 -19.96875 12.796875 -12.796875 C 12.796875 -5.625 18.4375 0 25.59375 0 C 57.34375 0 83.203125 -25.859375 83.203125 -57.59375 L 83.203125 -83.203125 C 83.203125 -100.859375 97.53125 -115.203125 115.203125 -115.203125 C 122.375 -115.203125 128 -120.828125 128 -128 C 128 -135.171875 122.375 -140.796875 115.203125 -140.796875 Z M 115.203125 -140.796875 "/>
</symbol>
<symbol overflow="visible" id="glyph0-9">
<path style="stroke:none;" d="M 55.296875 -25.59375 L 144.640625 -119.046875 C 147.203125 -121.59375 148.484375 -124.671875 148.484375 -127.75 C 148.484375 -129.53125 147.96875 -131.078125 147.453125 -132.859375 C 145.40625 -137.46875 140.796875 -140.796875 135.421875 -140.796875 L 30.71875 -140.796875 C 23.546875 -140.796875 17.921875 -135.171875 17.921875 -128 C 17.921875 -120.828125 23.546875 -115.203125 30.71875 -115.203125 L 105.734375 -115.203125 L 16.390625 -21.765625 C 14.078125 -19.453125 12.796875 -16.390625 12.796875 -12.796875 C 12.796875 -5.625 18.4375 0 25.59375 0 L 135.6875 0 C 142.84375 0 148.484375 -5.625 148.484375 -12.796875 C 148.484375 -19.96875 142.84375 -25.59375 135.6875 -25.59375 Z M 55.296875 -25.59375 "/>
</symbol>
<symbol overflow="visible" id="glyph0-10">
<path style="stroke:none;" d="M 25.59375 -166.40625 C 32.765625 -166.40625 38.40625 -172.03125 38.40625 -179.203125 C 38.40625 -186.375 32.765625 -192 25.59375 -192 C 18.4375 -192 12.796875 -186.375 12.796875 -179.203125 C 12.796875 -172.03125 18.4375 -166.40625 25.59375 -166.40625 Z M 25.59375 -140.796875 C 18.4375 -140.796875 12.796875 -135.171875 12.796875 -128 L 12.796875 0 C 12.796875 8.953125 9.21875 16.890625 3.328125 22.53125 C -1.796875 27.640625 -1.796875 35.578125 3.328125 40.703125 C 8.453125 45.828125 16.390625 45.828125 21.5 40.703125 C 32 30.203125 38.40625 15.875 38.40625 0 L 38.40625 -128 C 38.40625 -135.171875 32.765625 -140.796875 25.59375 -140.796875 Z M 25.59375 -140.796875 "/>
</symbol>
<symbol overflow="visible" id="glyph0-11">
<path style="stroke:none;" d="M 144.640625 -119.046875 C 147.203125 -121.59375 148.484375 -124.671875 148.484375 -127.75 C 148.484375 -131.078125 146.9375 -134.40625 144.390625 -136.953125 C 141.828125 -139.515625 138.5 -140.796875 135.421875 -140.796875 C 132.09375 -140.796875 128.765625 -139.265625 126.203125 -136.703125 L 80.640625 -89.09375 L 35.078125 -136.703125 C 32.515625 -139.265625 29.1875 -140.796875 25.859375 -140.796875 C 22.78125 -140.796875 19.453125 -139.515625 16.890625 -136.953125 C 14.34375 -134.40625 12.796875 -131.078125 12.796875 -127.75 C 12.796875 -124.671875 14.078125 -121.59375 16.640625 -119.046875 L 62.96875 -70.65625 L 16.390625 -21.765625 C 14.078125 -19.203125 12.796875 -16.125 12.796875 -12.796875 C 12.796875 -9.46875 14.078125 -6.140625 16.890625 -3.578125 C 19.453125 -1.28125 22.53125 0 25.59375 0 C 28.921875 0 32.25 -1.53125 34.8125 -4.09375 L 80.640625 -51.96875 L 126.46875 -4.09375 C 129.03125 -1.53125 132.359375 0 135.6875 0 C 138.75 0 141.828125 -1.28125 144.390625 -3.578125 C 147.203125 -6.140625 148.484375 -9.46875 148.484375 -12.796875 C 148.484375 -16.125 147.203125 -19.203125 144.890625 -21.765625 L 98.296875 -70.65625 Z M 144.640625 -119.046875 "/>
</symbol>
<symbol overflow="visible" id="glyph0-12">
<path style="stroke:none;" d="M 135.6875 -143.875 C 128.515625 -143.875 122.875 -138.234375 122.875 -131.078125 L 122.875 -128.515625 C 111.609375 -136.1875 97.796875 -140.796875 83.203125 -140.796875 C 44.28125 -140.796875 12.796875 -109.3125 12.796875 -70.40625 C 12.796875 -31.484375 44.28125 0 83.203125 0 C 97.796875 0 111.609375 -4.609375 122.875 -12.28125 L 122.875 -9.734375 C 122.875 -2.5625 128.515625 3.078125 135.6875 3.078125 C 142.84375 3.078125 148.484375 -2.5625 148.484375 -9.734375 L 148.484375 -131.078125 C 148.484375 -138.234375 142.84375 -143.875 135.6875 -143.875 Z M 83.203125 -25.59375 C 58.375 -25.59375 38.40625 -45.5625 38.40625 -70.40625 C 38.40625 -95.234375 58.375 -115.203125 83.203125 -115.203125 C 100.359375 -115.203125 115.453125 -105.46875 122.875 -91.390625 L 122.875 -49.40625 C 115.453125 -35.328125 100.359375 -25.59375 83.203125 -25.59375 Z M 83.203125 -25.59375 "/>
</symbol>
<symbol overflow="visible" id="glyph0-13">
<path style="stroke:none;" d="M 83.203125 0 C 122.109375 0 153.59375 -31.484375 153.59375 -70.40625 C 153.59375 -109.3125 122.109375 -140.796875 83.203125 -140.796875 C 44.28125 -140.796875 12.796875 -109.3125 12.796875 -70.40625 C 12.796875 -31.484375 44.28125 0 83.203125 0 Z M 83.203125 -25.59375 C 58.375 -25.59375 38.40625 -45.5625 38.40625 -70.40625 C 38.40625 -95.234375 58.375 -115.203125 83.203125 -115.203125 C 108.03125 -115.203125 128 -95.234375 128 -70.40625 C 128 -45.5625 108.03125 -25.59375 83.203125 -25.59375 Z M 83.203125 -25.59375 "/>
</symbol>
<symbol overflow="visible" id="glyph0-14">
<path style="stroke:none;" d="M 78.078125 -140.796875 C 63.484375 -140.796875 49.65625 -136.1875 38.40625 -128.515625 C 38.140625 -135.421875 32.515625 -140.796875 25.59375 -140.796875 C 18.4375 -140.796875 12.796875 -135.171875 12.796875 -128 L 12.796875 38.40625 C 12.796875 45.5625 18.4375 51.203125 25.59375 51.203125 C 32.765625 51.203125 38.40625 45.5625 38.40625 38.40625 L 38.40625 -12.28125 C 49.65625 -4.609375 63.484375 0 78.078125 0 C 116.984375 0 148.484375 -31.484375 148.484375 -70.40625 C 148.484375 -109.3125 116.984375 -140.796875 78.078125 -140.796875 Z M 78.078125 -25.59375 C 60.921875 -25.59375 45.828125 -35.328125 38.40625 -49.40625 L 38.40625 -91.390625 C 45.828125 -105.46875 60.921875 -115.203125 78.078125 -115.203125 C 102.90625 -115.203125 122.875 -95.234375 122.875 -70.40625 C 122.875 -45.5625 102.90625 -25.59375 78.078125 -25.59375 Z M 78.078125 -25.59375 "/>
</symbol>
<symbol overflow="visible" id="glyph0-15">
<path style="stroke:none;" d="M 102.40625 -119.046875 C 104.953125 -121.59375 106.234375 -124.671875 106.234375 -127.75 C 106.234375 -131.078125 104.703125 -134.40625 102.140625 -136.953125 C 99.578125 -139.515625 96.25 -140.796875 93.1875 -140.796875 C 89.859375 -140.796875 86.53125 -139.265625 83.96875 -136.703125 L 38.40625 -89.09375 L 38.40625 -192 C 38.40625 -199.171875 32.765625 -204.796875 25.59375 -204.796875 C 18.4375 -204.796875 12.796875 -199.171875 12.796875 -192 L 12.796875 -12.796875 C 12.796875 -5.625 18.4375 0 25.59375 0 C 32.765625 0 38.40625 -5.625 38.40625 -12.796875 L 38.40625 -51.96875 L 84.21875 -4.09375 C 86.78125 -1.53125 90.109375 0 93.4375 0 C 96.515625 0 99.578125 -1.28125 102.140625 -3.578125 C 104.953125 -6.140625 106.234375 -9.46875 106.234375 -12.796875 C 106.234375 -16.125 104.953125 -19.203125 102.65625 -21.765625 L 56.0625 -70.65625 Z M 102.40625 -119.046875 "/>
</symbol>
<symbol overflow="visible" id="glyph0-16">
<path style="stroke:none;" d="M 172.796875 -140.796875 C 152.578125 -140.796875 134.40625 -132.359375 121.59375 -118.78125 C 108.796875 -132.359375 90.625 -140.796875 70.40625 -140.796875 C 58.625 -140.796875 47.359375 -137.984375 37.625 -132.609375 C 35.578125 -137.46875 30.96875 -140.796875 25.59375 -140.796875 C 18.4375 -140.796875 12.796875 -135.171875 12.796875 -128 L 12.796875 -12.796875 C 12.796875 -5.625 18.4375 0 25.59375 0 C 32.765625 0 38.40625 -5.625 38.40625 -12.796875 L 38.40625 -101.890625 C 46.59375 -110.078125 57.859375 -115.203125 70.40625 -115.203125 C 95.234375 -115.203125 115.203125 -95.234375 115.203125 -70.40625 L 115.203125 -12.796875 C 115.203125 -5.625 120.828125 0 128 0 C 135.171875 0 140.796875 -5.625 140.796875 -12.796875 L 140.796875 -70.40625 C 140.796875 -79.359375 139.015625 -88.0625 135.9375 -96 C 144.125 -107.515625 157.4375 -115.203125 172.796875 -115.203125 C 197.625 -115.203125 217.59375 -95.234375 217.59375 -70.40625 L 217.59375 -12.796875 C 217.59375 -5.625 223.234375 0 230.40625 0 C 237.5625 0 243.203125 -5.625 243.203125 -12.796875 L 243.203125 -70.40625 C 243.203125 -109.3125 211.71875 -140.796875 172.796875 -140.796875 Z M 172.796875 -140.796875 "/>
</symbol>
<symbol overflow="visible" id="glyph0-17">
<path style="stroke:none;" d="M 105.734375 -140.796875 C 100.359375 -140.796875 95.484375 -137.46875 93.703125 -132.09375 L 65.796875 -51.71875 L 37.890625 -132.09375 C 36.09375 -137.46875 31.234375 -140.796875 25.859375 -140.796875 C 18.171875 -140.796875 12.796875 -134.65625 12.796875 -128 C 12.796875 -126.71875 13.0625 -125.1875 13.5625 -123.90625 L 53.5 -8.703125 C 55.296875 -3.328125 60.15625 0 65.53125 0 C 65.53125 0 65.796875 0 65.796875 0 L 66.046875 0 C 71.421875 0 76.28125 -3.328125 78.078125 -8.703125 L 118.015625 -123.90625 C 118.53125 -125.1875 118.78125 -126.71875 118.78125 -128 C 118.78125 -134.65625 113.40625 -140.796875 105.734375 -140.796875 Z M 105.734375 -140.796875 "/>
</symbol>
<symbol overflow="visible" id="glyph0-18">
<path style="stroke:none;" d="M 78.078125 -140.796875 C 63.484375 -140.796875 49.65625 -136.1875 38.40625 -128.515625 C 38.140625 -135.421875 32.515625 -140.796875 25.59375 -140.796875 C 18.4375 -140.796875 12.796875 -135.171875 12.796875 -128 L 12.796875 -12.796875 C 12.796875 -5.625 18.4375 0 25.59375 0 C 32.765625 0 38.40625 -5.625 38.40625 -12.796875 L 38.40625 -91.390625 C 45.828125 -105.46875 60.921875 -115.203125 78.078125 -115.203125 C 102.90625 -115.203125 122.875 -95.234375 122.875 -70.40625 L 122.875 -12.796875 C 122.875 -5.625 128.515625 0 135.6875 0 C 142.84375 0 148.484375 -5.625 148.484375 -12.796875 L 148.484375 -70.40625 C 148.484375 -109.3125 116.984375 -140.796875 78.078125 -140.796875 Z M 78.078125 -140.796875 "/>
</symbol>
<symbol overflow="visible" id="glyph0-19">
<path style="stroke:none;" d="M 47.875 -22.015625 C 41.984375 -27.640625 38.40625 -35.578125 38.40625 -44.546875 L 38.40625 -192 C 38.40625 -199.171875 32.765625 -204.796875 25.59375 -204.796875 C 18.4375 -204.796875 12.796875 -199.171875 12.796875 -192 L 12.796875 -44.546875 C 12.796875 -28.671875 19.203125 -14.34375 29.703125 -3.84375 C 32.25 -1.28125 35.578125 0 38.90625 0 C 41.984375 0 45.3125 -1.28125 47.875 -3.84375 C 50.4375 -6.40625 51.71875 -9.734375 51.71875 -13.0625 C 51.71875 -16.125 50.4375 -19.453125 47.875 -22.015625 Z M 47.875 -22.015625 "/>
</symbol>
<symbol overflow="visible" id="glyph0-20">
<path style="stroke:none;" d="M 75.515625 -140.796875 C 61.953125 -140.796875 49.15625 -136.953125 38.40625 -130.296875 L 38.40625 -192 C 38.40625 -199.171875 32.765625 -204.796875 25.59375 -204.796875 C 18.4375 -204.796875 12.796875 -199.171875 12.796875 -192 L 12.796875 -38.40625 C 24.578125 -15.609375 48.125 0 75.515625 0 C 114.4375 0 145.921875 -31.484375 145.921875 -70.40625 C 145.921875 -109.3125 114.4375 -140.796875 75.515625 -140.796875 Z M 75.515625 -25.59375 C 60.15625 -25.59375 46.34375 -33.28125 38.40625 -45.3125 L 38.40625 -95.484375 C 46.34375 -107.515625 60.15625 -115.203125 75.515625 -115.203125 C 100.359375 -115.203125 120.3125 -95.234375 120.3125 -70.40625 C 120.3125 -45.5625 100.359375 -25.59375 75.515625 -25.59375 Z M 75.515625 -25.59375 "/>
</symbol>
<symbol overflow="visible" id="glyph0-21">
<path style="stroke:none;" d="M 25.59375 -166.40625 C 32.765625 -166.40625 38.40625 -172.03125 38.40625 -179.203125 C 38.40625 -186.375 32.765625 -192 25.59375 -192 C 18.4375 -192 12.796875 -186.375 12.796875 -179.203125 C 12.796875 -172.03125 18.4375 -166.40625 25.59375 -166.40625 Z M 25.59375 -140.796875 C 18.4375 -140.796875 12.796875 -135.171875 12.796875 -128 L 12.796875 -12.796875 C 12.796875 -5.625 18.4375 0 25.59375 0 C 32.765625 0 38.40625 -5.625 38.40625 -12.796875 L 38.40625 -128 C 38.40625 -135.171875 32.765625 -140.796875 25.59375 -140.796875 Z M 25.59375 -140.796875 "/>
</symbol>
<symbol overflow="visible" id="glyph0-22">
<path style="stroke:none;" d="M 103.6875 -25.59375 C 86.015625 -25.59375 71.6875 -39.9375 71.6875 -57.59375 L 71.6875 -115.203125 L 97.28125 -115.203125 C 104.453125 -115.203125 110.078125 -120.828125 110.078125 -128 C 110.078125 -135.171875 104.453125 -140.796875 97.28125 -140.796875 L 71.6875 -140.796875 L 71.6875 -185.59375 C 71.6875 -192.765625 66.046875 -198.40625 58.875 -198.40625 C 51.71875 -198.40625 46.078125 -192.765625 46.078125 -185.59375 L 46.078125 -140.796875 L 25.59375 -140.796875 C 18.4375 -140.796875 12.796875 -135.171875 12.796875 -128 C 12.796875 -120.828125 18.4375 -115.203125 25.59375 -115.203125 L 46.078125 -115.203125 L 46.078125 -57.59375 C 46.078125 -25.859375 71.9375 0 103.6875 0 C 110.84375 0 116.484375 -5.625 116.484375 -12.796875 C 116.484375 -19.96875 110.84375 -25.59375 103.6875 -25.59375 Z M 103.6875 -25.59375 "/>
</symbol>
<symbol overflow="visible" id="glyph0-23">
<path style="stroke:none;" d="M 78.078125 -140.796875 C 63.484375 -140.796875 49.65625 -136.1875 38.40625 -128.515625 L 38.40625 -192 C 38.40625 -199.171875 32.765625 -204.796875 25.59375 -204.796875 C 18.4375 -204.796875 12.796875 -199.171875 12.796875 -192 L 12.796875 -12.796875 C 12.796875 -5.625 18.4375 0 25.59375 0 C 32.765625 0 38.40625 -5.625 38.40625 -12.796875 L 38.40625 -91.390625 C 45.828125 -105.46875 60.921875 -115.203125 78.078125 -115.203125 C 102.90625 -115.203125 122.875 -95.234375 122.875 -70.40625 L 122.875 -12.796875 C 122.875 -5.625 128.515625 0 135.6875 0 C 142.84375 0 148.484375 -5.625 148.484375 -12.796875 L 148.484375 -70.40625 C 148.484375 -109.3125 116.984375 -140.796875 78.078125 -140.796875 Z M 78.078125 -140.796875 "/>
</symbol>
<symbol overflow="visible" id="glyph0-24">
<path style="stroke:none;" d="M 133.125 -140.796875 C 126.71875 -140.796875 121.34375 -136.1875 120.578125 -130.046875 C 109.5625 -136.953125 97.03125 -140.796875 83.203125 -140.796875 C 44.28125 -140.796875 12.796875 -109.3125 12.796875 -70.40625 C 12.796875 -31.484375 44.28125 0 83.203125 0 C 96.765625 0 109.5625 -3.84375 120.3125 -10.5 L 120.3125 5.890625 C 112.390625 17.921875 98.5625 25.59375 83.203125 25.59375 C 66.5625 25.59375 51.96875 16.640625 44.28125 3.078125 C 40.453125 -3.078125 32.765625 -5.125 26.625 -1.28125 C 20.484375 2.296875 18.4375 9.984375 22.265625 16.125 C 34.5625 37.125 57.09375 51.203125 83.203125 51.203125 C 110.59375 51.203125 134.140625 35.578125 145.921875 12.796875 L 145.921875 -128 C 145.921875 -135.171875 140.28125 -140.796875 133.125 -140.796875 Z M 83.203125 -25.59375 C 58.375 -25.59375 38.40625 -45.5625 38.40625 -70.40625 C 38.40625 -95.234375 58.375 -115.203125 83.203125 -115.203125 C 98.5625 -115.203125 112.390625 -107.515625 120.3125 -95.484375 L 120.3125 -45.3125 C 112.390625 -33.28125 98.5625 -25.59375 83.203125 -25.59375 Z M 83.203125 -25.59375 "/>
</symbol>
<symbol overflow="visible" id="glyph0-25">
<path style="stroke:none;" d="M 70.40625 -140.796875 C 38.65625 -140.796875 12.796875 -114.9375 12.796875 -83.203125 L 12.796875 -12.796875 C 12.796875 -5.625 18.4375 0 25.59375 0 C 32.765625 0 38.40625 -5.625 38.40625 -12.796875 L 38.40625 -83.203125 C 38.40625 -100.859375 52.734375 -115.203125 70.40625 -115.203125 C 77.5625 -115.203125 83.203125 -120.828125 83.203125 -128 C 83.203125 -135.171875 77.5625 -140.796875 70.40625 -140.796875 Z M 70.40625 -140.796875 "/>
</symbol>
<symbol overflow="visible" id="glyph0-26">
<path style="stroke:none;" d="M 105.734375 -140.796875 C 100.359375 -140.796875 95.484375 -137.46875 93.703125 -132.09375 L 65.796875 -51.71875 L 37.890625 -132.09375 C 36.09375 -137.46875 31.234375 -140.796875 25.859375 -140.796875 C 18.171875 -140.796875 12.796875 -134.65625 12.796875 -128 C 12.796875 -126.71875 13.0625 -125.1875 13.5625 -123.90625 L 52.21875 -12.546875 C 46.59375 0.25 35.078125 9.984375 20.21875 13.0625 C 13.3125 14.59375 8.953125 21.25 10.5 28.15625 C 11.78125 35.328125 18.6875 39.6875 25.59375 38.140625 C 51.203125 32.765625 70.40625 14.34375 78.078125 -8.703125 L 118.015625 -123.90625 C 118.53125 -125.1875 118.78125 -126.71875 118.78125 -128 C 118.78125 -134.65625 113.40625 -140.796875 105.734375 -140.796875 Z M 105.734375 -140.796875 "/>
</symbol>
<symbol overflow="visible" id="glyph0-27">
<path style="stroke:none;" d="M 78.078125 -140.796875 C 63.484375 -140.796875 49.65625 -136.1875 38.40625 -128.515625 L 38.40625 -192 C 38.40625 -199.171875 32.765625 -204.796875 25.59375 -204.796875 C 18.4375 -204.796875 12.796875 -199.171875 12.796875 -192 L 12.796875 38.40625 C 12.796875 45.5625 18.4375 51.203125 25.59375 51.203125 C 32.765625 51.203125 38.40625 45.5625 38.40625 38.40625 L 38.40625 -12.28125 C 49.65625 -4.609375 63.484375 0 78.078125 0 C 116.984375 0 148.484375 -31.484375 148.484375 -70.40625 C 148.484375 -109.3125 116.984375 -140.796875 78.078125 -140.796875 Z M 78.078125 -25.59375 C 60.921875 -25.59375 45.828125 -35.328125 38.40625 -49.40625 L 38.40625 -91.390625 C 45.828125 -105.46875 60.921875 -115.203125 78.078125 -115.203125 C 102.90625 -115.203125 122.875 -95.234375 122.875 -70.40625 C 122.875 -45.5625 102.90625 -25.59375 78.078125 -25.59375 Z M 78.078125 -25.59375 "/>
</symbol>
</g>
</defs>
<g id="surface1">
<rect x="0" y="0" width="1027.59375" height="1516.8125" style="fill:rgb(73.333333%,20%,13.333333%);fill-opacity:1;stroke:none;"/>
<g style="fill:rgb(100%,100%,100%);fill-opacity:1;">
  <use xlink:href="#glyph0-1" x="16" y="220.796875"/>
  <use xlink:href="#glyph0-2" x="180.859375" y="220.796875"/>
  <use xlink:href="#glyph0-3" x="276.859375" y="220.796875"/>
  <use xlink:href="#glyph0-4" x="426.625" y="220.796875"/>
  <use xlink:href="#glyph0-5" x="587.90625" y="220.796875"/>
  <use xlink:href="#glyph0-6" x="754.3125" y="220.796875"/>
</g>
<g style="fill:rgb(100%,100%,100%);fill-opacity:1;">
  <use xlink:href="#glyph0-7" x="16" y="528"/>
  <use xlink:href="#glyph0-8" x="227.71875" y="528"/>
  <use xlink:href="#glyph0-9" x="368.515625" y="528"/>
  <use xlink:href="#glyph0-10" x="529.796875" y="528"/>
  <use xlink:href="#glyph0-11" x="581" y="528"/>
  <use xlink:href="#glyph0-12" x="742.28125" y="528"/>
</g>
<g style="fill:rgb(100%,100%,100%);fill-opacity:1;">
  <use xlink:href="#glyph0-13" x="16" y="835.203125"/>
  <use xlink:href="#glyph0-14" x="182.40625" y="835.203125"/>
  <use xlink:href="#glyph0-15" x="343.6875" y="835.203125"/>
  <use xlink:href="#glyph0-16" x="462.734375" y="835.203125"/>
  <use xlink:href="#glyph0-17" x="718.734375" y="835.203125"/>
  <use xlink:href="#glyph0-18" x="850.3125" y="835.203125"/>
</g>
<g style="fill:rgb(100%,100%,100%);fill-opacity:1;">
  <use xlink:href="#glyph0-19" x="16" y="1142.40625"/>
  <use xlink:href="#glyph0-20" x="80.515625" y="1142.40625"/>
  <use xlink:href="#glyph0-21" x="239.234375" y="1142.40625"/>
  <use xlink:href="#glyph0-22" x="290.4375" y="1142.40625"/>
  <use xlink:href="#glyph0-23" x="419.71875" y="1142.40625"/>
  <use xlink:href="#glyph0-24" x="581" y="1142.40625"/>
</g>
<g style="fill:rgb(100%,100%,100%);fill-opacity:1;">
  <use xlink:href="#glyph0-25" x="16" y="1449.609375"/>
  <use xlink:href="#glyph0-26" x="112" y="1449.609375"/>
  <use xlink:href="#glyph0-27" x="243.578125" y="1449.609375"/>
</g>
</g>
</svg>
