<?xml version="1.0" encoding="UTF-8"?>
<svg xmlns="http://www.w3.org/2000/svg" xmlns:xlink="http://www.w3.org/1999/xlink" width="917.765625pt" height="1196.8125pt" viewBox="0 0 917.765625 1196.8125" version="1.1">
<defs>
<g>
<symbol overflow="visible" id="glyph0-0">
<path style="stroke:none;" d=""/>
</symbol>
<symbol overflow="visible" id="glyph0-1">
<path style="stroke:none;" d="M 92.15625 -23.296875 C 87.546875 -21.25 82.6875 -19.453125 77.828125 -19.453125 C 68.359375 -19.453125 60.421875 -26.375 60.421875 -34.046875 C 59.90625 -57.34375 59.640625 -80.890625 59.90625 -104.1875 L 80.125 -103.9375 C 83.71875 -107.78125 87.546875 -111.609375 92.421875 -114.171875 L 91.140625 -117.25 L 60.15625 -116.984375 L 60.921875 -148.734375 L 35.578125 -139.78125 L 35.578125 -116.734375 L 29.1875 -116.734375 L 19.203125 -106.5 L 20.734375 -104.703125 L 35.84375 -104.453125 L 36.09375 -12.546875 C 36.09375 -5.375 43.515625 -0.765625 54.53125 -0.765625 C 61.1875 -0.765625 65.53125 -2.296875 70.140625 -5.375 L 93.1875 -20.484375 Z M 92.15625 -23.296875 "/>
</symbol>
<symbol overflow="visible" id="glyph0-2">
<path style="stroke:none;" d="M 46.84375 55.546875 C 45.828125 36.609375 45.3125 17.40625 45.3125 -1.53125 C 51.71875 0 58.109375 0.765625 63.234375 0.765625 C 67.578125 0.765625 71.421875 -0.515625 73.984375 -2.046875 C 86.53125 -8.953125 97.28125 -14.59375 106.234375 -25.09375 C 117.25 -38.140625 121.09375 -54.53125 121.09375 -69.375 C 121.09375 -103.171875 105.734375 -121.34375 77.0625 -121.34375 L 45.828125 -104.453125 L 45.828125 -119.046875 L 19.203125 -119.046875 C 20.484375 -59.390625 20.484375 -1.28125 20.734375 57.09375 Z M 79.109375 -17.15625 C 68.09375 -17.15625 57.34375 -20.984375 45.0625 -24.578125 L 45.0625 -67.578125 C 45.0625 -79.875 49.40625 -90.375 55.046875 -100.359375 C 57.859375 -101.890625 60.921875 -102.65625 64 -102.65625 C 82.6875 -102.65625 95.234375 -85.765625 95.234375 -60.15625 C 95.234375 -45.828125 92.15625 -33.03125 86.015625 -18.6875 C 83.71875 -17.65625 81.40625 -17.15625 79.109375 -17.15625 Z M 79.109375 -17.15625 "/>
</symbol>
<symbol overflow="visible" id="glyph0-3">
<path style="stroke:none;" d="M 44.546875 -119.046875 C 43.015625 -98.5625 42.5 -77.3125 43.015625 -55.8125 C 43.015625 -32 52.21875 -19.203125 69.125 -19.203125 C 72.453125 -19.203125 76.03125 -19.96875 79.359375 -20.984375 C 85.765625 -33.28125 89.34375 -44.796875 89.34375 -56.578125 C 89.34375 -77.3125 89.34375 -98.046875 88.578125 -118.265625 L 113.15625 -119.546875 C 112.640625 -80.640625 112.640625 -40.953125 113.65625 -2.046875 L 88.578125 -2.8125 L 88.578125 -18.9375 L 60.671875 -1.796875 C 58.625 -0.515625 56.828125 0 54.78125 0 C 33.53125 0 19.203125 -12.546875 19.203125 -31.484375 L 19.203125 -118.78125 Z M 44.546875 -119.046875 "/>
</symbol>
<symbol overflow="visible" id="glyph0-4">
<path style="stroke:none;" d="M 45.0625 -177.15625 L 45.0625 -62.46875 L 47.609375 -62.46875 L 90.625 -116.21875 L 113.40625 -118.53125 L 69.890625 -71.171875 L 69.890625 -66.296875 L 120.0625 -8.453125 L 94.71875 3.328125 L 47.609375 -53.5 L 44.546875 -53.5 C 44.546875 -35.578125 45.0625 -17.921875 46.078125 0 L 19.96875 0 C 19.96875 -58.875 19.453125 -117.765625 19.203125 -176.640625 Z M 45.0625 -177.15625 "/>
</symbol>
<symbol overflow="visible" id="glyph0-5">
<path style="stroke:none;" d="M 45.0625 -179.203125 C 44.546875 -120.578125 44.796875 -60.921875 45.828125 0 L 19.71875 0 C 20.484375 -58.375 19.71875 -118.78125 19.203125 -178.9375 Z M 45.0625 -179.203125 "/>
</symbol>
<symbol overflow="visible" id="glyph0-6">
<path style="stroke:none;" d="M 57.34375 -158.96875 L 38.140625 -142.078125 L 19.203125 -150.015625 L 37.625 -169.21875 Z M 52.734375 -119.8125 C 52.21875 -80.390625 52.21875 -41.21875 53.25 -1.796875 L 25.859375 -1.796875 C 27.140625 -40.1875 27.640625 -78.84375 26.875 -118.265625 Z M 52.734375 -119.8125 "/>
</symbol>
<symbol overflow="visible" id="glyph0-7">
<path style="stroke:none;" d="M 44.796875 -176.890625 L 44.796875 -99.328125 C 53.25 -106.75 68.359375 -116.484375 74.75 -118.78125 C 76.796875 -119.546875 79.109375 -119.546875 81.15625 -119.546875 C 102.90625 -119.546875 115.71875 -106.5 115.71875 -83.96875 L 115.71875 0 L 89.59375 0 C 90.875 -23.8125 91.140625 -47.109375 91.140625 -70.65625 C 91.140625 -89.59375 82.171875 -99.578125 65.53125 -99.578125 C 61.953125 -99.578125 58.375 -99.078125 55.046875 -98.046875 C 48.640625 -87.546875 44.796875 -76.28125 44.796875 -64.25 C 44.796875 -43.015625 45.0625 -21.765625 45.828125 0 L 20.484375 0 C 21.25 -58.625 19.96875 -117.765625 19.203125 -176.890625 Z M 44.796875 -176.890625 "/>
</symbol>
<symbol overflow="visible" id="glyph0-8">
<path style="stroke:none;" d="M 83.96875 -121.59375 C 102.65625 -121.59375 113.40625 -107.515625 118.015625 -93.1875 L 93.4375 -81.65625 C 87.546875 -98.046875 79.109375 -105.21875 64.515625 -105.21875 L 54.265625 -105.21875 C 48.390625 -105.21875 42.75 -85.5 42.75 -65.796875 C 42.75 -37.125 63.234375 -18.171875 93.703125 -18.171875 C 100.859375 -18.171875 108.796875 -19.71875 115.453125 -23.296875 L 116.984375 -20.21875 C 108.28125 -12.546875 99.84375 -6.90625 90.375 -2.296875 C 86.015625 -0.25 78.84375 1.03125 73.21875 1.03125 C 40.703125 1.03125 19.203125 -20.484375 19.203125 -52.734375 C 19.203125 -71.171875 25.09375 -89.859375 33.796875 -99.84375 C 44.546875 -109.3125 66.046875 -121.59375 71.6875 -121.59375 Z M 83.96875 -121.59375 "/>
</symbol>
<symbol overflow="visible" id="glyph0-9">
<path style="stroke:none;" d="M 69.125 3.078125 C 73.984375 3.078125 79.609375 2.296875 83.71875 0.25 C 94.96875 -5.375 112.390625 -18.4375 118.265625 -25.859375 C 125.703125 -35.078125 131.578125 -54.78125 131.578125 -69.625 C 131.578125 -100.609375 112.390625 -121.34375 83.453125 -121.34375 C 77.0625 -121.34375 70.40625 -120.3125 68.359375 -119.046875 C 55.046875 -111.609375 41.734375 -101.890625 32.25 -90.375 C 24.3125 -80.890625 19.203125 -65.03125 19.203125 -50.9375 C 19.203125 -24.828125 34.8125 3.078125 69.125 3.078125 Z M 87.8125 -18.171875 C 59.90625 -18.171875 41.46875 -36.09375 41.46875 -62.96875 C 41.46875 -74.75 45.3125 -87.546875 49.921875 -98.046875 C 55.046875 -101.890625 61.953125 -102.65625 67.84375 -102.65625 C 91.90625 -102.65625 108.03125 -85.765625 108.03125 -60.421875 C 108.03125 -46.59375 104.953125 -33.53125 100.609375 -19.71875 C 96.25 -18.4375 92.15625 -18.171875 87.8125 -18.171875 Z M 87.8125 -18.171875 "/>
</symbol>
<symbol overflow="visible" id="glyph0-10">
<path style="stroke:none;" d="M 122.875 54.78125 C 121.859375 -3.84375 121.34375 -62.203125 121.859375 -120.828125 L 96.515625 -116.484375 C 89.34375 -119.046875 82.171875 -121.34375 75.015625 -121.34375 C 60.15625 -121.34375 38.90625 -108.28125 30.203125 -96.25 C 21.25 -83.96875 19.203125 -66.5625 19.203125 -51.71875 C 19.203125 -44.546875 20.21875 -37.125 23.046875 -29.953125 C 26.875 -20.21875 34.8125 -10.75 45.0625 -4.609375 C 49.15625 -2.046875 54.78125 -0.515625 59.640625 -0.515625 C 71.9375 -0.515625 85.25 -7.9375 96.25 -13.5625 C 97.03125 10.75 97.28125 34.296875 95.75 55.8125 Z M 82.6875 -18.6875 C 62.96875 -18.6875 42.5 -41.21875 42.5 -63.75 C 42.5 -77.828125 46.59375 -91.90625 51.71875 -105.984375 C 70.40625 -105.984375 81.15625 -103.171875 94.96875 -94.46875 C 96.765625 -74.5 97.28125 -54.53125 96 -35.078125 C 96 -25.34375 90.625 -18.6875 82.6875 -18.6875 Z M 82.6875 -18.6875 "/>
</symbol>
<symbol overflow="visible" id="glyph0-11">
<path style="stroke:none;" d="M 66.8125 -122.375 C 81.65625 -122.375 96.515625 -110.34375 96.515625 -98.5625 L 77.0625 -88.0625 C 75.515625 -87.296875 73.734375 -87.296875 72.1875 -87.296875 C 72.1875 -96.25 61.1875 -105.984375 50.9375 -105.984375 C 44.546875 -105.984375 40.953125 -102.140625 40.953125 -93.703125 C 40.953125 -83.203125 46.59375 -78.34375 69.625 -70.65625 C 92.671875 -62.71875 98.296875 -57.34375 98.296875 -44.28125 C 98.296875 -37.125 94.71875 -24.0625 88.828125 -20.484375 L 59.640625 -2.8125 C 56.828125 -1.28125 53.765625 -0.515625 50.9375 -0.515625 C 33.796875 -0.515625 19.71875 -12.28125 19.71875 -26.625 L 43.015625 -38.90625 C 45.0625 -26.109375 55.8125 -15.875 66.046875 -15.875 C 70.40625 -15.875 73.46875 -22.53125 73.46875 -29.4375 C 73.46875 -43.015625 68.859375 -47.609375 50.9375 -52.21875 C 25.34375 -59.90625 19.203125 -65.53125 19.203125 -79.875 C 19.203125 -86.78125 21.765625 -97.03125 28.15625 -101.375 L 55.8125 -119.546875 C 58.625 -121.09375 63.75 -122.375 66.8125 -122.375 Z M 66.8125 -122.375 "/>
</symbol>
<symbol overflow="visible" id="glyph0-12">
<path style="stroke:none;" d="M 72.953125 1.28125 C 78.34375 1.28125 83.96875 0.25 89.34375 -0.765625 L 118.265625 -22.015625 L 115.96875 -24.3125 C 109.0625 -20.984375 101.890625 -17.65625 94.71875 -17.65625 C 63.484375 -17.65625 44.28125 -33.53125 44.28125 -58.109375 L 68.359375 -58.875 L 89.09375 -58.109375 L 117.25 -75.78125 C 117.5 -77.828125 118.265625 -80.125 118.265625 -82.171875 C 118.265625 -105.46875 102.90625 -121.59375 79.109375 -121.59375 C 76.03125 -121.59375 71.6875 -120.828125 69.125 -120.0625 C 54.78125 -115.203125 39.6875 -108.546875 30.46875 -95.484375 C 23.046875 -84.984375 19.203125 -69.890625 19.203125 -52.21875 C 19.203125 -36.609375 25.34375 -20.21875 34.8125 -11.78125 C 44.28125 -3.328125 60.15625 1.28125 72.953125 1.28125 Z M 45.0625 -71.6875 C 44.28125 -73.734375 44.28125 -76.03125 44.28125 -78.34375 C 44.28125 -86.53125 47.359375 -94.71875 51.453125 -102.90625 C 54.265625 -104.703125 58.109375 -104.953125 61.1875 -104.953125 C 80.390625 -104.953125 93.1875 -94.203125 93.1875 -78.34375 C 93.1875 -74.234375 91.640625 -71.6875 89.34375 -71.6875 Z M 45.0625 -71.6875 "/>
</symbol>
<symbol overflow="visible" id="glyph0-13">
<path style="stroke:none;" d="M 26.625 -119.046875 C 49.15625 -118.015625 75.015625 -118.265625 102.40625 -118.53125 L 103.6875 -115.96875 C 83.453125 -86.265625 64.765625 -56.0625 47.109375 -25.34375 L 47.109375 -22.53125 L 89.09375 -22.53125 C 95.484375 -22.53125 102.40625 -23.546875 108.796875 -24.828125 L 101.890625 -2.046875 C 76.796875 -3.078125 47.609375 -2.296875 19.203125 -2.046875 L 19.203125 -4.359375 L 76.28125 -98.046875 L 20.984375 -98.046875 Z M 26.625 -119.046875 "/>
</symbol>
<symbol overflow="visible" id="glyph0-14">
<path style="stroke:none;" d="M 46.34375 -122.109375 L 77.3125 -36.09375 L 79.359375 -36.859375 L 110.59375 -117.765625 L 127.234375 -119.296875 C 113.65625 -87.046875 100.09375 -54.265625 88.828125 -20.21875 C 87.8125 -16.890625 86.78125 -9.984375 88.0625 -4.859375 L 62.46875 -0.25 C 49.15625 -39.421875 34.5625 -78.59375 19.203125 -117.765625 Z M 46.34375 -122.109375 "/>
</symbol>
<symbol overflow="visible" id="glyph0-15">
<path style="stroke:none;" d="M 129.796875 -37.375 L 127.75 -38.140625 L 109.5625 -119.046875 L 82.6875 -116.21875 C 83.71875 -112.640625 84.734375 -109.0625 85.5 -105.46875 L 66.5625 -35.078125 L 65.03125 -35.84375 L 49.15625 -103.421875 C 47.875 -109.0625 46.84375 -114.9375 46.59375 -120.578125 L 19.203125 -116.21875 L 49.921875 -1.03125 L 73.984375 -3.078125 C 74.234375 -9.46875 75.515625 -15.359375 77.0625 -21.25 L 92.921875 -78.078125 C 99.578125 -52.484375 105.984375 -26.625 111.875 -0.765625 L 135.6875 -2.8125 C 136.453125 -9.734375 137.734375 -16.390625 139.78125 -23.296875 L 166.40625 -118.53125 L 149.5 -117.5 Z M 129.796875 -37.375 "/>
</symbol>
<symbol overflow="visible" id="glyph0-16">
<path style="stroke:none;" d="M 175.875 -98.8125 C 175.875 -110.84375 161.53125 -122.625 146.9375 -122.625 C 143.875 -122.625 140.546875 -120.0625 137.46875 -119.046875 L 109.3125 -102.90625 C 105.734375 -113.40625 93.4375 -122.875 80.640625 -122.875 C 79.109375 -122.875 75.78125 -121.859375 73.984375 -120.828125 L 46.34375 -103.6875 L 46.84375 -120.828125 L 19.203125 -120.828125 C 19.71875 -80.125 20.734375 -40.1875 20.21875 0 L 45.5625 0 C 45.3125 -26.109375 45.3125 -52.484375 45.828125 -78.84375 C 45.828125 -86.78125 50.4375 -94.96875 54.78125 -101.890625 C 59.390625 -102.40625 63.234375 -102.40625 67.84375 -102.40625 C 76.546875 -102.40625 84.984375 -92.921875 84.984375 -83.203125 L 84.984375 0 L 110.34375 0 L 110.34375 -73.734375 C 110.34375 -82.6875 116.21875 -93.953125 122.625 -101.890625 L 129.53125 -101.890625 C 141.3125 -101.890625 151.046875 -93.1875 151.046875 -81.921875 C 152.578125 -54.53125 152.828125 -27.390625 151.8125 0 L 177.40625 0 Z M 175.875 -98.8125 "/>
</symbol>
<symbol overflow="visible" id="glyph0-17">
<path style="stroke:none;" d="M 45.828125 -101.625 C 51.453125 -106.75 57.34375 -111.359375 63.234375 -115.71875 C 66.296875 -117.5 69.375 -120.828125 72.453125 -120.828125 C 79.109375 -120.828125 91.90625 -109.828125 92.671875 -99.84375 L 70.140625 -85.765625 C 67.578125 -92.421875 60.671875 -100.859375 56.0625 -100.859375 C 50.9375 -100.859375 45.828125 -83.71875 46.078125 -66.5625 C 45.0625 -44.546875 45.0625 -22.015625 46.078125 0 L 19.203125 0 C 20.734375 -38.140625 20.21875 -77.5625 19.203125 -116.984375 L 45.828125 -117.765625 Z M 45.828125 -101.625 "/>
</symbol>
<symbol overflow="visible" id="glyph0-18">
<path style="stroke:none;" d="M 62.46875 -154.375 C 62.46875 -155.90625 66.046875 -158.71875 67.84375 -158.71875 C 72.453125 -158.71875 77.828125 -157.1875 81.65625 -154.875 L 98.046875 -174.59375 C 97.03125 -176.125 92.421875 -177.40625 89.09375 -177.40625 C 83.453125 -177.40625 76.03125 -174.34375 69.890625 -170.75 C 59.140625 -164.609375 50.4375 -157.1875 42.5 -147.203125 C 37.125 -140.546875 36.09375 -130.8125 36.09375 -122.625 L 36.09375 -115.203125 L 29.4375 -115.203125 L 19.203125 -103.9375 L 20.734375 -102.65625 L 36.09375 -102.65625 L 36.09375 0 L 62.46875 -0.25 L 62.46875 -102.65625 L 77.828125 -102.65625 L 90.375 -112.890625 L 90.375 -115.203125 L 62.46875 -115.203125 Z M 62.46875 -154.375 "/>
</symbol>
<symbol overflow="visible" id="glyph0-19">
<path style="stroke:none;" d="M 59.90625 2.8125 C 64 2.8125 67.84375 2.296875 71.9375 0.765625 C 79.875 -2.296875 95.484375 -13.3125 103.421875 -21.5 C 114.6875 -32.765625 120.578125 -50.171875 120.578125 -71.9375 C 120.578125 -101.375 106.234375 -120.0625 78.59375 -120.0625 C 76.546875 -120.0625 74.234375 -119.296875 72.703125 -118.265625 L 46.59375 -102.90625 L 44.796875 -104.453125 L 45.0625 -176.640625 L 19.203125 -175.875 C 20.21875 -119.546875 20.21875 -63.484375 19.203125 -7.171875 C 33.03125 -2.046875 46.078125 2.8125 59.90625 2.8125 Z M 83.96875 -14.59375 C 70.65625 -14.84375 58.109375 -17.40625 45.828125 -22.78125 C 44.796875 -35.578125 44.796875 -48.640625 44.796875 -61.4375 C 44.796875 -73.734375 48.640625 -86.78125 54.015625 -98.296875 C 56.3125 -100.359375 60.15625 -101.890625 63.234375 -101.890625 C 81.921875 -101.890625 95.234375 -84.984375 95.234375 -60.921875 C 95.234375 -45.5625 93.953125 -29.703125 83.96875 -14.59375 Z M 83.96875 -14.59375 "/>
</symbol>
<symbol overflow="visible" id="glyph0-20">
<path style="stroke:none;" d="M 67.328125 0 C 68.359375 0 71.171875 -1.03125 72.1875 -1.53125 L 100.09375 -16.390625 L 100.09375 -1.28125 L 127.234375 -2.296875 C 126.203125 -61.1875 125.703125 -120.0625 125.953125 -178.171875 L 98.8125 -177.15625 C 99.84375 -157.703125 100.609375 -138.234375 100.609375 -119.296875 C 94.46875 -120.3125 88.3125 -121.59375 82.171875 -121.59375 C 77.3125 -121.59375 71.421875 -120.3125 67.328125 -118.78125 C 57.859375 -115.203125 46.59375 -109.5625 38.65625 -101.625 C 26.109375 -89.34375 19.203125 -68.09375 19.203125 -51.203125 C 19.203125 -20.734375 34.5625 0 57.59375 0 Z M 81.40625 -16.390625 C 59.640625 -16.390625 45.0625 -33.28125 45.0625 -58.375 C 45.0625 -74.234375 48.640625 -89.34375 56.0625 -105.21875 C 59.390625 -106.5 62.71875 -107.515625 66.046875 -107.515625 C 77.3125 -107.515625 89.34375 -101.625 100.09375 -95.484375 C 100.859375 -75.78125 100.859375 -55.8125 100.09375 -36.09375 C 93.703125 -21.25 89.09375 -16.390625 81.40625 -16.390625 Z M 81.40625 -16.390625 "/>
</symbol>
<symbol overflow="visible" id="glyph0-21">
<path style="stroke:none;" d="M 46.59375 -120.828125 C 57.859375 -92.15625 69.375 -63.484375 81.15625 -38.40625 L 83.203125 -38.40625 L 112.125 -117.765625 L 130.046875 -119.046875 C 107.265625 -67.078125 84.734375 -6.65625 61.953125 54.53125 L 41.734375 55.546875 L 40.953125 53.5 C 49.15625 45.828125 58.375 25.09375 67.84375 -0.765625 L 19.203125 -117.5 Z M 46.59375 -120.828125 "/>
</symbol>
<symbol overflow="visible" id="glyph0-22">
<path style="stroke:none;" d="M 82.4375 -14.84375 L 82.4375 0 L 110.59375 0 L 110.59375 -80.640625 C 110.59375 -106.75 94.46875 -120.828125 64.765625 -120.828125 C 57.34375 -120.828125 49.65625 -119.546875 42.234375 -118.015625 L 20.21875 -95.234375 L 22.53125 -92.15625 C 31.75 -97.28125 42.75 -100.859375 52.984375 -100.859375 C 74.234375 -100.859375 83.203125 -92.15625 83.203125 -71.6875 L 69.890625 -71.6875 C 54.265625 -71.6875 39.6875 -65.796875 28.15625 -54.53125 C 20.734375 -47.109375 19.203125 -35.84375 19.203125 -26.375 C 19.203125 -9.21875 32.515625 2.046875 52.21875 2.046875 Z M 71.6875 -19.203125 C 55.046875 -19.203125 41.46875 -29.703125 41.46875 -42.75 C 41.46875 -47.609375 42.234375 -52.484375 45.3125 -56.828125 C 57.59375 -58.109375 70.40625 -56.828125 83.203125 -55.046875 L 83.203125 -19.96875 Z M 71.6875 -19.203125 "/>
</symbol>
<symbol overflow="visible" id="glyph0-23">
<path style="stroke:none;" d="M 45.3125 -115.71875 L 45.3125 -99.328125 L 72.953125 -116.984375 C 75.015625 -118.265625 78.078125 -119.546875 80.390625 -119.546875 C 99.328125 -119.546875 114.9375 -107.015625 114.9375 -91.390625 L 114.9375 0 L 90.109375 0 C 90.875 -23.546875 90.875 -48.890625 90.109375 -75.78125 C 90.109375 -88.828125 78.84375 -99.578125 65.28125 -99.578125 C 60.921875 -99.578125 56.578125 -98.296875 52.484375 -96.765625 C 46.34375 -83.453125 44.28125 -66.8125 44.28125 -51.71875 L 45.3125 0 L 19.203125 0 C 20.734375 -33.28125 19.71875 -74.75 19.203125 -115.71875 Z M 45.3125 -115.71875 "/>
</symbol>
<symbol overflow="visible" id="glyph0-24">
<path style="stroke:none;" d="M 64.765625 -160.515625 L 64.765625 -158.203125 C 58.109375 -153.859375 51.71875 -148.984375 45.5625 -143.109375 L 28.421875 -149.765625 L 28.421875 -152.0625 C 34.046875 -158.46875 39.6875 -164.359375 45.828125 -169.21875 Z M 59.90625 -120.0625 C 59.140625 -77.828125 59.140625 -35.328125 59.90625 6.90625 C 59.90625 16.390625 56.828125 28.921875 48.640625 36.609375 C 41.21875 43.515625 32.25 49.15625 21.5 55.046875 L 19.203125 52.984375 L 28.921875 44.03125 C 33.03125 40.453125 35.078125 27.640625 35.078125 7.6875 L 35.078125 -119.296875 Z M 59.90625 -120.0625 "/>
</symbol>
<symbol overflow="visible" id="glyph0-25">
<path style="stroke:none;" d="M 123.640625 -6.140625 C 109.828125 -25.859375 96 -46.078125 82.4375 -66.296875 L 120.0625 -115.71875 L 120.0625 -119.046875 L 103.421875 -117.765625 C 93.953125 -104.453125 84.21875 -91.390625 74.5 -78.34375 C 65.03125 -92.671875 55.546875 -107.015625 46.34375 -121.59375 L 19.453125 -116.734375 C 32.765625 -96.765625 45.828125 -77.0625 58.875 -57.09375 C 45.828125 -39.421875 32.515625 -22.015625 19.203125 -4.609375 L 19.203125 -2.296875 L 34.046875 -2.296875 L 66.5625 -45.0625 C 76.28125 -29.953125 86.015625 -14.59375 95.484375 0.765625 Z M 123.640625 -6.140625 "/>
</symbol>
<symbol overflow="visible" id="glyph0-26">
<path style="stroke:none;" d="M 100.09375 -120.0625 C 92.421875 -120.0625 84.984375 -121.09375 77.3125 -121.09375 C 67.328125 -121.09375 43.78125 -108.796875 32 -96.515625 C 24.3125 -88.3125 19.203125 -75.515625 19.203125 -65.28125 C 19.203125 -50.6875 25.859375 -39.9375 36.859375 -33.796875 C 28.671875 -24.828125 20.484375 -10.5 20.484375 -4.09375 C 23.046875 0 26.375 2.8125 31.484375 4.359375 L 39.171875 4.359375 L 40.453125 6.40625 L 20.984375 21.5 C 20.734375 24.0625 20.484375 26.375 20.484375 28.921875 C 20.484375 40.953125 27.390625 48.890625 41.46875 55.546875 C 46.34375 57.859375 52.21875 56.828125 57.59375 56.828125 C 66.8125 56.828125 77.0625 55.8125 85.5 51.71875 C 97.03125 46.078125 106.234375 37.375 112.890625 27.90625 C 116.734375 22.265625 116.984375 15.109375 116.984375 8.703125 C 116.984375 -5.625 109.3125 -16.125 96.765625 -16.125 L 46.078125 -16.125 C 42.234375 -16.125 38.65625 -20.21875 38.65625 -24.3125 C 38.65625 -26.625 39.9375 -29.703125 41.21875 -31.75 C 46.84375 -29.703125 53.25 -28.421875 60.671875 -28.421875 C 65.796875 -28.421875 71.6875 -29.1875 76.03125 -31.234375 C 87.8125 -37.125 99.84375 -45.3125 107.515625 -54.78125 C 113.65625 -62.203125 115.453125 -72.453125 115.453125 -81.40625 C 115.453125 -90.109375 112.640625 -99.84375 107.265625 -107.78125 C 113.15625 -111.359375 118.78125 -115.71875 122.109375 -120.578125 Z M 84.984375 -44.28125 C 58.375 -44.28125 40.703125 -56.0625 40.703125 -73.734375 C 40.703125 -82.6875 43.78125 -94.46875 50.6875 -101.375 C 54.53125 -102.90625 59.140625 -103.421875 63.234375 -103.421875 C 80.640625 -103.421875 92.671875 -90.109375 92.671875 -69.890625 C 92.671875 -61.4375 90.375 -51.453125 84.984375 -44.28125 Z M 48.125 4.359375 C 58.875 2.8125 69.625 2.296875 80.390625 2.296875 C 91.390625 2.296875 97.28125 10.75 97.28125 26.625 C 97.28125 34.046875 90.375 37.125 74.234375 37.125 C 52.484375 37.125 43.265625 32.515625 43.265625 21.765625 C 43.265625 15.875 45.0625 10.234375 48.125 4.359375 Z M 48.125 4.359375 "/>
</symbol>
</g>
</defs>
<g id="surface1">
<rect x="0" y="0" width="917.765625" height="1196.8125" style="fill:rgb(66.666667%,13.333333%,26.666667%);fill-opacity:1;stroke:none;"/>
<g style="fill:rgb(93.333333%,93.333333%,93.333333%);fill-opacity:1;">
  <use xlink:href="#glyph0-1" x="16" y="220.796875"/>
  <use xlink:href="#glyph0-2" x="128.390625" y="220.796875"/>
  <use xlink:href="#glyph0-3" x="268.671875" y="220.796875"/>
  <use xlink:href="#glyph0-4" x="401.53125" y="220.796875"/>
  <use xlink:href="#glyph0-5" x="540.796875" y="220.796875"/>
  <use xlink:href="#glyph0-6" x="605.828125" y="220.796875"/>
</g>
<g style="fill:rgb(93.333333%,93.333333%,93.333333%);fill-opacity:1;">
  <use xlink:href="#glyph0-7" x="16" y="448"/>
  <use xlink:href="#glyph0-8" x="150.90625" y="448"/>
  <use xlink:href="#glyph0-9" x="288.125" y="448"/>
  <use xlink:href="#glyph0-10" x="438.90625" y="448"/>
  <use xlink:href="#glyph0-11" x="580.984375" y="448"/>
  <use xlink:href="#glyph0-12" x="698.484375" y="448"/>
</g>
<g style="fill:rgb(93.333333%,93.333333%,93.333333%);fill-opacity:1;">
  <use xlink:href="#glyph0-13" x="16" y="675.203125"/>
  <use xlink:href="#glyph0-14" x="144" y="675.203125"/>
  <use xlink:href="#glyph0-15" x="290.4375" y="675.203125"/>
  <use xlink:href="#glyph0-16" x="476.03125" y="675.203125"/>
  <use xlink:href="#glyph0-17" x="672.640625" y="675.203125"/>
  <use xlink:href="#glyph0-18" x="784.515625" y="675.203125"/>
</g>
<g style="fill:rgb(93.333333%,93.333333%,93.333333%);fill-opacity:1;">
  <use xlink:href="#glyph0-19" x="16" y="902.40625"/>
  <use xlink:href="#glyph0-20" x="155.78125" y="902.40625"/>
  <use xlink:href="#glyph0-21" x="302.21875" y="902.40625"/>
  <use xlink:href="#glyph0-22" x="451.46875" y="902.40625"/>
  <use xlink:href="#glyph0-23" x="581.265625" y="902.40625"/>
  <use xlink:href="#glyph0-24" x="715.40625" y="902.40625"/>
</g>
<g style="fill:rgb(93.333333%,93.333333%,93.333333%);fill-opacity:1;">
  <use xlink:href="#glyph0-25" x="16" y="1129.609375"/>
  <use xlink:href="#glyph0-26" x="158.84375" y="1129.609375"/>
</g>
</g>
</svg>
