<?xml version="1.0" encoding="UTF-8" standalone="no"?>
<svg
   xmlns:dc="http://purl.org/dc/elements/1.1/"
   xmlns:cc="http://creativecommons.org/ns#"
   xmlns:rdf="http://www.w3.org/1999/02/22-rdf-syntax-ns#"
   xmlns:svg="http://www.w3.org/2000/svg"
   xmlns="http://www.w3.org/2000/svg"
   xmlns:xlink="http://www.w3.org/1999/xlink"
   xmlns:sodipodi="http://sodipodi.sourceforge.net/DTD/sodipodi-0.dtd"
   xmlns:inkscape="http://www.inkscape.org/namespaces/inkscape"
   width="1603.0625pt"
   height="1921.265625pt"
   viewBox="0 0 1603.0625 1921.265625"
   version="1.1"
   id="svg1132"
   sodipodi:docname="at-sample.svg"
   inkscape:version="1.0.2 (e86c8708, 2021-01-15)">
  <metadata
     id="metadata1136">
    <rdf:RDF>
      <cc:Work
         rdf:about="">
        <dc:format>image/svg+xml</dc:format>
        <dc:type
           rdf:resource="http://purl.org/dc/dcmitype/StillImage" />
      </cc:Work>
    </rdf:RDF>
  </metadata>
  <sodipodi:namedview
     pagecolor="#ffffff"
     bordercolor="#666666"
     borderopacity="1"
     objecttolerance="10"
     gridtolerance="10"
     guidetolerance="10"
     inkscape:pageopacity="0"
     inkscape:pageshadow="2"
     inkscape:window-width="1266"
     inkscape:window-height="726"
     id="namedview1134"
     showgrid="false"
     inkscape:zoom="0.20221046"
     inkscape:cx="1306.0848"
     inkscape:cy="1280.8438"
     inkscape:window-x="0"
     inkscape:window-y="25"
     inkscape:window-maximized="0"
     inkscape:current-layer="svg1132" />
  <defs
     id="defs997">
    <g
       id="g995">
      <symbol
         overflow="visible"
         id="glyph0-0">
        <path
           style="stroke:none;"
           d=""
           id="path833" />
      </symbol>
      <symbol
         overflow="visible"
         id="glyph0-1">
        <path
           style="stroke:none;"
           d="M 6.140625 -19.203125 C 6.140625 -8.453125 16.390625 0 29.1875 0 L 116.734375 0 C 129.53125 0 139.78125 -8.453125 139.78125 -19.203125 L 139.78125 -103.6875 C 139.78125 -114.171875 131.078125 -122.875 120.578125 -122.875 L 68.609375 -122.875 C 62.71875 -122.875 57.859375 -118.015625 57.859375 -112.125 L 57.859375 -79.875 C 57.859375 -73.984375 62.71875 -69.125 68.609375 -69.125 L 108.03125 -69.125 C 111.609375 -69.125 114.4375 -66.296875 114.4375 -62.71875 L 114.4375 -42.234375 C 114.4375 -33.28125 110.84375 -26.625 105.984375 -26.625 L 37.890625 -26.625 C 34.296875 -26.625 31.484375 -29.4375 31.484375 -33.03125 L 31.484375 -132.859375 C 31.484375 -141.828125 35.078125 -148.484375 39.9375 -148.484375 L 121.859375 -148.484375 C 132.609375 -148.484375 141.0625 -156.921875 141.0625 -167.6875 L 141.0625 -185.59375 C 141.0625 -196.359375 132.609375 -204.796875 121.859375 -204.796875 L 25.34375 -204.796875 C 14.59375 -204.796875 6.140625 -196.359375 6.140625 -185.59375 Z M 6.140625 -19.203125 "
           id="path836" />
      </symbol>
      <symbol
         overflow="visible"
         id="glyph0-2">
        <path
           style="stroke:none;"
           d="M 6.140625 -20.984375 C 6.140625 -8.953125 15.109375 0 27.140625 0 L 105.46875 0 C 112.640625 0 118.53125 -5.890625 118.53125 -13.0625 C 118.53125 -20.21875 112.640625 -26.109375 105.46875 -26.109375 L 40.1875 -26.109375 C 35.578125 -26.109375 31.75 -29.953125 31.75 -34.5625 L 31.75 -81.65625 C 31.75 -90.625 35.328125 -97.28125 40.1875 -97.28125 L 105.984375 -97.28125 C 113.15625 -97.28125 118.78125 -102.90625 118.78125 -110.078125 C 118.78125 -117.25 113.15625 -122.875 105.984375 -122.875 L 73.984375 -122.875 C 69.375 -122.875 65.53125 -126.71875 65.53125 -131.328125 L 65.53125 -163.578125 C 65.53125 -172.546875 69.125 -179.203125 73.984375 -179.203125 L 113.65625 -179.203125 C 120.828125 -179.203125 126.46875 -184.828125 126.46875 -192 C 126.46875 -199.171875 120.828125 -204.796875 113.65625 -204.796875 L 27.140625 -204.796875 C 15.109375 -204.796875 6.140625 -195.84375 6.140625 -183.8125 Z M 6.140625 -20.984375 "
           id="path839" />
      </symbol>
      <symbol
         overflow="visible"
         id="glyph0-3">
        <path
           style="stroke:none;"
           d="M 3.078125 -13.5625 C 3.078125 -5.625 11.515625 1.03125 21.765625 1.03125 L 52.484375 1.03125 C 62.71875 1.03125 71.171875 -5.625 71.171875 -13.5625 L 71.171875 -40.1875 C 71.171875 -49.15625 66.046875 -56.3125 59.140625 -56.3125 C 49.921875 -56.3125 47.875 -60.421875 52.21875 -71.421875 L 90.109375 -168.453125 C 93.4375 -174.84375 100.359375 -179.203125 107.265625 -179.203125 L 111.875 -179.203125 C 113.65625 -179.203125 114.9375 -177.921875 114.9375 -176.125 L 114.9375 -66.5625 C 114.9375 -60.671875 110.59375 -56.3125 104.703125 -56.3125 L 92.921875 -56.3125 C 87.296875 -56.3125 82.9375 -51.453125 82.9375 -45.3125 L 82.9375 -13.5625 C 82.9375 -5.625 91.390625 1.03125 101.625 1.03125 L 132.359375 1.03125 C 142.59375 1.03125 151.046875 -5.625 151.046875 -13.5625 L 151.046875 -45.3125 C 151.046875 -51.453125 148.484375 -56.3125 145.15625 -56.3125 C 142.078125 -56.3125 139.515625 -60.671875 139.515625 -66.5625 L 139.515625 -168.703125 C 139.515625 -174.34375 144.125 -178.9375 149.765625 -178.9375 L 169.734375 -178.9375 C 175.359375 -178.9375 179.96875 -174.34375 179.96875 -168.703125 L 180.21875 -66.5625 C 180.21875 -60.671875 175.875 -56.3125 169.984375 -56.3125 C 164.09375 -56.3125 159.75 -51.453125 159.75 -45.3125 L 159.75 -11.78125 C 159.75 -4.859375 165.625 1.03125 172.546875 1.03125 L 185.34375 1.03125 C 195.84375 1.03125 204.546875 -11.515625 204.546875 -27.140625 L 204.546875 -185.59375 C 204.546875 -196.09375 195.84375 -204.796875 185.34375 -204.796875 L 100.359375 -204.796875 C 86.015625 -204.796875 75.78125 -193.03125 69.375 -177.40625 L 30.46875 -80.890625 C 25.859375 -69.375 22.265625 -56.3125 15.875 -56.3125 L 15.109375 -56.3125 C 8.1875 -56.3125 3.078125 -49.15625 3.078125 -40.1875 Z M 3.078125 -13.5625 "
           id="path842" />
      </symbol>
      <symbol
         overflow="visible"
         id="glyph0-4">
        <path
           style="stroke:none;"
           d="M 3.078125 -19.203125 C 3.078125 -8.703125 11.78125 0 22.265625 0 L 64.765625 0 C 75.265625 0 83.96875 -8.703125 83.96875 -19.203125 L 83.96875 -36.859375 C 83.96875 -44.796875 78.84375 -52.484375 71.6875 -54.78125 L 70.140625 -55.296875 C 65.53125 -56.828125 62.96875 -59.640625 62.96875 -62.71875 L 62.96875 -192 C 62.96875 -199.171875 57.34375 -204.796875 50.171875 -204.796875 C 43.015625 -204.796875 37.375 -199.171875 37.375 -192 L 37.375 -68.859375 C 37.375 -61.703125 31.75 -56.0625 24.578125 -56.0625 L 22.265625 -56.0625 C 11.78125 -56.0625 3.078125 -47.359375 3.078125 -36.859375 Z M 3.078125 -19.203125 "
           id="path845" />
      </symbol>
      <symbol
         overflow="visible"
         id="glyph0-5">
        <path
           style="stroke:none;"
           d="M 6.140625 -12.546875 C 6.140625 -5.625 11.78125 0 18.6875 0 C 25.59375 0 31.234375 -5.625 31.234375 -12.546875 L 31.234375 -129.03125 C 31.234375 -137.984375 34.8125 -144.640625 39.6875 -144.640625 L 59.640625 -144.640625 C 65.03125 -144.640625 68.609375 -137.21875 69.625 -128 L 83.453125 -16.640625 C 84.734375 -7.171875 92.921875 0 102.65625 0 L 131.328125 0 C 141.828125 0 150.53125 -8.703125 150.53125 -19.203125 L 150.53125 -192.515625 C 150.53125 -199.421875 145.15625 -204.796875 138.234375 -204.796875 C 131.328125 -204.796875 125.953125 -199.421875 125.953125 -192.515625 L 125.953125 -33.796875 C 125.953125 -28.15625 121.34375 -23.546875 115.71875 -23.546875 C 111.109375 -23.546875 106.234375 -26.875 105.734375 -31.234375 L 85.5 -188.15625 C 84.21875 -197.625 76.03125 -204.796875 66.296875 -204.796875 L 25.34375 -204.796875 C 14.59375 -204.796875 6.140625 -196.359375 6.140625 -185.59375 Z M 6.140625 -12.546875 "
           id="path848" />
      </symbol>
      <symbol
         overflow="visible"
         id="glyph0-6">
        <path
           style="stroke:none;"
           d="M 3.078125 -13.5625 C 3.078125 -5.625 11.515625 1.03125 21.765625 1.03125 L 60.15625 1.03125 C 68.09375 1.03125 74.75 -5.625 74.75 -13.5625 L 74.75 -42.75 C 74.75 -51.71875 69.625 -58.875 62.71875 -58.875 C 53.5 -58.875 50.6875 -62.71875 55.046875 -73.984375 L 57.859375 -81.40625 C 60.421875 -88.0625 63.234375 -90.625 70.40625 -90.625 L 108.28125 -90.625 C 113.40625 -90.625 117.5 -86.53125 117.5 -81.40625 L 117.5 -68.859375 C 117.5 -63.234375 113.15625 -58.875 107.515625 -58.875 L 95.75 -58.875 C 90.109375 -58.875 85.765625 -54.015625 85.765625 -47.875 L 85.765625 -13.5625 C 85.765625 -5.625 92.421875 1.03125 100.359375 1.03125 L 145.921875 1.03125 C 150.78125 1.03125 154.875 -3.078125 154.875 -7.9375 L 154.875 -47.875 C 154.875 -54.015625 152.3125 -58.875 148.984375 -58.875 C 145.921875 -58.875 143.109375 -63.234375 143.109375 -68.859375 L 143.109375 -195.578125 C 143.109375 -200.703125 139.015625 -204.796875 133.890625 -204.796875 L 94.203125 -204.796875 C 82.4375 -204.796875 75.265625 -197.375 67.84375 -177.40625 L 33.03125 -83.453125 C 28.671875 -71.9375 24.828125 -58.875 18.4375 -58.875 L 15.109375 -58.875 C 8.1875 -58.875 3.078125 -51.71875 3.078125 -42.75 Z M 80.640625 -114.171875 C 72.703125 -114.171875 70.90625 -117.5 73.984375 -125.4375 L 90.109375 -168.453125 C 93.4375 -174.84375 100.359375 -179.203125 107.265625 -179.203125 L 112.890625 -179.203125 C 115.453125 -179.203125 117.5 -177.15625 117.5 -174.59375 L 117.5 -123.390625 C 117.5 -118.265625 113.40625 -114.171875 108.28125 -114.171875 Z M 80.640625 -114.171875 "
           id="path851" />
      </symbol>
      <symbol
         overflow="visible"
         id="glyph0-7">
        <path
           style="stroke:none;"
           d="M 6.140625 -20.984375 C 6.140625 -8.953125 15.109375 0 27.140625 0 L 121.09375 0 C 131.578125 0 140.28125 -5.625 140.28125 -12.796875 L 140.28125 -97.28125 C 140.28125 -108.796875 133.625 -118.53125 124.671875 -121.59375 C 120.828125 -122.875 118.265625 -125.4375 118.265625 -128.765625 L 118.265625 -179.203125 C 118.265625 -193.53125 109.0625 -204.796875 97.28125 -204.796875 L 27.140625 -204.796875 C 15.109375 -204.796875 6.140625 -195.84375 6.140625 -183.8125 Z M 31.234375 -170.75 C 31.234375 -175.359375 35.078125 -179.203125 39.6875 -179.203125 L 85.25 -179.203125 C 89.859375 -179.203125 93.703125 -175.359375 93.703125 -170.75 L 93.703125 -131.328125 C 93.703125 -126.71875 89.859375 -122.875 85.25 -122.875 L 39.6875 -122.875 C 35.078125 -122.875 31.234375 -126.71875 31.234375 -131.328125 Z M 65.28125 -88.828125 C 65.28125 -93.4375 69.125 -97.28125 73.734375 -97.28125 L 107.265625 -97.28125 C 111.875 -97.28125 115.71875 -93.4375 115.71875 -88.828125 L 115.71875 -34.5625 C 115.71875 -29.953125 111.875 -26.109375 107.265625 -26.109375 L 73.734375 -26.109375 C 69.125 -26.109375 65.28125 -29.953125 65.28125 -34.5625 Z M 65.28125 -88.828125 "
           id="path854" />
      </symbol>
      <symbol
         overflow="visible"
         id="glyph0-8">
        <path
           style="stroke:none;"
           d="M 6.140625 -19.203125 C 6.140625 -8.453125 16.390625 0 29.1875 0 L 106.234375 0 C 113.65625 0 119.546875 -5.890625 119.546875 -13.3125 C 119.546875 -20.734375 113.65625 -26.625 106.234375 -26.625 L 40.453125 -26.625 C 35.328125 -26.625 31.234375 -30.71875 31.234375 -35.84375 L 31.234375 -139.265625 C 31.234375 -144.390625 35.328125 -148.484375 40.453125 -148.484375 L 121.34375 -148.484375 C 132.09375 -148.484375 140.546875 -156.671875 140.546875 -167.6875 L 140.546875 -185.59375 C 140.546875 -196.359375 132.09375 -204.796875 121.34375 -204.796875 L 30.71875 -204.796875 C 16.890625 -204.796875 6.140625 -196.359375 6.140625 -185.59375 Z M 6.140625 -19.203125 "
           id="path857" />
      </symbol>
      <symbol
         overflow="visible"
         id="glyph0-9">
        <path
           style="stroke:none;"
           d="M 24.3125 -254.96875 C 24.3125 -251.140625 26.375 -248.3125 28.921875 -245.765625 L 51.203125 -221.1875 C 53.25 -218.875 56.3125 -217.59375 59.640625 -217.59375 L 86.265625 -217.59375 C 89.59375 -217.59375 92.671875 -218.875 94.71875 -221.1875 L 116.984375 -245.765625 C 119.546875 -248.3125 121.59375 -251.140625 121.59375 -254.96875 C 121.59375 -261.375 116.484375 -266.5 110.078125 -266.5 C 107.265625 -266.5 104.453125 -265.734375 102.40625 -263.6875 L 81.15625 -240.640625 L 64.765625 -240.640625 L 43.515625 -263.6875 C 41.46875 -265.734375 38.65625 -266.5 35.84375 -266.5 C 29.4375 -266.5 24.3125 -261.375 24.3125 -254.96875 Z M 6.140625 -19.203125 C 6.140625 -8.453125 16.390625 0 29.1875 0 L 106.234375 0 C 113.65625 0 119.546875 -5.890625 119.546875 -13.3125 C 119.546875 -20.734375 113.65625 -26.625 106.234375 -26.625 L 40.453125 -26.625 C 35.328125 -26.625 31.234375 -30.71875 31.234375 -35.84375 L 31.234375 -139.265625 C 31.234375 -144.390625 35.328125 -148.484375 40.453125 -148.484375 L 121.34375 -148.484375 C 132.09375 -148.484375 140.546875 -156.671875 140.546875 -167.6875 L 140.546875 -185.59375 C 140.546875 -196.359375 132.09375 -204.796875 121.34375 -204.796875 L 30.71875 -204.796875 C 16.890625 -204.796875 6.140625 -196.359375 6.140625 -185.59375 Z M 6.140625 -19.203125 "
           id="path860" />
      </symbol>
      <symbol
         overflow="visible"
         id="glyph0-10">
        <path
           style="stroke:none;"
           d="M 120.828125 0 C 132.859375 0 141.828125 -8.953125 141.828125 -20.984375 L 141.828125 -183.8125 C 141.828125 -195.84375 132.859375 -204.796875 120.828125 -204.796875 L 7.171875 -204.796875 C 6.65625 -204.796875 6.140625 -204.28125 6.140625 -203.78125 L 6.140625 -1.03125 C 6.140625 -0.515625 6.65625 0 7.171875 0 Z M 61.4375 -178.171875 L 107.515625 -178.171875 C 112.125 -178.171875 115.71875 -171.515625 115.71875 -162.5625 L 115.71875 -41.46875 C 115.71875 -32.765625 112.125 -26.109375 107.515625 -26.109375 L 61.4375 -26.109375 Z M 61.4375 -178.171875 "
           id="path863" />
      </symbol>
      <symbol
         overflow="visible"
         id="glyph0-11">
        <path
           style="stroke:none;"
           d="M 6.140625 -20.984375 C 6.140625 -8.953125 15.109375 0 27.140625 0 L 48.125 0 C 60.15625 0 69.125 -8.953125 69.125 -20.984375 L 69.125 -94.96875 C 69.125 -101.125 73.734375 -105.734375 79.875 -105.734375 L 92.671875 -105.734375 C 100.359375 -105.734375 106.5 -111.875 106.5 -119.546875 C 106.5 -127.234375 100.359375 -133.375 92.671875 -133.375 L 44.546875 -133.375 C 38.40625 -133.375 33.796875 -137.984375 33.796875 -144.125 L 33.796875 -168.453125 C 33.796875 -174.59375 38.40625 -179.203125 44.546875 -179.203125 L 103.421875 -179.203125 C 110.59375 -179.203125 116.21875 -184.828125 116.21875 -192 C 116.21875 -199.171875 110.59375 -204.796875 103.421875 -204.796875 L 27.140625 -204.796875 C 15.109375 -204.796875 6.140625 -195.84375 6.140625 -183.8125 Z M 6.140625 -20.984375 "
           id="path866" />
      </symbol>
      <symbol
         overflow="visible"
         id="glyph0-12">
        <path
           style="stroke:none;"
           d="M 6.140625 -13.0625 C 6.140625 -5.125 12.28125 1.03125 20.21875 1.03125 C 28.15625 1.03125 34.296875 -5.125 34.296875 -13.0625 L 34.296875 -43.265625 C 34.296875 -47.875 38.40625 -51.96875 43.015625 -51.96875 L 99.84375 -51.96875 C 104.453125 -51.96875 108.546875 -47.875 108.546875 -43.265625 L 108.546875 -13.0625 C 108.546875 -5.125 114.6875 1.03125 122.625 1.03125 C 130.5625 1.03125 136.703125 -5.125 136.703125 -13.0625 L 136.703125 -191.75 C 136.703125 -199.6875 130.5625 -205.828125 122.625 -205.828125 C 114.6875 -205.828125 108.546875 -199.6875 108.546875 -191.75 L 108.546875 -119.046875 C 108.546875 -114.4375 104.453125 -110.34375 99.84375 -110.34375 L 43.015625 -110.34375 C 38.40625 -110.34375 34.296875 -114.4375 34.296875 -119.046875 L 34.296875 -191.75 C 34.296875 -199.6875 28.15625 -205.828125 20.21875 -205.828125 C 12.28125 -205.828125 6.140625 -199.6875 6.140625 -191.75 Z M 6.140625 -13.0625 "
           id="path869" />
      </symbol>
      <symbol
         overflow="visible"
         id="glyph0-13">
        <path
           style="stroke:none;"
           d="M 117.25 -204.796875 C 110.34375 -204.796875 104.953125 -199.421875 104.953125 -192.515625 L 104.953125 -64.515625 C 104.953125 -58.875 99.84375 -53.765625 94.203125 -53.765625 L 40.703125 -53.765625 C 35.078125 -53.765625 29.953125 -58.875 29.953125 -64.515625 L 29.953125 -81.65625 C 29.953125 -88.578125 24.578125 -93.953125 17.65625 -93.953125 C 10.75 -93.953125 5.375 -88.578125 5.375 -81.65625 L 5.375 -25.59375 C 5.375 -11.265625 16.640625 0 30.96875 0 L 106.5 0 C 119.296875 0 129.53125 -8.1875 129.53125 -19.203125 L 129.53125 -192.515625 C 129.53125 -199.421875 124.15625 -204.796875 117.25 -204.796875 Z M 117.25 -204.796875 "
           id="path872" />
      </symbol>
      <symbol
         overflow="visible"
         id="glyph0-14">
        <path
           style="stroke:none;"
           d="M 6.140625 -23.046875 C 6.140625 -10.5 14.84375 0 25.34375 0 L 44.796875 0 C 55.296875 0 64 -10.5 64 -23.046875 L 64 -84.21875 C 64 -90.109375 68.859375 -94.96875 74.75 -94.96875 L 104.453125 -94.96875 C 110.34375 -94.96875 115.203125 -90.109375 115.203125 -84.21875 L 115.203125 -12.796875 C 115.203125 -5.625 120.828125 0 128 0 C 135.171875 0 140.796875 -5.625 140.796875 -12.796875 L 140.796875 -96.515625 C 140.796875 -110.59375 129.28125 -122.109375 115.203125 -122.109375 L 89.859375 -122.109375 C 83.71875 -122.109375 82.9375 -124.671875 87.046875 -129.28125 L 136.1875 -183.8125 L 137.46875 -185.34375 C 139.265625 -187.390625 140.28125 -189.953125 140.28125 -193.03125 C 140.28125 -199.9375 134.90625 -205.3125 128 -205.3125 C 124.421875 -205.3125 121.59375 -204.03125 119.296875 -201.734375 L 118.265625 -200.703125 L 56.0625 -131.078125 C 51.71875 -126.203125 46.078125 -122.109375 41.21875 -122.109375 C 36.359375 -122.109375 31.75 -126.71875 31.75 -131.578125 L 31.75 -192 C 31.75 -199.171875 26.109375 -204.796875 18.9375 -204.796875 C 11.78125 -204.796875 6.140625 -199.171875 6.140625 -192 Z M 6.140625 -23.046875 "
           id="path875" />
      </symbol>
      <symbol
         overflow="visible"
         id="glyph0-15">
        <path
           style="stroke:none;"
           d="M 6.140625 -19.203125 C 6.140625 -8.453125 16.390625 0 29.1875 0 L 99.578125 0 C 106.75 0 112.390625 -5.625 112.390625 -12.796875 L 112.390625 -43.265625 C 112.390625 -50.4375 106.75 -56.0625 99.578125 -56.0625 L 42.5 -56.0625 C 36.859375 -56.0625 31.75 -61.1875 31.75 -66.8125 L 31.75 -192 C 31.75 -199.171875 26.109375 -204.796875 18.9375 -204.796875 C 11.78125 -204.796875 6.140625 -199.171875 6.140625 -192 Z M 6.140625 -19.203125 "
           id="path878" />
      </symbol>
      <symbol
         overflow="visible"
         id="glyph0-16">
        <path
           style="stroke:none;"
           d="M 28.421875 -229.125 C 28.421875 -222.71875 33.53125 -217.59375 39.9375 -217.59375 C 46.34375 -217.59375 51.453125 -222.71875 51.453125 -229.125 L 51.453125 -245.765625 L 60.421875 -245.765625 L 82.6875 -221.1875 C 84.734375 -218.875 87.8125 -217.59375 91.140625 -217.59375 L 116.734375 -217.59375 C 123.140625 -217.59375 128.25 -222.71875 128.25 -229.125 L 128.25 -257.28125 C 128.25 -263.6875 123.140625 -268.796875 116.734375 -268.796875 C 110.34375 -268.796875 105.21875 -263.6875 105.21875 -257.28125 L 105.21875 -240.640625 L 96.25 -240.640625 L 75.015625 -263.6875 C 72.953125 -266.75 69.625 -268.796875 65.53125 -268.796875 L 39.9375 -268.796875 C 33.53125 -268.796875 28.421875 -263.6875 28.421875 -257.28125 Z M 6.140625 -12.546875 C 6.140625 -5.625 11.78125 0 18.6875 0 C 25.59375 0 31.234375 -5.625 31.234375 -12.546875 L 31.234375 -129.03125 C 31.234375 -137.984375 34.8125 -144.640625 39.6875 -144.640625 L 59.640625 -144.640625 C 65.03125 -144.640625 68.609375 -137.21875 69.625 -128 L 83.453125 -16.640625 C 84.734375 -7.171875 92.921875 0 102.65625 0 L 131.328125 0 C 141.828125 0 150.53125 -8.703125 150.53125 -19.203125 L 150.53125 -192.515625 C 150.53125 -199.421875 145.15625 -204.796875 138.234375 -204.796875 C 131.328125 -204.796875 125.953125 -199.421875 125.953125 -192.515625 L 125.953125 -33.796875 C 125.953125 -28.15625 121.34375 -23.546875 115.71875 -23.546875 C 111.109375 -23.546875 106.234375 -26.875 105.734375 -31.234375 L 85.5 -188.15625 C 84.21875 -197.625 76.03125 -204.796875 66.296875 -204.796875 L 25.34375 -204.796875 C 14.59375 -204.796875 6.140625 -196.359375 6.140625 -185.59375 Z M 6.140625 -12.546875 "
           id="path881" />
      </symbol>
      <symbol
         overflow="visible"
         id="glyph0-17">
        <path
           style="stroke:none;"
           d="M 6.140625 -19.203125 C 6.140625 -8.453125 16.390625 0 29.1875 0 L 107.265625 0 C 120.0625 0 130.296875 -8.453125 130.296875 -19.203125 L 130.296875 -185.59375 C 130.296875 -196.359375 121.859375 -204.796875 111.109375 -204.796875 L 25.34375 -204.796875 C 14.59375 -204.796875 6.140625 -196.359375 6.140625 -185.59375 Z M 31.484375 -168.453125 C 31.484375 -174.078125 36.609375 -179.203125 42.234375 -179.203125 L 94.203125 -179.203125 C 99.84375 -179.203125 104.953125 -174.078125 104.953125 -168.453125 L 104.953125 -64.515625 C 104.953125 -58.875 99.84375 -53.765625 94.203125 -53.765625 L 42.234375 -53.765625 C 36.609375 -53.765625 31.484375 -58.875 31.484375 -64.515625 Z M 31.484375 -168.453125 "
           id="path884" />
      </symbol>
      <symbol
         overflow="visible"
         id="glyph0-18">
        <path
           style="stroke:none;"
           d="M 6.140625 -19.203125 C 6.140625 -8.703125 14.84375 0 25.34375 0 L 45.0625 0 C 55.546875 0 64.25 -8.703125 64.25 -19.203125 L 64.25 -82.4375 C 64.25 -84.484375 65.796875 -86.015625 67.84375 -86.015625 L 117.5 -86.015625 C 128 -86.015625 136.703125 -94.71875 136.703125 -105.21875 L 136.703125 -185.59375 C 136.703125 -196.09375 128 -204.796875 117.5 -204.796875 L 25.34375 -204.796875 C 14.84375 -204.796875 6.140625 -196.09375 6.140625 -185.59375 Z M 30.46875 -167.421875 C 30.46875 -173.3125 35.328125 -178.171875 41.21875 -178.171875 L 98.5625 -178.171875 C 104.453125 -178.171875 109.3125 -173.3125 109.3125 -167.421875 L 109.3125 -120.3125 C 109.3125 -114.4375 104.453125 -109.5625 98.5625 -109.5625 L 41.21875 -109.5625 C 35.328125 -109.5625 30.46875 -114.4375 30.46875 -120.3125 Z M 30.46875 -167.421875 "
           id="path887" />
      </symbol>
      <symbol
         overflow="visible"
         id="glyph0-19">
        <path
           style="stroke:none;"
           d="M 6.40625 -19.203125 C 6.40625 -8.453125 16.640625 0 29.4375 0 L 145.65625 0 C 152.828125 0 158.46875 -5.625 158.46875 -12.796875 L 158.46875 -47.109375 C 158.46875 -52.21875 154.375 -56.3125 149.25 -56.3125 L 138.5 -56.3125 C 133.625 -56.3125 129.28125 -60.671875 129.28125 -65.53125 L 129.28125 -179.203125 C 129.28125 -193.53125 118.015625 -204.796875 103.6875 -204.796875 L 25.59375 -204.796875 C 14.84375 -204.796875 6.40625 -196.359375 6.40625 -185.59375 Z M 31.484375 -137.46875 C 31.484375 -143.109375 36.609375 -148.21875 42.234375 -148.21875 L 93.4375 -148.21875 C 99.078125 -148.21875 104.1875 -143.109375 104.1875 -137.46875 L 104.1875 -65.53125 C 104.1875 -60.671875 99.84375 -56.3125 94.96875 -56.3125 L 89.59375 -56.3125 C 84.484375 -56.3125 80.390625 -52.21875 80.390625 -47.109375 L 80.390625 -34.296875 C 80.390625 -29.4375 76.03125 -25.09375 71.171875 -25.09375 L 42.234375 -25.09375 C 36.609375 -25.09375 31.484375 -30.203125 31.484375 -35.84375 Z M 31.484375 -137.46875 "
           id="path890" />
      </symbol>
      <symbol
         overflow="visible"
         id="glyph0-20">
        <path
           style="stroke:none;"
           d="M 6.140625 -19.203125 C 6.140625 -8.703125 14.84375 0 25.34375 0 L 44.546875 0 C 55.046875 0 63.75 -8.703125 63.75 -19.203125 L 63.75 -83.453125 C 63.75 -89.34375 68.609375 -94.203125 74.5 -94.203125 L 107.78125 -94.203125 C 111.609375 -94.203125 114.9375 -90.875 114.9375 -87.046875 L 114.9375 -12.796875 C 114.9375 -5.625 120.578125 0 127.75 0 C 134.90625 0 140.546875 -5.375 140.546875 -12.546875 L 140.546875 -99.078125 C 140.546875 -109.5625 131.84375 -118.265625 121.34375 -118.265625 C 120.0625 -118.265625 118.78125 -119.8125 118.78125 -121.59375 L 118.78125 -185.59375 C 118.78125 -196.09375 110.078125 -204.796875 99.578125 -204.796875 L 25.34375 -204.796875 C 14.84375 -204.796875 6.140625 -196.09375 6.140625 -185.59375 Z M 31.75 -168.453125 C 31.75 -174.34375 36.609375 -179.203125 42.5 -179.203125 L 82.4375 -179.203125 C 88.3125 -179.203125 93.1875 -174.34375 93.1875 -168.453125 L 93.1875 -130.296875 C 93.1875 -124.421875 88.3125 -119.546875 82.4375 -119.546875 L 42.5 -119.546875 C 36.609375 -119.546875 31.75 -124.421875 31.75 -130.296875 Z M 31.75 -168.453125 "
           id="path893" />
      </symbol>
      <symbol
         overflow="visible"
         id="glyph0-21">
        <path
           style="stroke:none;"
           d="M 6.140625 -120.3125 C 6.140625 -107.515625 16.390625 -97.28125 29.1875 -97.28125 L 75.78125 -97.28125 C 80.390625 -97.28125 84.21875 -93.4375 84.21875 -88.828125 L 84.21875 -34.5625 C 84.21875 -29.953125 80.390625 -26.109375 75.78125 -26.109375 L 23.296875 -26.109375 C 16.125 -26.109375 10.234375 -20.21875 10.234375 -13.0625 C 10.234375 -5.890625 16.125 0 23.296875 0 L 120.828125 0 C 132.859375 0 141.828125 -8.953125 141.828125 -20.984375 L 141.828125 -97.28125 C 141.828125 -111.359375 130.296875 -122.875 116.21875 -122.875 L 41.21875 -122.875 C 36.609375 -122.875 32.765625 -126.71875 32.765625 -131.328125 L 32.765625 -170.75 C 32.765625 -175.359375 36.609375 -179.203125 41.21875 -179.203125 L 106.75 -179.203125 C 113.921875 -179.203125 119.546875 -184.828125 119.546875 -192 C 119.546875 -199.171875 113.921875 -204.796875 106.75 -204.796875 L 24.0625 -204.796875 C 13.828125 -204.796875 6.140625 -195.84375 6.140625 -183.8125 Z M 6.140625 -120.3125 "
           id="path896" />
      </symbol>
      <symbol
         overflow="visible"
         id="glyph0-22">
        <path
           style="stroke:none;"
           d="M 3.078125 -167.421875 C 3.078125 -156.671875 11.515625 -148.21875 22.265625 -148.21875 L 47.609375 -148.21875 C 52.734375 -148.21875 56.828125 -144.125 56.828125 -139.015625 L 56.828125 -12.796875 C 56.828125 -5.625 62.46875 0 69.625 0 C 76.796875 0 82.4375 -5.625 82.4375 -12.796875 L 82.4375 -139.015625 C 82.4375 -144.125 86.53125 -148.21875 91.640625 -148.21875 L 112.890625 -148.21875 C 123.640625 -148.21875 132.09375 -156.671875 132.09375 -167.421875 L 132.09375 -185.59375 C 132.09375 -196.359375 123.640625 -204.796875 112.890625 -204.796875 L 22.265625 -204.796875 C 11.515625 -204.796875 3.078125 -196.359375 3.078125 -185.59375 Z M 3.078125 -167.421875 "
           id="path899" />
      </symbol>
      <symbol
         overflow="visible"
         id="glyph0-23">
        <path
           style="stroke:none;"
           d="M 6.140625 -19.203125 C 6.140625 -8.453125 16.390625 0 29.1875 0 L 109.0625 0 C 121.859375 0 132.09375 -8.453125 132.09375 -19.203125 L 132.09375 -192 C 132.09375 -199.171875 126.46875 -204.796875 119.296875 -204.796875 C 112.125 -204.796875 106.5 -199.171875 106.5 -192 L 106.5 -67.078125 C 106.5 -61.4375 101.375 -56.3125 95.75 -56.3125 L 42.5 -56.3125 C 36.859375 -56.3125 31.75 -61.4375 31.75 -67.078125 L 31.75 -192 C 31.75 -199.171875 26.109375 -204.796875 18.9375 -204.796875 C 11.78125 -204.796875 6.140625 -199.171875 6.140625 -192 Z M 6.140625 -19.203125 "
           id="path902" />
      </symbol>
      <symbol
         overflow="visible"
         id="glyph0-24">
        <path
           style="stroke:none;"
           d="M 3.078125 -159.234375 C 3.078125 -153.09375 5.890625 -147.96875 9.21875 -147.96875 C 12.28125 -147.96875 18.4375 -143.609375 18.4375 -137.734375 L 18.4375 -14.34375 C 18.4375 -5.625 24.0625 1.03125 31.234375 1.03125 L 60.421875 1.03125 C 74.75 1.03125 84.984375 -10.75 91.390625 -26.375 L 130.296875 -123.390625 C 134.90625 -134.90625 138.5 -147.96875 144.890625 -147.96875 L 145.65625 -147.96875 C 152.578125 -147.96875 157.703125 -155.140625 157.703125 -164.09375 L 157.703125 -190.203125 C 157.703125 -198.140625 149.25 -204.796875 139.015625 -204.796875 L 108.28125 -204.796875 C 98.046875 -204.796875 89.59375 -198.140625 89.59375 -190.203125 L 89.59375 -164.09375 C 89.59375 -155.140625 94.71875 -147.96875 101.625 -147.96875 C 110.84375 -147.96875 112.890625 -143.875 108.546875 -132.859375 L 70.65625 -35.328125 C 67.328125 -28.921875 60.421875 -24.578125 53.5 -24.578125 L 48.125 -24.578125 C 45.5625 -24.578125 43.515625 -26.625 43.515625 -29.1875 L 43.515625 -137.734375 C 43.515625 -143.609375 47.875 -147.96875 53.765625 -147.96875 L 67.578125 -147.96875 C 73.46875 -147.96875 77.828125 -152.828125 77.828125 -159.234375 L 77.828125 -190.203125 C 77.828125 -198.140625 69.375 -204.796875 59.140625 -204.796875 L 21.765625 -204.796875 C 11.515625 -204.796875 3.078125 -198.140625 3.078125 -190.203125 Z M 3.078125 -159.234375 "
           id="path905" />
      </symbol>
      <symbol
         overflow="visible"
         id="glyph0-25">
        <path
           style="stroke:none;"
           d="M 210.9375 -190.203125 C 210.9375 -198.140625 202.5 -204.796875 192.25 -204.796875 L 157.703125 -204.796875 C 149.765625 -204.796875 143.109375 -198.140625 143.109375 -190.203125 L 143.109375 -164.09375 C 143.109375 -155.140625 148.21875 -147.96875 155.140625 -147.96875 C 164.359375 -147.96875 166.40625 -143.875 162.046875 -132.859375 L 124.421875 -35.578125 C 121.09375 -29.1875 114.171875 -24.828125 107.265625 -24.828125 L 101.890625 -24.828125 C 99.328125 -24.828125 97.28125 -26.875 97.28125 -29.4375 L 97.28125 -137.734375 C 97.28125 -143.609375 101.625 -147.96875 107.515625 -147.96875 L 118.78125 -147.96875 C 125.4375 -147.96875 131.578125 -153.59375 131.578125 -160.765625 L 131.578125 -190.203125 C 131.578125 -198.140625 123.140625 -204.796875 112.890625 -204.796875 L 70.40625 -204.796875 C 63.484375 -204.796875 57.59375 -198.90625 57.59375 -192 L 57.59375 -158.96875 C 57.59375 -152.828125 62.203125 -147.96875 65.53125 -147.96875 C 68.609375 -147.96875 71.6875 -143.359375 71.6875 -137.734375 L 71.6875 -35.328125 C 71.6875 -29.703125 67.078125 -25.09375 61.4375 -25.09375 L 40.953125 -25.09375 C 35.328125 -25.09375 30.71875 -29.703125 30.71875 -35.328125 L 30.71875 -137.734375 C 30.71875 -143.609375 35.078125 -147.96875 40.703125 -147.96875 C 46.34375 -147.96875 50.6875 -152.828125 50.6875 -158.96875 L 50.6875 -192 C 50.6875 -198.90625 44.796875 -204.796875 37.890625 -204.796875 L 21.5 -204.796875 C 13.3125 -204.796875 6.140625 -198.40625 6.140625 -189.4375 L 6.140625 -18.4375 C 6.140625 -7.9375 18.9375 0.765625 34.296875 0.765625 L 114.171875 0.765625 C 128.515625 0.765625 139.015625 -11.015625 145.15625 -26.625 L 183.8125 -123.390625 C 188.421875 -134.90625 191.75 -147.96875 198.140625 -147.96875 L 198.90625 -147.96875 C 205.828125 -147.96875 210.9375 -155.140625 210.9375 -164.09375 Z M 210.9375 -190.203125 "
           id="path908" />
      </symbol>
      <symbol
         overflow="visible"
         id="glyph0-26">
        <path
           style="stroke:none;"
           d="M 43.78125 -229.125 C 43.78125 -222.71875 48.890625 -217.59375 55.296875 -217.59375 C 58.109375 -217.59375 60.921875 -218.375 62.96875 -220.421875 L 84.21875 -243.453125 L 100.609375 -243.453125 L 121.859375 -220.421875 C 123.90625 -218.375 126.71875 -217.59375 129.53125 -217.59375 C 135.9375 -217.59375 141.0625 -222.71875 141.0625 -229.125 C 141.0625 -232.953125 139.015625 -235.78125 136.453125 -238.34375 L 114.171875 -262.90625 C 112.125 -265.21875 109.0625 -266.5 105.734375 -266.5 L 79.109375 -266.5 C 75.78125 -266.5 72.703125 -265.21875 70.65625 -262.90625 L 48.390625 -238.34375 C 45.828125 -235.78125 43.78125 -232.953125 43.78125 -229.125 Z M 210.9375 -190.203125 C 210.9375 -198.140625 202.5 -204.796875 192.25 -204.796875 L 157.703125 -204.796875 C 149.765625 -204.796875 143.109375 -198.140625 143.109375 -190.203125 L 143.109375 -164.09375 C 143.109375 -155.140625 148.21875 -147.96875 155.140625 -147.96875 C 164.359375 -147.96875 166.40625 -143.875 162.046875 -132.859375 L 124.421875 -35.578125 C 121.09375 -29.1875 114.171875 -24.828125 107.265625 -24.828125 L 101.890625 -24.828125 C 99.328125 -24.828125 97.28125 -26.875 97.28125 -29.4375 L 97.28125 -137.734375 C 97.28125 -143.609375 101.625 -147.96875 107.515625 -147.96875 L 118.78125 -147.96875 C 125.4375 -147.96875 131.578125 -153.59375 131.578125 -160.765625 L 131.578125 -190.203125 C 131.578125 -198.140625 123.140625 -204.796875 112.890625 -204.796875 L 70.40625 -204.796875 C 63.484375 -204.796875 57.59375 -198.90625 57.59375 -192 L 57.59375 -158.96875 C 57.59375 -152.828125 62.203125 -147.96875 65.53125 -147.96875 C 68.609375 -147.96875 71.6875 -143.359375 71.6875 -137.734375 L 71.6875 -35.328125 C 71.6875 -29.703125 67.078125 -25.09375 61.4375 -25.09375 L 40.953125 -25.09375 C 35.328125 -25.09375 30.71875 -29.703125 30.71875 -35.328125 L 30.71875 -137.734375 C 30.71875 -143.609375 35.078125 -147.96875 40.703125 -147.96875 C 46.34375 -147.96875 50.6875 -152.828125 50.6875 -158.96875 L 50.6875 -192 C 50.6875 -198.90625 44.796875 -204.796875 37.890625 -204.796875 L 21.5 -204.796875 C 13.3125 -204.796875 6.140625 -198.40625 6.140625 -189.4375 L 6.140625 -18.4375 C 6.140625 -7.9375 18.9375 0.765625 34.296875 0.765625 L 114.171875 0.765625 C 128.515625 0.765625 139.015625 -11.015625 145.15625 -26.625 L 183.8125 -123.390625 C 188.421875 -134.90625 191.75 -147.96875 198.140625 -147.96875 L 198.90625 -147.96875 C 205.828125 -147.96875 210.9375 -155.140625 210.9375 -164.09375 Z M 210.9375 -190.203125 "
           id="path911" />
      </symbol>
      <symbol
         overflow="visible"
         id="glyph0-27">
        <path
           style="stroke:none;"
           d="M 143.359375 -47.109375 C 143.359375 -52.984375 138.5 -57.859375 132.609375 -57.859375 L 120.0625 -57.859375 C 109.828125 -57.859375 103.9375 -61.703125 99.84375 -71.9375 L 86.78125 -104.1875 L 138.234375 -191.484375 C 139.265625 -193.28125 139.78125 -195.578125 139.78125 -197.625 C 139.78125 -204.796875 134.140625 -210.4375 126.96875 -210.4375 C 122.625 -210.4375 118.78125 -208.390625 116.484375 -205.0625 L 74.5 -133.890625 L 48.125 -198.90625 C 45.828125 -202.5 41.734375 -204.796875 37.125 -204.796875 L 15.359375 -204.796875 C 9.46875 -204.796875 4.609375 -199.9375 4.609375 -194.046875 L 4.609375 -158.96875 C 4.609375 -153.09375 9.46875 -148.21875 15.359375 -148.21875 L 29.1875 -148.21875 C 39.421875 -148.21875 45.3125 -144.390625 49.40625 -134.140625 L 59.640625 -108.796875 L 5.125 -15.875 C 3.84375 -14.078125 3.078125 -11.78125 3.078125 -9.21875 C 3.078125 -2.296875 8.953125 3.578125 15.875 3.578125 C 20.484375 3.578125 24.578125 1.03125 26.875 -2.5625 L 71.9375 -78.84375 L 87.296875 -41.21875 L 101.625 -5.890625 C 103.9375 -2.296875 108.03125 0 112.640625 0 L 133.625 0 C 139.515625 0 144.390625 -4.859375 144.390625 -10.75 L 144.390625 -11.265625 Z M 143.359375 -47.109375 "
           id="path914" />
      </symbol>
      <symbol
         overflow="visible"
         id="glyph0-28">
        <path
           style="stroke:none;"
           d="M 5.375 -118.78125 C 5.375 -112.125 8.953125 -105.984375 14.34375 -102.65625 L 79.109375 -73.984375 C 82.4375 -72.453125 83.71875 -70.65625 83.71875 -67.078125 L 83.71875 -11.78125 C 83.71875 -4.609375 89.34375 1.03125 96.515625 1.03125 C 103.6875 1.03125 109.3125 -4.609375 109.3125 -11.78125 L 109.3125 -89.34375 C 109.3125 -94.96875 115.71875 -97.03125 122.109375 -97.03125 L 122.875 -97.03125 C 133.375 -97.03125 142.078125 -105.734375 142.078125 -116.21875 L 142.078125 -192 C 142.078125 -199.171875 136.453125 -204.796875 129.28125 -204.796875 L 105.734375 -204.796875 C 98.5625 -204.796875 92.921875 -199.171875 92.921875 -192 L 92.921875 -105.46875 C 92.921875 -101.890625 90.109375 -99.078125 86.53125 -99.078125 C 85.5 -99.078125 84.734375 -99.328125 83.96875 -99.578125 L 43.515625 -117.25 C 34.046875 -120.828125 30.96875 -124.671875 30.96875 -133.125 L 30.96875 -192 C 30.96875 -199.171875 25.34375 -204.796875 18.171875 -204.796875 C 11.015625 -204.796875 5.375 -199.171875 5.375 -192 Z M 5.375 -118.78125 "
           id="path917" />
      </symbol>
      <symbol
         overflow="visible"
         id="glyph0-29">
        <path
           style="stroke:none;"
           d="M 3.078125 -15.359375 C 3.078125 -6.65625 9.734375 0 18.4375 0 L 129.796875 0 C 136.953125 0 142.59375 -5.625 142.59375 -12.796875 L 142.59375 -44.796875 C 142.59375 -51.96875 136.953125 -57.59375 129.796875 -57.59375 L 66.046875 -57.59375 C 63.234375 -57.59375 61.1875 -59.640625 61.1875 -62.46875 C 61.1875 -63.484375 61.4375 -64.25 61.953125 -65.03125 L 64.765625 -69.890625 L 137.734375 -184.828125 C 139.015625 -186.875 139.78125 -189.4375 139.78125 -192 C 139.78125 -199.171875 134.140625 -204.796875 126.96875 -204.796875 L 20.21875 -204.796875 C 13.0625 -204.796875 7.421875 -199.171875 7.421875 -192 C 7.421875 -184.828125 13.0625 -179.203125 20.21875 -179.203125 L 94.46875 -179.203125 C 97.28125 -179.203125 99.328125 -177.15625 99.328125 -174.34375 C 99.328125 -173.3125 99.078125 -172.546875 98.5625 -171.78125 L 5.890625 -24.3125 L 5.125 -23.046875 C 3.84375 -20.984375 3.078125 -18.171875 3.078125 -15.359375 Z M 3.078125 -15.359375 "
           id="path920" />
      </symbol>
      <symbol
         overflow="visible"
         id="glyph0-30">
        <path
           style="stroke:none;"
           d="M 6.140625 -20.984375 C 6.140625 -8.953125 15.109375 0 27.140625 0 L 100.359375 0 C 109.3125 0 116.21875 -6.90625 116.21875 -15.875 L 116.21875 -48.125 C 116.21875 -52.734375 120.0625 -56.578125 124.671875 -56.578125 L 154.375 -56.578125 C 161.53125 -56.578125 167.421875 -62.46875 167.421875 -69.625 C 167.421875 -76.796875 161.53125 -82.6875 154.375 -82.6875 L 110.84375 -82.6875 C 100.359375 -82.6875 91.640625 -73.984375 91.640625 -63.484375 L 91.390625 -34.046875 C 91.390625 -29.4375 87.546875 -25.59375 82.9375 -25.59375 L 39.171875 -25.59375 C 34.5625 -25.59375 30.71875 -29.4375 30.71875 -34.046875 L 30.71875 -87.546875 C 30.71875 -92.15625 34.5625 -96 39.171875 -96 L 100.359375 -96 C 107.515625 -96 113.15625 -101.625 113.15625 -108.796875 C 113.15625 -115.96875 107.515625 -121.59375 100.359375 -121.59375 L 72.453125 -121.59375 C 67.84375 -121.59375 64 -125.4375 64 -130.046875 L 64 -170.75 C 64 -175.359375 67.84375 -179.203125 72.453125 -179.203125 L 105.46875 -179.203125 C 112.640625 -179.203125 118.265625 -184.828125 118.265625 -192 C 118.265625 -199.171875 112.640625 -204.796875 105.46875 -204.796875 L 27.140625 -204.796875 C 15.109375 -204.796875 6.140625 -195.84375 6.140625 -183.8125 Z M 6.140625 -20.984375 "
           id="path923" />
      </symbol>
      <symbol
         overflow="visible"
         id="glyph0-31">
        <path
           style="stroke:none;"
           d="M 6.140625 -12.796875 C 6.140625 -5.625 11.78125 0 18.9375 0 L 76.796875 0 C 77.3125 0 77.828125 -0.515625 77.828125 -1.03125 L 77.828125 -17.40625 C 77.828125 -17.921875 77.3125 -18.4375 76.796875 -18.4375 L 38.40625 -18.4375 C 37.890625 -18.4375 37.375 -18.9375 37.375 -19.453125 L 37.375 -185.34375 C 37.375 -185.859375 37.890625 -186.375 38.40625 -186.375 L 76.796875 -186.375 C 77.3125 -186.375 77.828125 -186.875 77.828125 -187.390625 L 77.828125 -203.78125 C 77.828125 -204.28125 77.3125 -204.796875 76.796875 -204.796875 L 18.9375 -204.796875 C 11.78125 -204.796875 6.140625 -199.171875 6.140625 -192 Z M 6.140625 -12.796875 "
           id="path926" />
      </symbol>
      <symbol
         overflow="visible"
         id="glyph0-32">
        <path
           style="stroke:none;"
           d="M 8.453125 -162.046875 C 8.453125 -154.875 14.078125 -149.25 21.25 -149.25 C 28.421875 -149.25 34.046875 -154.875 34.046875 -162.046875 L 34.046875 -194.5625 C 34.046875 -201.734375 28.421875 -207.359375 21.25 -207.359375 C 14.078125 -207.359375 8.453125 -201.734375 8.453125 -194.5625 Z M 42.75 -162.046875 C 42.75 -154.875 48.390625 -149.25 55.546875 -149.25 C 62.71875 -149.25 68.359375 -154.875 68.359375 -162.046875 L 68.359375 -194.5625 C 68.359375 -201.734375 62.71875 -207.359375 55.546875 -207.359375 C 48.390625 -207.359375 42.75 -201.734375 42.75 -194.5625 Z M 42.75 -162.046875 "
           id="path929" />
      </symbol>
      <symbol
         overflow="visible"
         id="glyph0-33">
        <path
           style="stroke:none;"
           d="M 38.140625 2.5625 C 47.359375 2.5625 54.78125 -4.09375 54.78125 -12.796875 C 54.78125 -20.984375 47.359375 -27.640625 38.140625 -27.640625 C 28.671875 -27.640625 21.5 -20.984375 21.5 -12.796875 C 21.5 -4.09375 28.671875 2.5625 38.140625 2.5625 Z M 38.140625 2.5625 "
           id="path932" />
      </symbol>
      <symbol
         overflow="visible"
         id="glyph0-34">
        <path
           style="stroke:none;"
           d="M 25.59375 17.15625 C 25.59375 24.3125 31.234375 29.953125 38.40625 29.953125 C 45.5625 29.953125 51.203125 24.3125 51.203125 17.15625 L 51.203125 -15.359375 C 51.203125 -22.53125 45.5625 -28.15625 38.40625 -28.15625 C 31.234375 -28.15625 25.59375 -22.53125 25.59375 -15.359375 Z M 25.59375 17.15625 "
           id="path935" />
      </symbol>
      <symbol
         overflow="visible"
         id="glyph0-35">
        <path
           style="stroke:none;"
           d="M 38.40625 -64 C 47.609375 -64 55.046875 -70.65625 55.046875 -79.359375 C 55.046875 -87.546875 47.609375 -94.203125 38.40625 -94.203125 C 28.921875 -94.203125 21.765625 -87.546875 21.765625 -79.359375 C 21.765625 -70.65625 28.921875 -64 38.40625 -64 Z M 38.40625 2.5625 C 47.609375 2.5625 55.046875 -4.09375 55.046875 -12.796875 C 55.046875 -20.984375 47.609375 -27.640625 38.40625 -27.640625 C 28.921875 -27.640625 21.765625 -20.984375 21.765625 -12.796875 C 21.765625 -4.09375 28.921875 2.5625 38.40625 2.5625 Z M 38.40625 2.5625 "
           id="path938" />
      </symbol>
      <symbol
         overflow="visible"
         id="glyph0-36">
        <path
           style="stroke:none;"
           d="M 38.40625 -64 C 47.609375 -64 55.046875 -70.65625 55.046875 -79.359375 C 55.046875 -87.546875 47.609375 -94.203125 38.40625 -94.203125 C 28.921875 -94.203125 21.765625 -87.546875 21.765625 -79.359375 C 21.765625 -70.65625 28.921875 -64 38.40625 -64 Z M 25.59375 17.15625 C 25.59375 24.3125 31.234375 29.953125 38.40625 29.953125 C 45.5625 29.953125 51.203125 24.3125 51.203125 17.15625 L 51.203125 -15.359375 C 51.203125 -22.53125 45.5625 -28.15625 38.40625 -28.15625 C 31.234375 -28.15625 25.59375 -22.53125 25.59375 -15.359375 Z M 25.59375 17.15625 "
           id="path941" />
      </symbol>
      <symbol
         overflow="visible"
         id="glyph0-37">
        <path
           style="stroke:none;"
           d="M 25.59375 -162.046875 C 25.59375 -154.875 31.234375 -149.25 38.40625 -149.25 C 45.5625 -149.25 51.203125 -154.875 51.203125 -162.046875 L 51.203125 -194.5625 C 51.203125 -201.734375 45.5625 -207.359375 38.40625 -207.359375 C 31.234375 -207.359375 25.59375 -201.734375 25.59375 -194.5625 Z M 25.59375 -162.046875 "
           id="path944" />
      </symbol>
      <symbol
         overflow="visible"
         id="glyph0-38">
        <path
           style="stroke:none;"
           d="M 77.828125 -192 C 77.828125 -199.171875 72.1875 -204.796875 65.03125 -204.796875 L 7.171875 -204.796875 C 6.65625 -204.796875 6.140625 -204.28125 6.140625 -203.78125 L 6.140625 -187.390625 C 6.140625 -186.875 6.65625 -186.375 7.171875 -186.375 L 45.5625 -186.375 C 46.078125 -186.375 46.59375 -185.859375 46.59375 -185.34375 L 46.59375 -19.453125 C 46.59375 -18.9375 46.078125 -18.4375 45.5625 -18.4375 L 7.171875 -18.4375 C 6.65625 -18.4375 6.140625 -17.921875 6.140625 -17.40625 L 6.140625 -1.03125 C 6.140625 -0.515625 6.65625 0 7.171875 0 L 65.03125 0 C 72.1875 0 77.828125 -5.625 77.828125 -12.796875 Z M 77.828125 -192 "
           id="path947" />
      </symbol>
      <symbol
         overflow="visible"
         id="glyph0-39">
        <path
           style="stroke:none;"
           d="M 3.078125 -167.421875 C 3.078125 -156.671875 11.515625 -148.21875 22.265625 -148.21875 L 81.65625 -148.21875 C 86.53125 -148.21875 90.375 -144.390625 90.375 -139.515625 L 90.375 -105.46875 C 90.375 -100.609375 86.53125 -96.765625 81.65625 -96.765625 L 50.4375 -96.765625 C 43.265625 -96.765625 37.625 -91.140625 37.625 -83.96875 L 37.625 -51.71875 C 37.625 -44.796875 43.015625 -39.421875 49.921875 -39.421875 C 56.828125 -39.421875 62.203125 -44.796875 62.203125 -51.71875 L 62.203125 -63.484375 C 62.203125 -68.359375 66.046875 -72.1875 70.90625 -72.1875 L 96 -72.1875 C 107.015625 -72.1875 115.96875 -80.890625 115.96875 -92.15625 L 115.96875 -185.59375 C 115.96875 -196.359375 107.515625 -204.796875 96.765625 -204.796875 L 22.265625 -204.796875 C 11.515625 -204.796875 3.078125 -196.359375 3.078125 -185.59375 Z M 49.921875 0 C 58.109375 0 64.765625 -6.65625 64.765625 -14.84375 C 64.765625 -23.046875 58.109375 -29.703125 49.921875 -29.703125 C 41.734375 -29.703125 35.078125 -23.046875 35.078125 -14.84375 C 35.078125 -6.65625 41.734375 0 49.921875 0 Z M 49.921875 0 "
           id="path950" />
      </symbol>
      <symbol
         overflow="visible"
         id="glyph0-40">
        <path
           style="stroke:none;"
           d="M 38.40625 -39.421875 C 45.5625 -39.421875 51.203125 -45.0625 51.203125 -52.21875 L 51.203125 -201.734375 C 51.203125 -208.890625 45.5625 -214.53125 38.40625 -214.53125 C 31.234375 -214.53125 25.59375 -208.890625 25.59375 -201.734375 L 25.59375 -52.21875 C 25.59375 -45.0625 31.234375 -39.421875 38.40625 -39.421875 Z M 38.40625 -28.671875 C 30.203125 -28.671875 23.546875 -22.015625 23.546875 -13.828125 C 23.546875 -5.625 30.203125 1.03125 38.40625 1.03125 C 46.59375 1.03125 53.25 -5.625 53.25 -13.828125 C 53.25 -22.015625 46.59375 -28.671875 38.40625 -28.671875 Z M 38.40625 -28.671875 "
           id="path953" />
      </symbol>
      <symbol
         overflow="visible"
         id="glyph0-41">
        <path
           style="stroke:none;"
           d="M 6.140625 -70.40625 C 6.140625 -63.234375 11.78125 -57.59375 18.9375 -57.59375 L 95.75 -57.59375 C 102.90625 -57.59375 108.546875 -63.234375 108.546875 -70.40625 C 108.546875 -77.5625 102.90625 -83.203125 95.75 -83.203125 L 18.9375 -83.203125 C 11.78125 -83.203125 6.140625 -77.5625 6.140625 -70.40625 Z M 6.140625 -70.40625 "
           id="path956" />
      </symbol>
      <symbol
         overflow="visible"
         id="glyph0-42">
        <path
           style="stroke:none;"
           d="M 5.375 -120.3125 C 5.375 -107.515625 15.609375 -97.28125 28.421875 -97.28125 L 73.734375 -97.28125 C 78.34375 -97.28125 82.171875 -93.4375 82.171875 -88.828125 L 82.171875 -34.046875 C 82.171875 -29.4375 78.34375 -25.59375 73.734375 -25.59375 L 21.5 -25.59375 C 14.59375 -25.59375 8.703125 -19.96875 8.703125 -12.796875 C 8.703125 -5.890625 14.59375 0 21.5 0 L 49.15625 0 L 49.15625 10.234375 C 49.15625 15.875 53.765625 20.484375 59.390625 20.484375 C 65.03125 20.484375 69.625 15.875 69.625 10.234375 L 69.625 0 L 117.5 0 C 129.53125 0 138.5 -8.953125 138.5 -20.984375 L 138.5 -97.28125 C 138.5 -111.359375 126.96875 -122.875 112.890625 -122.875 L 39.421875 -122.875 C 34.8125 -122.875 30.96875 -126.71875 30.96875 -131.328125 L 30.96875 -170.75 C 30.96875 -175.359375 34.8125 -179.203125 39.421875 -179.203125 L 102.90625 -179.203125 C 110.078125 -179.203125 115.71875 -184.828125 115.71875 -192 C 115.71875 -199.171875 110.078125 -204.796875 102.90625 -204.796875 L 69.625 -204.796875 C 68.859375 -209.65625 64.515625 -213.5 59.390625 -213.5 C 54.265625 -213.5 49.921875 -209.65625 49.15625 -204.796875 L 23.296875 -204.796875 C 13.0625 -204.796875 5.375 -195.84375 5.375 -183.8125 Z M 5.375 -120.3125 "
           id="path959" />
      </symbol>
      <symbol
         overflow="visible"
         id="glyph0-43">
        <path
           style="stroke:none;"
           d="M 3.078125 -186.375 C 3.078125 -182.53125 6.40625 -179.203125 10.234375 -179.203125 L 20.984375 -179.203125 C 24.828125 -179.203125 28.15625 -175.875 28.15625 -172.03125 L 28.15625 -95.75 C 28.15625 -92.671875 23.546875 -89.59375 18.9375 -89.59375 C 14.59375 -89.59375 10.234375 -86.53125 10.234375 -83.453125 L 10.234375 -12.796875 C 10.234375 -5.625 15.875 0 23.046875 0 L 88.0625 0 C 92.671875 0 96.25 -3.578125 96.25 -8.1875 L 96.25 -78.59375 C 96.25 -84.984375 91.140625 -89.59375 83.96875 -89.59375 L 63.234375 -89.59375 C 58.109375 -89.59375 54.015625 -93.703125 54.015625 -98.8125 L 53.5 -195.578125 C 53.5 -200.703125 49.40625 -204.796875 44.28125 -204.796875 L 14.59375 -204.796875 C 7.9375 -204.796875 3.078125 -200.453125 3.078125 -194.5625 Z M 3.078125 -186.375 "
           id="path962" />
      </symbol>
      <symbol
         overflow="visible"
         id="glyph0-44">
        <path
           style="stroke:none;"
           d="M 5.375 -192 C 5.375 -184.828125 11.015625 -179.203125 18.171875 -179.203125 L 68.859375 -179.203125 C 73.984375 -179.203125 78.078125 -175.109375 78.078125 -169.984375 L 78.078125 -126.203125 C 78.078125 -121.59375 74.234375 -117.765625 69.625 -117.765625 L 21.25 -117.765625 C 14.34375 -117.765625 8.453125 -112.125 8.453125 -104.953125 L 8.453125 -12.796875 C 8.453125 -5.375 13.828125 0 21.25 0 L 95.75 0 C 102.90625 0 108.796875 -5.890625 108.796875 -13.0625 C 108.796875 -20.21875 102.90625 -26.109375 95.75 -26.109375 L 45.5625 -26.109375 C 40.953125 -26.109375 37.125 -29.953125 37.125 -34.5625 L 37.125 -83.71875 C 37.125 -88.3125 40.953125 -92.15625 45.5625 -92.15625 L 92.921875 -92.15625 C 100.09375 -92.15625 105.734375 -97.796875 105.734375 -104.953125 L 105.734375 -192 C 105.734375 -199.171875 100.09375 -204.796875 92.921875 -204.796875 L 18.171875 -204.796875 C 11.015625 -204.796875 5.375 -199.171875 5.375 -192 Z M 5.375 -192 "
           id="path965" />
      </symbol>
      <symbol
         overflow="visible"
         id="glyph0-45">
        <path
           style="stroke:none;"
           d="M 5.375 -192 C 5.375 -184.828125 11.015625 -179.203125 18.171875 -179.203125 L 61.1875 -179.203125 C 66.296875 -179.203125 70.40625 -175.109375 70.40625 -169.984375 L 70.40625 -126.203125 C 70.40625 -121.59375 66.5625 -117.765625 61.953125 -117.765625 L 21.765625 -117.765625 C 14.84375 -117.765625 8.953125 -112.125 8.953125 -104.953125 C 8.953125 -97.53125 14.34375 -92.15625 21.765625 -92.15625 L 61.953125 -92.15625 C 66.5625 -92.15625 70.40625 -88.3125 70.40625 -83.71875 L 70.40625 -34.046875 C 70.40625 -29.4375 66.5625 -25.59375 61.953125 -25.59375 L 21.765625 -25.59375 C 14.34375 -25.59375 8.953125 -20.21875 8.953125 -12.796875 C 8.953125 -5.375 14.34375 0 21.765625 0 L 106.234375 0 C 113.15625 0 118.78125 -5.625 119.046875 -12.796875 L 119.046875 -79.359375 C 119.046875 -86.53125 113.40625 -92.15625 106.234375 -92.15625 C 101.625 -92.15625 98.046875 -95.75 98.046875 -100.359375 L 98.046875 -192 C 98.046875 -199.171875 92.421875 -204.796875 85.25 -204.796875 L 18.171875 -204.796875 C 11.015625 -204.796875 5.375 -199.171875 5.375 -192 Z M 5.375 -192 "
           id="path968" />
      </symbol>
      <symbol
         overflow="visible"
         id="glyph0-46">
        <path
           style="stroke:none;"
           d="M 82.6875 -50.4375 C 87.296875 -50.4375 91.140625 -46.59375 91.140625 -41.984375 L 91.140625 -12.796875 C 91.140625 -5.625 96.765625 0 103.9375 0 L 129.53125 0 C 136.703125 0 142.34375 -5.625 142.34375 -12.796875 L 142.34375 -87.546875 C 142.34375 -92.421875 138.75 -96 133.890625 -96 L 99.578125 -96 C 94.71875 -96 91.140625 -92.15625 91.140625 -87.546875 C 91.140625 -78.34375 87.296875 -75.015625 82.4375 -75.015625 L 64 -75.015625 C 59.140625 -75.015625 55.296875 -78.84375 55.296875 -83.71875 L 55.296875 -196.359375 C 55.296875 -200.953125 51.453125 -204.796875 46.84375 -204.796875 L 14.59375 -204.796875 C 9.984375 -204.796875 6.140625 -200.953125 6.140625 -196.359375 L 6.140625 -58.875 C 6.140625 -54.015625 9.734375 -50.4375 14.59375 -50.4375 Z M 82.6875 -50.4375 "
           id="path971" />
      </symbol>
      <symbol
         overflow="visible"
         id="glyph0-47">
        <path
           style="stroke:none;"
           d="M 123.140625 -192 C 123.140625 -199.171875 117.5 -204.796875 110.34375 -204.796875 L 22.015625 -204.796875 C 14.84375 -204.796875 9.21875 -199.171875 9.21875 -192 L 9.21875 -104.953125 C 9.21875 -97.796875 14.84375 -92.15625 22.015625 -92.15625 L 84.984375 -92.15625 C 89.59375 -92.15625 93.4375 -88.3125 93.4375 -83.71875 L 93.4375 -34.5625 C 93.4375 -29.953125 89.59375 -26.109375 84.984375 -26.109375 L 18.4375 -26.109375 C 11.265625 -26.109375 5.375 -20.21875 5.375 -13.0625 C 5.375 -5.890625 11.265625 0 18.4375 0 L 107.265625 0 C 114.6875 0 120.0625 -5.375 120.0625 -12.796875 L 120.0625 -104.953125 C 120.0625 -112.125 114.171875 -117.765625 107.265625 -117.765625 L 45.3125 -117.765625 C 40.703125 -117.765625 36.859375 -121.59375 36.859375 -126.203125 L 36.859375 -169.984375 C 36.859375 -175.109375 40.953125 -179.203125 46.078125 -179.203125 L 110.34375 -179.203125 C 117.5 -179.203125 123.140625 -184.828125 123.140625 -192 Z M 123.140625 -192 "
           id="path974" />
      </symbol>
      <symbol
         overflow="visible"
         id="glyph0-48">
        <path
           style="stroke:none;"
           d="M 6.40625 -13.0625 C 6.40625 -6.140625 12.28125 -0.25 19.203125 -0.25 L 129.53125 0 C 136.953125 0 142.34375 -5.375 142.34375 -12.796875 L 142.34375 -84.734375 C 142.34375 -91.90625 136.453125 -97.53125 129.53125 -97.53125 L 42.75 -97.53125 C 38.140625 -97.53125 34.296875 -101.375 34.296875 -105.984375 L 34.296875 -169.984375 C 34.296875 -175.109375 38.40625 -179.203125 43.515625 -179.203125 L 63.484375 -179.203125 C 68.09375 -179.203125 71.9375 -175.359375 71.9375 -170.75 L 71.9375 -156.421875 C 71.9375 -147.71875 77.5625 -141.0625 84.734375 -141.0625 C 91.90625 -141.0625 97.53125 -147.71875 97.53125 -156.421875 L 97.53125 -192 C 97.53125 -199.171875 91.90625 -204.796875 84.734375 -204.796875 L 18.9375 -204.796875 C 11.78125 -204.796875 6.140625 -199.171875 6.140625 -192 Z M 34.296875 -62.46875 C 34.296875 -67.078125 38.140625 -70.90625 42.75 -70.90625 L 107.265625 -70.90625 C 111.875 -70.90625 115.71875 -67.078125 115.71875 -62.46875 L 115.71875 -34.5625 C 115.71875 -29.953125 111.875 -26.109375 107.265625 -26.109375 L 42.75 -26.109375 C 38.140625 -26.109375 34.296875 -29.953125 34.296875 -34.5625 Z M 34.296875 -62.46875 "
           id="path977" />
      </symbol>
      <symbol
         overflow="visible"
         id="glyph0-49">
        <path
           style="stroke:none;"
           d="M 5.375 -143.359375 C 5.375 -136.1875 11.015625 -130.5625 18.171875 -130.5625 C 25.34375 -130.5625 30.96875 -136.1875 30.96875 -143.359375 L 31.234375 -170.75 C 31.234375 -175.359375 35.078125 -179.203125 39.6875 -179.203125 L 81.40625 -179.203125 C 86.015625 -179.203125 89.859375 -175.359375 89.859375 -170.75 L 89.859375 -138.75 C 89.859375 -133.125 86.015625 -127.484375 81.15625 -123.90625 L 63.75 -112.390625 C 52.484375 -104.703125 48.390625 -95.234375 48.390625 -83.71875 L 48.390625 -11.78125 C 48.390625 -4.609375 54.015625 1.03125 61.1875 1.03125 C 68.359375 1.03125 73.984375 -4.609375 73.984375 -11.78125 L 73.984375 -79.609375 C 73.984375 -83.453125 74.5 -87.546875 79.109375 -90.875 L 103.6875 -107.515625 C 113.15625 -113.65625 115.96875 -119.8125 115.96875 -133.125 L 115.96875 -192 C 115.96875 -199.171875 110.34375 -204.796875 103.171875 -204.796875 L 18.171875 -204.796875 C 11.015625 -204.796875 5.375 -199.171875 5.375 -192 Z M 5.375 -143.359375 "
           id="path980" />
      </symbol>
      <symbol
         overflow="visible"
         id="glyph0-50">
        <path
           style="stroke:none;"
           d="M 5.375 -19.203125 C 5.375 -8.703125 12.03125 0 19.71875 0 L 143.359375 0 C 153.859375 0 162.5625 -8.703125 162.5625 -19.203125 L 162.5625 -97.53125 C 162.5625 -105.984375 158.203125 -111.109375 152.3125 -112.890625 C 146.6875 -114.6875 142.078125 -117.5 142.078125 -123.140625 L 142.078125 -192 C 142.078125 -198.90625 136.1875 -204.796875 129.28125 -204.796875 L 35.078125 -204.796875 C 29.4375 -204.796875 24.828125 -200.1875 24.828125 -194.5625 L 24.828125 -123.140625 C 24.828125 -117.765625 19.453125 -114.171875 15.609375 -112.890625 C 9.734375 -111.109375 5.375 -105.984375 5.375 -97.53125 Z M 53.5 -169.984375 C 53.5 -175.109375 57.59375 -179.203125 62.71875 -179.203125 L 104.953125 -179.203125 C 109.5625 -179.203125 113.40625 -175.359375 113.40625 -170.75 L 113.40625 -125.1875 C 113.40625 -120.0625 109.3125 -115.96875 104.1875 -115.96875 L 62.71875 -115.96875 C 57.59375 -115.96875 53.5 -120.0625 53.5 -125.1875 Z M 53.5 -80.125 C 53.5 -85.25 57.59375 -89.34375 62.71875 -89.34375 L 104.953125 -89.34375 C 109.5625 -89.34375 113.40625 -85.5 113.40625 -80.890625 L 113.40625 -36.09375 C 113.40625 -30.96875 109.3125 -26.875 104.1875 -26.875 L 62.71875 -26.875 C 57.59375 -26.875 53.5 -30.96875 53.5 -36.09375 Z M 53.5 -80.125 "
           id="path983" />
      </symbol>
      <symbol
         overflow="visible"
         id="glyph0-51">
        <path
           style="stroke:none;"
           d="M 5.375 -103.171875 C 5.375 -96 11.015625 -90.375 18.171875 -90.375 L 83.71875 -90.375 C 89.59375 -90.375 94.46875 -85.5 94.46875 -79.609375 L 94.46875 -19.203125 C 94.46875 -8.703125 101.125 0 108.796875 0 L 124.421875 0 C 134.90625 0 143.609375 -8.703125 143.609375 -19.203125 L 143.609375 -185.59375 C 143.609375 -196.09375 134.90625 -204.796875 124.421875 -204.796875 L 15.609375 -204.796875 C 9.984375 -204.796875 5.375 -200.1875 5.375 -194.5625 Z M 34.5625 -168.453125 C 34.5625 -174.34375 39.421875 -179.203125 45.3125 -179.203125 L 83.71875 -179.203125 C 89.59375 -179.203125 94.46875 -174.34375 94.46875 -168.453125 L 94.46875 -126.71875 C 94.46875 -120.828125 89.59375 -115.96875 83.71875 -115.96875 L 45.3125 -115.96875 C 39.421875 -115.96875 34.5625 -120.828125 34.5625 -126.71875 Z M 34.5625 -168.453125 "
           id="path986" />
      </symbol>
      <symbol
         overflow="visible"
         id="glyph0-52">
        <path
           style="stroke:none;"
           d="M 147.96875 0 C 157.4375 0 164.859375 -7.421875 164.859375 -16.890625 L 164.859375 -192 C 164.859375 -199.171875 159.234375 -204.796875 152.0625 -204.796875 L 18.9375 -204.796875 C 11.78125 -204.796875 6.140625 -199.171875 6.140625 -192 L 6.140625 -16.890625 C 6.140625 -7.171875 13.3125 0 23.046875 0 Z M 33.796875 -168.453125 C 33.796875 -173.3125 37.625 -177.15625 42.5 -177.15625 L 128.515625 -177.15625 C 133.375 -177.15625 137.21875 -173.3125 137.21875 -168.453125 L 137.21875 -35.328125 C 137.21875 -30.46875 133.375 -26.625 128.515625 -26.625 L 42.5 -26.625 C 37.625 -26.625 33.796875 -30.46875 33.796875 -35.328125 Z M 33.796875 -168.453125 "
           id="path989" />
      </symbol>
      <symbol
         overflow="visible"
         id="glyph0-53">
        <path
           style="stroke:none;"
           d="M 6.140625 -19.203125 C 6.140625 -7.9375 14.078125 0 25.34375 0 L 58.875 0 C 58.875 13.5625 61.1875 19.203125 68.859375 19.203125 C 76.546875 19.203125 78.84375 13.5625 78.84375 0 L 100.859375 0 C 107.265625 0 112.640625 -5.375 112.640625 -11.78125 C 112.640625 -18.171875 107.265625 -23.546875 100.859375 -23.546875 L 37.890625 -23.546875 C 33.03125 -23.546875 29.1875 -27.390625 29.1875 -32.25 L 29.1875 -131.578125 C 29.1875 -136.453125 33.03125 -140.28125 37.890625 -140.28125 L 112.640625 -140.28125 C 123.640625 -140.28125 132.09375 -148.734375 132.09375 -159.75 L 132.09375 -174.078125 C 132.09375 -185.34375 123.640625 -193.53125 112.640625 -193.53125 L 78.84375 -193.53125 C 76.546875 -201.984375 73.46875 -205.828125 68.859375 -205.828125 C 64.25 -205.828125 61.1875 -201.984375 58.875 -193.53125 L 25.59375 -193.53125 C 14.34375 -193.53125 6.140625 -185.09375 6.140625 -174.078125 Z M 6.140625 -19.203125 "
           id="path992" />
      </symbol>
    </g>
  </defs>
  <rect
     x="-1.5258789e-05"
     y="0"
     width="1603.0625"
     height="1921.2656"
     style="fill:#333333;fill-opacity:1;stroke:none"
     id="rect999" />
  <g
     style="fill:#dcdcee;fill-opacity:1"
     id="g1023"
     transform="translate(6.6484222)">
    <use
       xlink:href="#glyph0-1"
       x="16"
       y="279.6875"
       id="use1001"
       width="100%"
       height="100%" />
    <use
       xlink:href="#glyph0-2"
       x="163.20312"
       y="279.6875"
       id="use1003"
       width="100%"
       height="100%" />
    <use
       xlink:href="#glyph0-3"
       x="288.89062"
       y="279.6875"
       id="use1005"
       width="100%"
       height="100%" />
    <use
       xlink:href="#glyph0-4"
       x="499.57812"
       y="279.6875"
       id="use1007"
       width="100%"
       height="100%" />
    <use
       xlink:href="#glyph0-5"
       x="586.625"
       y="279.6875"
       id="use1009"
       width="100%"
       height="100%" />
    <use
       xlink:href="#glyph0-4"
       x="743.29688"
       y="279.6875"
       id="use1011"
       width="100%"
       height="100%" />
    <use
       xlink:href="#glyph0-6"
       x="830.34375"
       y="279.6875"
       id="use1013"
       width="100%"
       height="100%" />
    <use
       xlink:href="#glyph0-7"
       x="988.29688"
       y="279.6875"
       id="use1015"
       width="100%"
       height="100%" />
    <use
       xlink:href="#glyph0-8"
       x="1133.9531"
       y="279.6875"
       id="use1017"
       width="100%"
       height="100%" />
    <use
       xlink:href="#glyph0-9"
       x="1279.875"
       y="279.6875"
       id="use1019"
       width="100%"
       height="100%" />
    <use
       xlink:href="#glyph0-10"
       x="1425.7969"
       y="279.6875"
       id="use1021"
       width="100%"
       height="100%" />
  </g>
  <g
     style="fill:#dcdcee;fill-opacity:1"
     id="g1047"
     transform="translate(8.4374847)">
    <use
       xlink:href="#glyph0-2"
       x="16"
       y="594.5625"
       id="use1025"
       width="100%"
       height="100%" />
    <use
       xlink:href="#glyph0-11"
       x="147.84375"
       y="594.5625"
       id="use1027"
       width="100%"
       height="100%" />
    <use
       xlink:href="#glyph0-1"
       x="269.4375"
       y="594.5625"
       id="use1029"
       width="100%"
       height="100%" />
    <use
       xlink:href="#glyph0-12"
       x="416.64062"
       y="594.5625"
       id="use1031"
       width="100%"
       height="100%" />
    <use
       xlink:href="#glyph0-4"
       x="559.48438"
       y="594.5625"
       id="use1033"
       width="100%"
       height="100%" />
    <use
       xlink:href="#glyph0-13"
       x="646.53125"
       y="594.5625"
       id="use1035"
       width="100%"
       height="100%" />
    <use
       xlink:href="#glyph0-14"
       x="782.21875"
       y="594.5625"
       id="use1037"
       width="100%"
       height="100%" />
    <use
       xlink:href="#glyph0-15"
       x="928.39062"
       y="594.5625"
       id="use1039"
       width="100%"
       height="100%" />
    <use
       xlink:href="#glyph0-3"
       x="1046.1562"
       y="594.5625"
       id="use1041"
       width="100%"
       height="100%" />
    <use
       xlink:href="#glyph0-5"
       x="1256.8438"
       y="594.5625"
       id="use1043"
       width="100%"
       height="100%" />
    <use
       xlink:href="#glyph0-16"
       x="1413.5156"
       y="594.5625"
       id="use1045"
       width="100%"
       height="100%" />
  </g>
  <g
     style="fill:#dcdcee;fill-opacity:1"
     id="g1063"
     transform="translate(291.45311)">
    <use
       xlink:href="#glyph0-17"
       x="16"
       y="909.4375"
       id="use1049"
       width="100%"
       height="100%" />
    <use
       xlink:href="#glyph0-18"
       x="152.45312"
       y="909.4375"
       id="use1051"
       width="100%"
       height="100%" />
    <use
       xlink:href="#glyph0-19"
       x="294.53125"
       y="909.4375"
       id="use1053"
       width="100%"
       height="100%" />
    <use
       xlink:href="#glyph0-20"
       x="456.0625"
       y="909.4375"
       id="use1055"
       width="100%"
       height="100%" />
    <use
       xlink:href="#glyph0-21"
       x="601.98438"
       y="909.4375"
       id="use1057"
       width="100%"
       height="100%" />
    <use
       xlink:href="#glyph0-22"
       x="730.75"
       y="909.4375"
       id="use1059"
       width="100%"
       height="100%" />
    <use
       xlink:href="#glyph0-23"
       x="865.92188"
       y="909.4375"
       id="use1061"
       width="100%"
       height="100%" />
  </g>
  <g
     style="fill:#dcdcee;fill-opacity:1"
     id="g1079"
     transform="translate(186.89061)">
    <use
       xlink:href="#glyph0-24"
       x="16"
       y="1224.3125"
       id="use1065"
       width="100%"
       height="100%" />
    <use
       xlink:href="#glyph0-25"
       x="176.76562"
       y="1224.3125"
       id="use1067"
       width="100%"
       height="100%" />
    <use
       xlink:href="#glyph0-26"
       x="391.03125"
       y="1224.3125"
       id="use1069"
       width="100%"
       height="100%" />
    <use
       xlink:href="#glyph0-27"
       x="605.29688"
       y="1224.3125"
       id="use1071"
       width="100%"
       height="100%" />
    <use
       xlink:href="#glyph0-28"
       x="749.67188"
       y="1224.3125"
       id="use1073"
       width="100%"
       height="100%" />
    <use
       xlink:href="#glyph0-29"
       x="897.125"
       y="1224.3125"
       id="use1075"
       width="100%"
       height="100%" />
    <use
       xlink:href="#glyph0-30"
       x="1042.7812"
       y="1224.3125"
       id="use1077"
       width="100%"
       height="100%" />
  </g>
  <g
     style="fill:#dcdcee;fill-opacity:1"
     id="g1113"
     transform="translate(-0.38282776)">
    <use
       xlink:href="#glyph0-31"
       x="16"
       y="1539.1875"
       id="use1081"
       width="100%"
       height="100%" />
    <use
       xlink:href="#glyph0-32"
       x="99.96875"
       y="1539.1875"
       id="use1083"
       width="100%"
       height="100%" />
    <use
       xlink:href="#glyph0-33"
       x="176.76562"
       y="1539.1875"
       id="use1085"
       width="100%"
       height="100%" />
    <use
       xlink:href="#glyph0-34"
       x="253.5625"
       y="1539.1875"
       id="use1087"
       width="100%"
       height="100%" />
    <use
       xlink:href="#glyph0-35"
       x="330.35938"
       y="1539.1875"
       id="use1089"
       width="100%"
       height="100%" />
    <use
       xlink:href="#glyph0-36"
       x="407.15625"
       y="1539.1875"
       id="use1091"
       width="100%"
       height="100%" />
    <use
       xlink:href="#glyph0-37"
       x="483.95312"
       y="1539.1875"
       id="use1093"
       width="100%"
       height="100%" />
    <use
       xlink:href="#glyph0-38"
       x="560.75"
       y="1539.1875"
       id="use1095"
       width="100%"
       height="100%" />
    <use
       xlink:href="#glyph0-39"
       x="644.71875"
       y="1539.1875"
       id="use1097"
       width="100%"
       height="100%" />
    <use
       xlink:href="#glyph0-40"
       x="766.0625"
       y="1539.1875"
       id="use1099"
       width="100%"
       height="100%" />
    <use
       xlink:href="#glyph0-41"
       x="842.85938"
       y="1539.1875"
       id="use1101"
       width="100%"
       height="100%" />
    <use
       xlink:href="#glyph0-42"
       x="957.54688"
       y="1539.1875"
       id="use1103"
       width="100%"
       height="100%" />
    <use
       xlink:href="#glyph0-43"
       x="1101.4219"
       y="1539.1875"
       id="use1105"
       width="100%"
       height="100%" />
    <use
       xlink:href="#glyph0-44"
       x="1200.75"
       y="1539.1875"
       id="use1107"
       width="100%"
       height="100%" />
    <use
       xlink:href="#glyph0-45"
       x="1314.9219"
       y="1539.1875"
       id="use1109"
       width="100%"
       height="100%" />
    <use
       xlink:href="#glyph0-46"
       x="1439.3438"
       y="1539.1875"
       id="use1111"
       width="100%"
       height="100%" />
  </g>
  <g
     style="fill:#dcdcee;fill-opacity:1"
     id="g1129"
     transform="translate(296.31248)">
    <use
       xlink:href="#glyph0-47"
       x="16"
       y="1854.0625"
       id="use1115"
       width="100%"
       height="100%" />
    <use
       xlink:href="#glyph0-48"
       x="142.20312"
       y="1854.0625"
       id="use1117"
       width="100%"
       height="100%" />
    <use
       xlink:href="#glyph0-49"
       x="256.125"
       y="1854.0625"
       id="use1119"
       width="100%"
       height="100%" />
    <use
       xlink:href="#glyph0-50"
       x="368.25"
       y="1854.0625"
       id="use1121"
       width="100%"
       height="100%" />
    <use
       xlink:href="#glyph0-51"
       x="536.1875"
       y="1854.0625"
       id="use1123"
       width="100%"
       height="100%" />
    <use
       xlink:href="#glyph0-52"
       x="685.95312"
       y="1854.0625"
       id="use1125"
       width="100%"
       height="100%" />
    <use
       xlink:href="#glyph0-53"
       x="856.96875"
       y="1854.0625"
       id="use1127"
       width="100%"
       height="100%" />
  </g>
</svg>
