<?xml version="1.0" encoding="UTF-8" standalone="no"?>
<svg
   xmlns:dc="http://purl.org/dc/elements/1.1/"
   xmlns:cc="http://creativecommons.org/ns#"
   xmlns:rdf="http://www.w3.org/1999/02/22-rdf-syntax-ns#"
   xmlns:svg="http://www.w3.org/2000/svg"
   xmlns="http://www.w3.org/2000/svg"
   xmlns:xlink="http://www.w3.org/1999/xlink"
   xmlns:sodipodi="http://sodipodi.sourceforge.net/DTD/sodipodi-0.dtd"
   xmlns:inkscape="http://www.inkscape.org/namespaces/inkscape"
   width="131.47641mm"
   height="39.632206mm"
   viewBox="0 0 131.47641 39.632206"
   version="1.1"
   id="svg6932"
   inkscape:version="1.0.2 (e86c8708, 2021-01-15)"
   sodipodi:docname="neu-sample.svg">
  <defs
     id="defs6926">
    <g
       id="g7720">
      <symbol
         overflow="visible"
         id="glyph0-0">
        <path
           style="stroke:none"
           d="m 0.5,1.390625 h 3.359375 v -6.46875 H 0.5 Z M 1.125,0.875 V -4.5625 H 3.234375 V 0.875 Z m 0,0"
           id="path7513" />
      </symbol>
      <symbol
         overflow="visible"
         id="glyph0-1">
        <path
           style="stroke:none"
           d="m 1.984375,0.109375 c 0.453125,0 0.734375,-0.203125 0.78125,-0.25 L 2.53125,-0.546875 c -0.046875,0.03125 -0.234375,0.125 -0.5,0.125 -0.21875,0 -0.375,-0.078125 -0.484375,-0.1875 -0.15625,-0.15625 -0.1875,-0.421875 -0.1875,-0.71875 v -1.6875 H 2.53125 V -3.53125 H 1.359375 V -4.6875 H 0.75 v 1.15625 H 0.046875 v 0.515625 H 0.75 v 1.734375 c 0,0.390625 0.0625,0.75 0.34375,1.046875 C 1.328125,0 1.625,0.109375 1.984375,0.109375 Z m 0,0"
           id="path7516" />
      </symbol>
      <symbol
         overflow="visible"
         id="glyph0-2">
        <path
           style="stroke:none"
           d="m 0.5,0 h 0.59375 v -1.6875 c 0,-0.484375 0.0625,-0.78125 0.234375,-1.015625 C 1.5,-2.96875 1.8125,-3.109375 2.125,-3.109375 c 0.265625,0 0.53125,0.09375 0.6875,0.3125 C 2.96875,-2.5625 2.984375,-2.265625 2.984375,-2 v 2 h 0.59375 v -2.03125 c 0,-0.59375 -0.0625,-0.828125 -0.25,-1.09375 -0.234375,-0.3125 -0.625,-0.515625 -1.109375,-0.515625 -0.78125,0 -1.078125,0.546875 -1.109375,0.609375 H 1.09375 V -5.1875 H 0.5 Z m 0,0"
           id="path7519" />
      </symbol>
      <symbol
         overflow="visible"
         id="glyph0-3">
        <path
           style="stroke:none"
           d="M 2.109375,0.109375 C 3.0625,0.109375 3.53125,-0.546875 3.5625,-0.625 L 3.15625,-0.9375 C 3.125,-0.875 2.8125,-0.421875 2.109375,-0.421875 1.328125,-0.421875 0.875,-1.015625 0.875,-1.5625 h 2.921875 v -0.234375 c 0,-1.046875 -0.703125,-1.84375 -1.734375,-1.84375 -1.0625,0 -1.8125,0.84375 -1.8125,1.875 0,1.03125 0.71875,1.875 1.859375,1.875 z m -1.21875,-2.1875 c 0,-0.34375 0.328125,-1.046875 1.1875,-1.046875 0.703125,0 1.109375,0.5625 1.109375,1.046875 z m 0,0"
           id="path7522" />
      </symbol>
      <symbol
         overflow="visible"
         id="glyph0-4">
        <path
           style="stroke:none"
           d="m 0.75,0 h 0.609375 v -3.015625 h 1.1875 V -3.53125 h -1.1875 v -0.3125 c 0,-0.34375 0.03125,-0.578125 0.203125,-0.734375 0.125,-0.140625 0.3125,-0.1875 0.515625,-0.1875 0.1875,0 0.390625,0.0625 0.515625,0.140625 l 0.25,-0.421875 C 2.765625,-5.109375 2.484375,-5.28125 2.015625,-5.28125 c -0.34375,0 -0.671875,0.09375 -0.90625,0.328125 C 0.8125,-4.65625 0.75,-4.296875 0.75,-3.890625 V -3.53125 H 0.046875 v 0.515625 H 0.75 Z m 0,0"
           id="path7525" />
      </symbol>
      <symbol
         overflow="visible"
         id="glyph0-5">
        <path
           style="stroke:none"
           d="m 2.125,0.109375 c 1.109375,0 1.890625,-0.84375 1.890625,-1.875 0,-1.03125 -0.78125,-1.875 -1.890625,-1.875 -1.09375,0 -1.875,0.84375 -1.875,1.875 0,1.03125 0.78125,1.875 1.875,1.875 z m 0,-0.53125 c -0.75,0 -1.265625,-0.59375 -1.265625,-1.34375 0,-0.734375 0.515625,-1.34375 1.265625,-1.34375 0.75,0 1.28125,0.609375 1.28125,1.34375 0,0.75 -0.53125,1.34375 -1.28125,1.34375 z m 0,0"
           id="path7528" />
      </symbol>
      <symbol
         overflow="visible"
         id="glyph0-6">
        <path
           style="stroke:none"
           d="M 2.015625,0.109375 C 2.734375,0.109375 3.3125,-0.34375 3.5,-1 3.546875,-1.140625 3.5625,-1.359375 3.5625,-1.5 V -3.53125 H 2.96875 v 2.046875 c 0,0.125 -0.03125,0.265625 -0.0625,0.359375 -0.09375,0.453125 -0.46875,0.6875 -0.890625,0.6875 -0.421875,0 -0.78125,-0.25 -0.90625,-0.6875 C 1.09375,-1.21875 1.078125,-1.359375 1.078125,-1.484375 V -3.53125 H 0.46875 V -1.5 c 0,0.140625 0.015625,0.359375 0.0625,0.5 0.1875,0.65625 0.765625,1.109375 1.484375,1.109375 z m 0,0"
           id="path7531" />
      </symbol>
      <symbol
         overflow="visible"
         id="glyph0-7">
        <path
           style="stroke:none"
           d="m 0.5,0 h 0.59375 v -1.6875 c 0,-0.484375 0.0625,-0.78125 0.234375,-1.015625 C 1.5,-2.96875 1.8125,-3.109375 2.125,-3.109375 c 0.265625,0 0.53125,0.09375 0.6875,0.3125 C 2.96875,-2.5625 2.984375,-2.265625 2.984375,-2 v 2 h 0.59375 v -2.03125 c 0,-0.59375 -0.0625,-0.828125 -0.25,-1.09375 -0.234375,-0.3125 -0.625,-0.515625 -1.109375,-0.515625 -0.78125,0 -1.09375,0.546875 -1.125,0.609375 l -0.015625,-0.5 H 0.5 Z m 0,0"
           id="path7534" />
      </symbol>
      <symbol
         overflow="visible"
         id="glyph0-8">
        <path
           style="stroke:none"
           d="m 2.046875,0.109375 c 0.546875,0 1.046875,-0.25 1.34375,-0.625 V -0.5 L 3.421875,0 h 0.5625 v -5.1875 h -0.59375 v 2.15625 C 3.09375,-3.40625 2.59375,-3.640625 2.046875,-3.640625 1,-3.640625 0.25,-2.796875 0.25,-1.765625 c 0,1.03125 0.75,1.875 1.796875,1.875 z M 2.125,-0.421875 c -0.75,0 -1.265625,-0.59375 -1.265625,-1.34375 0,-0.734375 0.515625,-1.34375 1.265625,-1.34375 0.78125,0 1.28125,0.609375 1.28125,1.34375 0,0.75 -0.5,1.34375 -1.28125,1.34375 z m 0,0"
           id="path7537" />
      </symbol>
      <symbol
         overflow="visible"
         id="glyph0-9">
        <path
           style="stroke:none"
           d="m 0.5,0 h 0.59375 v -1.53125 c 0,-0.453125 0.03125,-0.875 0.328125,-1.171875 0.265625,-0.265625 0.609375,-0.328125 0.9375,-0.3125 V -3.625 c -0.5,0 -1,0.25 -1.25,0.671875 L 1.078125,-3.53125 H 0.5 Z m 0,0"
           id="path7540" />
      </symbol>
      <symbol
         overflow="visible"
         id="glyph0-10">
        <path
           style="stroke:none"
           d="M 0.96875,1.484375 H 1.5625 L 3.59375,-3.53125 h -0.625 L 1.875,-0.6875 0.734375,-3.53125 H 0.078125 L 1.578125,0 Z m 0,0"
           id="path7543" />
      </symbol>
      <symbol
         overflow="visible"
         id="glyph0-11">
        <path
           style="stroke:none"
           d="m 0.5,1.484375 h 0.59375 v -2 h 0.015625 c 0.28125,0.375 0.78125,0.625 1.34375,0.625 1.046875,0 1.78125,-0.84375 1.78125,-1.875 0,-1.03125 -0.734375,-1.875 -1.78125,-1.875 -0.5625,0 -1.046875,0.234375 -1.34375,0.609375 H 1.09375 v -0.5 H 0.5 Z m 1.859375,-1.90625 c -0.765625,0 -1.265625,-0.59375 -1.265625,-1.34375 0,-0.734375 0.5,-1.34375 1.265625,-1.34375 0.75,0 1.28125,0.609375 1.28125,1.34375 0,0.75 -0.53125,1.34375 -1.28125,1.34375 z m 0,0"
           id="path7546" />
      </symbol>
      <symbol
         overflow="visible"
         id="glyph0-12">
        <path
           style="stroke:none"
           d="m 1.6875,0.109375 c 0.875,0 1.453125,-0.515625 1.453125,-1.140625 0,-1.375 -2.234375,-0.78125 -2.234375,-1.5625 0,-0.359375 0.3125,-0.53125 0.796875,-0.53125 0.65625,0 0.953125,0.421875 1.015625,0.484375 l 0.375,-0.328125 c -0.0625,-0.09375 -0.4375,-0.671875 -1.390625,-0.671875 -0.890625,0 -1.375,0.546875 -1.375,1.046875 0,1.375 2.234375,0.78125 2.234375,1.59375 0,0.390625 -0.34375,0.59375 -0.875,0.59375 -0.65625,0 -1,-0.421875 -1.078125,-0.53125 l -0.40625,0.34375 C 0.265625,-0.5 0.6875,0.109375 1.6875,0.109375 Z m 0,0"
           id="path7549" />
      </symbol>
      <symbol
         overflow="visible"
         id="glyph0-13">
        <path
           style="stroke:none"
           d="m 0.859375,0.0625 c 0.25,0 0.453125,-0.203125 0.453125,-0.46875 0,-0.25 -0.203125,-0.46875 -0.453125,-0.46875 -0.25,0 -0.46875,0.21875 -0.46875,0.46875 0,0.265625 0.21875,0.46875 0.46875,0.46875 z m 0,0"
           id="path7552" />
      </symbol>
      <symbol
         overflow="visible"
         id="glyph0-14">
        <path
           style="stroke:none"
           d="m 2.125,0.109375 c 0.984375,0 1.453125,-0.671875 1.5,-0.734375 L 3.21875,-0.9375 c -0.046875,0.046875 -0.359375,0.515625 -1.09375,0.515625 -0.75,0 -1.265625,-0.609375 -1.265625,-1.34375 0,-0.75 0.53125,-1.34375 1.265625,-1.34375 0.734375,0 1.03125,0.484375 1.0625,0.53125 l 0.4375,-0.3125 c -0.0625,-0.109375 -0.515625,-0.75 -1.5,-0.75 -1.09375,0 -1.875,0.84375 -1.875,1.875 0,1.03125 0.78125,1.875 1.875,1.875 z m 0,0"
           id="path7555" />
      </symbol>
      <symbol
         overflow="visible"
         id="glyph0-15">
        <path
           style="stroke:none"
           d="m 0.5,0 h 0.59375 v -1.796875 c 0,-0.453125 0.046875,-0.71875 0.203125,-0.953125 0.171875,-0.234375 0.453125,-0.359375 0.75,-0.359375 0.234375,0 0.46875,0.078125 0.609375,0.28125 0.15625,0.21875 0.171875,0.53125 0.171875,0.8125 V 0 h 0.59375 V -1.796875 C 3.421875,-2.25 3.46875,-2.515625 3.625,-2.75 c 0.171875,-0.234375 0.453125,-0.359375 0.75,-0.359375 0.234375,0 0.46875,0.078125 0.609375,0.28125 0.15625,0.21875 0.171875,0.53125 0.171875,0.8125 V 0 H 5.75 V -2.171875 C 5.75,-2.65625 5.671875,-2.90625 5.484375,-3.15625 5.265625,-3.453125 4.90625,-3.640625 4.4375,-3.640625 c -0.75,0 -1.109375,0.53125 -1.15625,0.625 -0.046875,-0.0625 -0.3125,-0.625 -1.140625,-0.625 C 1.5,-3.640625 1.1875,-3.21875 1.09375,-3.03125 l -0.015625,-0.5 H 0.5 Z m 0,0"
           id="path7558" />
      </symbol>
      <symbol
         overflow="visible"
         id="glyph0-16">
        <path
           style="stroke:none"
           d=""
           id="path7561" />
      </symbol>
      <symbol
         overflow="visible"
         id="glyph0-17">
        <path
           style="stroke:none"
           d="m 2.875,0.109375 c 1.0625,0 1.71875,-0.625 1.890625,-0.84375 l -0.421875,-0.375 c -0.328125,0.40625 -0.859375,0.65625 -1.46875,0.65625 -1.125,0 -1.9375,-0.890625 -1.9375,-2.015625 0,-1.125 0.796875,-2.015625 1.9375,-2.015625 0.625,0 1.140625,0.265625 1.484375,0.671875 L 4.78125,-4.1875 C 4.609375,-4.421875 3.953125,-5.03125 2.875,-5.03125 c -1.5,0 -2.578125,1.140625 -2.578125,2.5625 0,1.421875 1.078125,2.578125 2.578125,2.578125 z m 0,0"
           id="path7564" />
      </symbol>
      <symbol
         overflow="visible"
         id="glyph0-18">
        <path
           style="stroke:none"
           d="m 0.796875,-4.328125 c 0.234375,0 0.421875,-0.1875 0.421875,-0.421875 0,-0.25 -0.1875,-0.4375 -0.421875,-0.4375 -0.25,0 -0.4375,0.1875 -0.4375,0.4375 0,0.234375 0.1875,0.421875 0.4375,0.421875 z M 0.5,0 H 1.09375 V -3.53125 H 0.5 Z m 0,0"
           id="path7567" />
      </symbol>
      <symbol
         overflow="visible"
         id="glyph0-19">
        <path
           style="stroke:none"
           d="M 2.109375,1.59375 C 2.75,1.59375 3.21875,1.359375 3.546875,1.046875 3.9375,0.671875 4,0.25 4,-0.390625 V -3.53125 H 3.421875 l -0.015625,0.5 H 3.390625 C 3.09375,-3.40625 2.609375,-3.640625 2.046875,-3.640625 1,-3.640625 0.25,-2.828125 0.25,-1.8125 0.25,-0.8125 1,0 2.046875,0 2.625,0 3.109375,-0.234375 3.40625,-0.609375 v 0.265625 c 0,0.375 -0.03125,0.765625 -0.328125,1.0625 C 2.890625,0.90625 2.5625,1.0625 2.109375,1.0625 1.390625,1.0625 1.03125,0.609375 0.875,0.40625 L 0.453125,0.765625 c 0.046875,0.0625 0.5,0.828125 1.65625,0.828125 z m 0.03125,-2.109375 c -0.75,0 -1.28125,-0.578125 -1.28125,-1.296875 0,-0.734375 0.53125,-1.3125 1.28125,-1.3125 0.78125,0 1.28125,0.578125 1.28125,1.3125 0,0.71875 -0.5,1.296875 -1.28125,1.296875 z m 0,0"
           id="path7570" />
      </symbol>
      <symbol
         overflow="visible"
         id="glyph0-20">
        <path
           style="stroke:none"
           d="m 3.015625,0.109375 c 1.421875,0 2.578125,-1.140625 2.578125,-2.5625 0,-1.421875 -1.15625,-2.578125 -2.578125,-2.578125 -1.421875,0 -2.5625,1.15625 -2.5625,2.578125 0,1.421875 1.140625,2.5625 2.5625,2.5625 z m 0,-0.453125 c -1.15625,0 -2.078125,-0.953125 -2.078125,-2.109375 0,-1.171875 0.921875,-2.125 2.078125,-2.125 1.15625,0 2.09375,0.953125 2.09375,2.125 0,1.15625 -0.9375,2.109375 -2.09375,2.109375 z M 3.0625,-0.953125 c 0.765625,0 1.125,-0.5 1.15625,-0.578125 L 3.859375,-1.8125 c -0.03125,0.046875 -0.28125,0.375 -0.796875,0.375 -0.53125,0 -0.953125,-0.4375 -0.953125,-1.03125 0,-0.59375 0.421875,-1 0.953125,-1.015625 0.515625,0 0.765625,0.359375 0.78125,0.390625 L 4.21875,-3.375 C 4.1875,-3.453125 3.828125,-3.953125 3.0625,-3.953125 c -0.84375,0 -1.484375,0.640625 -1.484375,1.5 0,0.84375 0.640625,1.5 1.484375,1.5 z m 0,0"
           id="path7573" />
      </symbol>
      <symbol
         overflow="visible"
         id="glyph0-21">
        <path
           style="stroke:none"
           d="m 1.734375,0 h 0.625 v -4.375 h 1.65625 v -0.546875 h -3.9375 V -4.375 h 1.65625 z m 0,0"
           id="path7576" />
      </symbol>
      <symbol
         overflow="visible"
         id="glyph0-22">
        <path
           style="stroke:none"
           d="m 0.59375,0 h 0.625 V -2.15625 H 3.5 V -2.6875 H 1.21875 V -4.375 H 3.75 V -4.921875 H 0.59375 Z m 0,0"
           id="path7579" />
      </symbol>
      <symbol
         overflow="visible"
         id="glyph0-23">
        <path
           style="stroke:none"
           d="m 0.578125,0 h 3.25 V -0.546875 H 1.40625 c 0.484375,-0.390625 0.875,-0.734375 1.203125,-1.0625 0.8125,-0.84375 1.125,-1.375 1.125,-1.96875 0,-0.96875 -0.75,-1.453125 -1.609375,-1.453125 -1.03125,0 -1.546875,0.75 -1.65625,1.03125 l 0.46875,0.265625 c 0.21875,-0.4375 0.625,-0.78125 1.1875,-0.78125 0.5625,0 1,0.34375 1,0.90625 0,1.140625 -1.96875,2.59375 -2.546875,3.09375 z m 0,0"
           id="path7582" />
      </symbol>
      <symbol
         overflow="visible"
         id="glyph0-24">
        <path
           style="stroke:none"
           d="m 2.15625,0.109375 c 1.1875,0 1.828125,-1.046875 1.828125,-2.578125 0,-1.53125 -0.625,-2.5625 -1.828125,-2.5625 -1.1875,0 -1.828125,1.03125 -1.828125,2.5625 0,1.53125 0.625,2.578125 1.828125,2.578125 z m 0,-0.53125 c -1.03125,0 -1.203125,-1.21875 -1.203125,-2.046875 0,-0.8125 0.171875,-2.046875 1.203125,-2.046875 1.046875,0 1.21875,1.234375 1.21875,2.046875 0,0.828125 -0.171875,2.046875 -1.21875,2.046875 z m 0,0"
           id="path7585" />
      </symbol>
      <symbol
         overflow="visible"
         id="glyph0-25">
        <path
           style="stroke:none"
           d="m 2.265625,0.109375 c 1.171875,0 1.9375,-0.671875 1.9375,-1.515625 0,-1.953125 -3.09375,-0.90625 -3.09375,-2.234375 0,-0.53125 0.484375,-0.859375 1.1875,-0.859375 0.9375,0 1.3125,0.5625 1.390625,0.65625 L 4.125,-4.203125 C 4.046875,-4.3125 3.5625,-5.03125 2.296875,-5.03125 c -1.171875,0 -1.828125,0.71875 -1.828125,1.390625 0,1.953125 3.09375,0.921875 3.109375,2.234375 0.015625,0.671875 -0.546875,0.953125 -1.3125,0.953125 -0.984375,0 -1.390625,-0.59375 -1.484375,-0.703125 l -0.4375,0.375 c 0.0625,0.109375 0.578125,0.890625 1.921875,0.890625 z m 0,0"
           id="path7588" />
      </symbol>
      <symbol
         overflow="visible"
         id="glyph0-26">
        <path
           style="stroke:none"
           d="m 0.71875,0 h 3.328125 v -0.546875 h -1.34375 v -4.375 H 2.125 c -0.421875,0.4375 -1.0625,0.8125 -1.578125,0.96875 l 0.21875,0.5 C 1.171875,-3.5625 1.71875,-3.8125 2.09375,-4.171875 v 3.625 h -1.375 z m 0,0"
           id="path7591" />
      </symbol>
      <symbol
         overflow="visible"
         id="glyph0-27">
        <path
           style="stroke:none"
           d="M 0.59375,0 H 1.171875 V -4.25 L 3.75,0 H 4.515625 V -4.921875 H 3.9375 v 4.1875 l -2.53125,-4.1875 h -0.8125 z m 0,0"
           id="path7594" />
      </symbol>
      <symbol
         overflow="visible"
         id="glyph0-28">
        <path
           style="stroke:none"
           d="m 1.203125,0 h 0.78125 l 0.90625,-3.015625 H 2.90625 L 3.796875,0 h 0.78125 l 1.03125,-3.53125 h -0.59375 l -0.828125,3 H 4.171875 l -0.875,-3 H 2.5 l -0.890625,3 -0.828125,-3 H 0.171875 Z m 0,0"
           id="path7597" />
      </symbol>
      <symbol
         overflow="visible"
         id="glyph0-29">
        <path
           style="stroke:none"
           d="m 4.015625,0 h 0.65625 L 2.75,-4.921875 H 1.96875 L 0.046875,0 h 0.65625 L 1.1875,-1.3125 h 2.34375 z m -1.65625,-4.40625 0.96875,2.578125 h -1.9375 z m 0,0"
           id="path7600" />
      </symbol>
      <symbol
         overflow="visible"
         id="glyph0-30">
        <path
           style="stroke:none"
           d="M 0.5,0 H 1.09375 V -5.1875 H 0.5 Z m 0,0"
           id="path7603" />
      </symbol>
      <symbol
         overflow="visible"
         id="glyph0-31">
        <path
           style="stroke:none"
           d="m 1.578125,0.109375 c 0.734375,0 1.0625,-0.390625 1.203125,-0.59375 L 2.796875,0 H 3.375 v -2.140625 c 0,-0.5 -0.109375,-0.765625 -0.28125,-0.984375 C 2.8125,-3.5 2.359375,-3.640625 1.921875,-3.640625 c -0.90625,0 -1.375,0.546875 -1.484375,0.71875 l 0.390625,0.34375 C 1.09375,-2.9375 1.453125,-3.125 1.921875,-3.125 c 0.515625,0 0.875,0.328125 0.875,0.859375 v 0.0625 L 2.15625,-2.171875 C 1.46875,-2.140625 1.234375,-2.09375 0.9375,-1.96875 0.578125,-1.796875 0.328125,-1.484375 0.328125,-1 c 0,0.75 0.59375,1.109375 1.25,1.109375 z m 0.0625,-0.515625 C 1.28125,-0.40625 0.9375,-0.5625 0.9375,-1 c 0,-0.609375 0.671875,-0.65625 1.203125,-0.6875 l 0.65625,-0.03125 v 0.046875 c 0,0.40625 -0.109375,0.75 -0.34375,0.96875 C 2.265625,-0.515625 2,-0.40625 1.640625,-0.40625 Z m 0,0"
           id="path7606" />
      </symbol>
      <symbol
         overflow="visible"
         id="glyph0-32">
        <path
           style="stroke:none"
           d="m 2.453125,0.109375 c 1.046875,0 1.78125,-0.84375 1.78125,-1.875 0,-1.03125 -0.734375,-1.875 -1.78125,-1.875 -0.5625,0 -1.046875,0.234375 -1.34375,0.609375 H 1.09375 V -5.1875 H 0.5 V 0 H 1.078125 L 1.09375,-0.5 1.109375,-0.515625 c 0.28125,0.375 0.78125,0.625 1.34375,0.625 z m -0.09375,-0.53125 c -0.765625,0 -1.265625,-0.59375 -1.265625,-1.34375 0,-0.734375 0.5,-1.34375 1.265625,-1.34375 0.75,0 1.28125,0.609375 1.28125,1.34375 0,0.75 -0.53125,1.34375 -1.28125,1.34375 z m 0,0"
           id="path7609" />
      </symbol>
      <symbol
         overflow="visible"
         id="glyph0-33">
        <path
           style="stroke:none"
           d="m 1.890625,0.109375 c 1.65625,0 2,-1.546875 2,-2.703125 0,-0.640625 -0.125,-1.234375 -0.421875,-1.671875 C 3.15625,-4.734375 2.65625,-5.03125 2,-5.03125 c -0.96875,0 -1.71875,0.671875 -1.71875,1.703125 0,0.90625 0.6875,1.59375 1.640625,1.59375 0.796875,0 1.21875,-0.46875 1.34375,-0.6875 H 3.28125 c 0,0.96875 -0.34375,2 -1.390625,2 -0.671875,0 -0.96875,-0.453125 -1.078125,-0.609375 l -0.453125,0.296875 c 0.09375,0.15625 0.515625,0.84375 1.53125,0.84375 z M 2,-2.265625 c -0.6875,0 -1.140625,-0.453125 -1.140625,-1.109375 0,-0.65625 0.5,-1.125 1.140625,-1.125 0.625,0 1.125,0.46875 1.125,1.125 0,0.65625 -0.5,1.109375 -1.125,1.109375 z m 0,0"
           id="path7612" />
      </symbol>
      <symbol
         overflow="visible"
         id="glyph1-0">
        <path
           style="stroke:none"
           d="m 1.734375,7.203125 h 18 v -32.40625 h -18 z m 0,0"
           id="path7615" />
      </symbol>
      <symbol
         overflow="visible"
         id="glyph1-1">
        <path
           style="stroke:none"
           d="m 1.734375,0 h 3.40625 V -14.40625 H 16.3125 V 0 h 3.421875 V -14.40625 L 16.3125,-18 H 5.140625 l -3.40625,3.59375 z m 0,-25.203125 v 3.609375 h 18 v -3.609375 z m 0,0"
           id="path7618" />
      </symbol>
      <symbol
         overflow="visible"
         id="glyph1-2">
        <path
           style="stroke:none"
           d="m 5.140625,-3.59375 v -3.609375 h 14.59375 v -3.59375 H 5.140625 v -3.609375 h 14.59375 V -18 H 5.140625 l -3.40625,3.59375 v 10.8125 L 5.140625,0 h 14.59375 v -3.59375 z m 0,0"
           id="path7621" />
      </symbol>
      <symbol
         overflow="visible"
         id="glyph1-3">
        <path
           style="stroke:none"
           d="M 16.3125,-25.203125 V -3.59375 H 5.140625 V -18 H 1.734375 V -3.59375 L 5.140625,0 H 16.3125 l 3.421875,-3.59375 V -25.203125 Z M 1.734375,3.59375 v 3.609375 h 18 V 3.59375 Z m 0,0"
           id="path7624" />
      </symbol>
      <symbol
         overflow="visible"
         id="glyph1-4">
        <path
           style="stroke:none"
           d=""
           id="path7627" />
      </symbol>
      <symbol
         overflow="visible"
         id="glyph1-5">
        <path
           style="stroke:none"
           d="M 19.734375,-18 H 16.3125 V -3.59375 H 1.734375 V 0 H 16.3125 l 3.421875,-3.59375 z m -18,-7.203125 v 3.609375 h 18 v -3.609375 z m 0,0"
           id="path7630" />
      </symbol>
      <symbol
         overflow="visible"
         id="glyph1-6">
        <path
           style="stroke:none"
           d="M 5.140625,-25.203125 H 1.734375 V -3.59375 L 5.140625,0 h 14.59375 V -3.59375 H 5.140625 Z m 0,0"
           id="path7633" />
      </symbol>
      <symbol
         overflow="visible"
         id="glyph1-7">
        <path
           style="stroke:none"
           d="m 5.140625,-18 -3.40625,3.59375 V 7.203125 h 3.40625 V 0 H 16.3125 l 3.421875,-3.59375 v -10.8125 L 16.3125,-18 Z m 0,3.59375 H 16.3125 v 10.8125 H 5.140625 Z m 0,0"
           id="path7636" />
      </symbol>
      <symbol
         overflow="visible"
         id="glyph1-8">
        <path
           style="stroke:none"
           d="m 16.3125,0 h 3.421875 V -14.40625 L 16.3125,-18 H 5.140625 v -7.203125 H 1.734375 V 0 h 3.40625 V -14.40625 H 16.3125 Z m 0,0"
           id="path7639" />
      </symbol>
      <symbol
         overflow="visible"
         id="glyph1-9">
        <path
           style="stroke:none"
           d="M 19.734375,-18 H 16.3125 V -3.59375 H 1.734375 V 0 H 16.3125 l 3.421875,-3.59375 z m 0,0"
           id="path7642" />
      </symbol>
      <symbol
         overflow="visible"
         id="glyph1-10">
        <path
           style="stroke:none"
           d="M 1.734375,-3.59375 5.140625,0 H 16.3125 l 3.421875,-3.59375 v -10.8125 L 16.3125,-18 H 5.140625 v -7.203125 h -3.40625 z m 3.40625,-10.8125 H 16.3125 v 10.8125 H 5.140625 Z m 0,0"
           id="path7645" />
      </symbol>
      <symbol
         overflow="visible"
         id="glyph1-11">
        <path
           style="stroke:none"
           d="M 19.734375,-14.40625 V -18 H 5.140625 v -7.203125 H 1.734375 V 0 h 3.40625 v -14.40625 z m 0,0"
           id="path7648" />
      </symbol>
      <symbol
         overflow="visible"
         id="glyph1-12">
        <path
           style="stroke:none"
           d="M 1.734375,-3.59375 V 7.203125 h 3.40625 V -3.59375 Z m 14.578125,0 V 7.203125 h 3.421875 V -3.59375 Z m 0,0"
           id="path7651" />
      </symbol>
      <symbol
         overflow="visible"
         id="glyph1-13">
        <path
           style="stroke:none"
           d="M 19.734375,0 V -3.59375 H 5.140625 v -10.8125 h 14.59375 V -18 H 5.140625 l -3.40625,3.59375 v 10.8125 L 5.140625,0 Z m 0,0"
           id="path7654" />
      </symbol>
      <symbol
         overflow="visible"
         id="glyph1-14">
        <path
           style="stroke:none"
           d="m 5.140625,-14.40625 h 14.59375 V -18 H 5.140625 l -3.40625,3.59375 V 0 h 3.40625 z m 0,0"
           id="path7657" />
      </symbol>
      <symbol
         overflow="visible"
         id="glyph1-15">
        <path
           style="stroke:none"
           d="M 19.734375,-3.59375 V -25.203125 H 16.3125 V -18 H 5.140625 l -3.40625,3.59375 v 10.8125 L 5.140625,0 H 16.3125 Z M 16.3125,-14.40625 v 10.8125 H 5.140625 v -10.8125 z m 0,0"
           id="path7660" />
      </symbol>
      <symbol
         overflow="visible"
         id="glyph1-16">
        <path
           style="stroke:none"
           d="M 1.734375,-25.203125 V -18 l 3.40625,3.59375 H 16.3125 v 10.8125 H 1.734375 V 0 H 16.3125 l 3.421875,-3.59375 v -10.8125 L 16.3125,-18 H 5.140625 v -7.203125 z m 0,0"
           id="path7663" />
      </symbol>
      <symbol
         overflow="visible"
         id="glyph1-17">
        <path
           style="stroke:none"
           d="M 19.734375,0 V -3.59375 H 5.140625 v -10.8125 h 14.59375 V -18 H 5.140625 l -3.40625,3.59375 V 7.203125 h 3.40625 V 0 Z m 0,0"
           id="path7666" />
      </symbol>
      <symbol
         overflow="visible"
         id="glyph1-18">
        <path
           style="stroke:none"
           d="m 5.140625,-18 -3.40625,3.59375 v 10.8125 L 5.140625,0 H 16.3125 l 3.421875,-3.59375 v -10.8125 L 16.3125,-18 Z m 0,3.59375 H 16.3125 v 10.8125 H 5.140625 Z m 0,0"
           id="path7669" />
      </symbol>
      <symbol
         overflow="visible"
         id="glyph1-19">
        <path
           style="stroke:none"
           d="M 19.734375,-18 H 16.3125 V -3.59375 H 5.140625 V -18 H 1.734375 V -3.59375 L 5.140625,0 H 16.3125 l 3.421875,-3.59375 z m 0,0"
           id="path7672" />
      </symbol>
      <symbol
         overflow="visible"
         id="glyph1-20">
        <path
           style="stroke:none"
           d="m 1.734375,-21.59375 h 3.40625 v -3.609375 h -3.40625 z m 0,3.59375 V -3.59375 L 5.140625,0 h 14.59375 V -3.59375 H 5.140625 V -18 Z m 0,0"
           id="path7675" />
      </symbol>
      <symbol
         overflow="visible"
         id="glyph1-21">
        <path
           style="stroke:none"
           d="m 16.3125,0 v 7.203125 h 3.421875 v -32.40625 H 16.3125 V -18 H 5.140625 l -3.40625,3.59375 v 10.8125 L 5.140625,0 Z M 5.140625,-14.40625 H 16.3125 v 10.8125 H 5.140625 Z m 0,0"
           id="path7678" />
      </symbol>
      <symbol
         overflow="visible"
         id="glyph1-22">
        <path
           style="stroke:none"
           d="m 1.734375,0 h 3.40625 V -14.40625 H 16.3125 V 0 h 3.421875 V -14.40625 L 16.3125,-18 H 5.140625 l -3.40625,3.59375 z m 0,3.59375 v 3.609375 h 18 V 3.59375 Z m 0,0"
           id="path7681" />
      </symbol>
      <symbol
         overflow="visible"
         id="glyph1-23">
        <path
           style="stroke:none"
           d="M 19.734375,-18 H 16.3125 V -3.59375 H 5.140625 V -18 H 1.734375 V -3.59375 L 5.140625,0 H 16.3125 v 7.203125 h 3.421875 z m 0,0"
           id="path7684" />
      </symbol>
      <symbol
         overflow="visible"
         id="glyph1-24">
        <path
           style="stroke:none"
           d="m 1.734375,0 h 3.40625 V -14.40625 H 16.3125 V 0 h 3.421875 V -14.40625 L 16.3125,-18 H 5.140625 l -3.40625,3.59375 z m 0,0"
           id="path7687" />
      </symbol>
      <symbol
         overflow="visible"
         id="glyph1-25">
        <path
           style="stroke:none"
           d="M 16.3125,-3.59375 H 5.140625 V -18 H 1.734375 V -3.59375 L 5.140625,0 H 16.3125 l 3.421875,-3.59375 v -21.609375 h -18 v 3.609375 H 16.3125 Z M 1.734375,3.59375 v 3.609375 h 18 V 3.59375 Z m 0,0"
           id="path7690" />
      </symbol>
      <symbol
         overflow="visible"
         id="glyph1-26">
        <path
           style="stroke:none"
           d="M 19.734375,0 V -3.59375 H 5.140625 v -10.8125 h 14.59375 V -18 H 5.140625 l -3.40625,3.59375 v 10.8125 L 5.140625,0 Z m -18,-25.203125 v 3.609375 h 18 v -3.609375 z m 0,0"
           id="path7693" />
      </symbol>
      <symbol
         overflow="visible"
         id="glyph1-27">
        <path
           style="stroke:none"
           d="m 16.3125,0 h 3.421875 V -14.40625 L 16.3125,-18 H 5.140625 v -3.59375 h 14.59375 v -3.609375 h -18 V 0 h 3.40625 V -14.40625 H 16.3125 Z m 0,0"
           id="path7696" />
      </symbol>
      <symbol
         overflow="visible"
         id="glyph1-28">
        <path
           style="stroke:none"
           d="m 19.734375,-3.59375 h -7.3125 v -10.8125 h 7.3125 V -18 h -18 v 3.59375 H 9 v 10.8125 H 1.734375 V 0 h 18 z m 0,0"
           id="path7699" />
      </symbol>
      <symbol
         overflow="visible"
         id="glyph1-29">
        <path
           style="stroke:none"
           d="M 19.734375,-25.203125 H 16.3125 V -3.59375 H 5.140625 V -18 H 1.734375 V -3.59375 L 5.140625,0 H 16.3125 l 3.421875,-3.59375 z m 0,0"
           id="path7702" />
      </symbol>
      <symbol
         overflow="visible"
         id="glyph1-30">
        <path
           style="stroke:none"
           d="m 16.3125,0 h 3.421875 V -14.40625 L 16.3125,-18 H 1.734375 v 3.59375 H 16.3125 Z m 0,0"
           id="path7705" />
      </symbol>
      <symbol
         overflow="visible"
         id="glyph1-31">
        <path
           style="stroke:none"
           d="M 19.734375,7.203125 V -14.40625 L 16.3125,-18 H 5.140625 l -3.40625,3.59375 V 0 h 3.40625 V -14.40625 H 16.3125 V 7.203125 Z m 0,0"
           id="path7708" />
      </symbol>
      <symbol
         overflow="visible"
         id="glyph1-32">
        <path
           style="stroke:none"
           d="M 1.734375,-25.203125 V -3.59375 L 5.140625,0 H 16.3125 l 3.421875,-3.59375 V -18 H 16.3125 V -3.59375 H 5.140625 v -21.609375 z m 0,0"
           id="path7711" />
      </symbol>
      <symbol
         overflow="visible"
         id="glyph1-33">
        <path
           style="stroke:none"
           d="m 5.140625,-18 -3.40625,3.59375 v 10.8125 L 5.140625,0 H 16.3125 l 3.421875,-3.59375 v -10.8125 L 16.3125,-18 Z m 0,3.59375 H 16.3125 v 10.8125 H 5.140625 Z m 0,0"
           id="path7714" />
      </symbol>
      <symbol
         overflow="visible"
         id="glyph1-34">
        <path
           style="stroke:none"
           d="M 1.734375,-3.59375 V 7.203125 h 3.40625 V -3.59375 Z m 14.578125,0 V 7.203125 h 3.421875 V -3.59375 Z M 1.734375,-18 v 3.59375 h 3.40625 V -18 Z m 14.578125,0 v 3.59375 h 3.421875 V -18 Z m 0,0"
           id="path7717" />
      </symbol>
    </g>
  </defs>
  <sodipodi:namedview
     id="base"
     pagecolor="#ffffff"
     bordercolor="#666666"
     borderopacity="1.0"
     inkscape:pageopacity="0.0"
     inkscape:pageshadow="2"
     inkscape:zoom="1.069154"
     inkscape:cx="284.29422"
     inkscape:cy="192.15303"
     inkscape:document-units="mm"
     inkscape:current-layer="layer1"
     inkscape:document-rotation="0"
     showgrid="false"
     inkscape:window-width="1252"
     inkscape:window-height="773"
     inkscape:window-x="0"
     inkscape:window-y="25"
     inkscape:window-maximized="0"
     fit-margin-top="1.4"
     fit-margin-left="1.4"
     fit-margin-right="1.4"
     fit-margin-bottom="1.4" />
  <metadata
     id="metadata6929">
    <rdf:RDF>
      <cc:Work
         rdf:about="">
        <dc:format>image/svg+xml</dc:format>
        <dc:type
           rdf:resource="http://purl.org/dc/dcmitype/StillImage" />
        <dc:title></dc:title>
      </cc:Work>
    </rdf:RDF>
  </metadata>
  <g
     inkscape:label="Layer 1"
     inkscape:groupmode="layer"
     id="layer1"
     transform="translate(-57.045558,-74.710457)">
    <g
       style="fill:#ff0000;fill-opacity:1"
       id="g8058"
       transform="matrix(0.35277779,0,0,0.35277779,0.83370881,0.41045648)">
      <use
         xlink:href="#glyph1-1"
         x="161.5748"
         y="239.7858"
         id="use8032"
         width="100%"
         height="100%" />
      <use
         xlink:href="#glyph1-2"
         x="183.2468"
         y="239.7858"
         id="use8034"
         width="100%"
         height="100%" />
      <use
         xlink:href="#glyph1-3"
         x="204.91879"
         y="239.7858"
         id="use8036"
         width="100%"
         height="100%" />
      <use
         xlink:href="#glyph1-4"
         x="226.59081"
         y="239.7858"
         id="use8038"
         width="100%"
         height="100%" />
      <use
         xlink:href="#glyph1-5"
         x="248.2628"
         y="239.7858"
         id="use8040"
         width="100%"
         height="100%" />
      <use
         xlink:href="#glyph1-6"
         x="269.93481"
         y="239.7858"
         id="use8042"
         width="100%"
         height="100%" />
      <use
         xlink:href="#glyph1-7"
         x="291.60681"
         y="239.7858"
         id="use8044"
         width="100%"
         height="100%" />
      <use
         xlink:href="#glyph1-8"
         x="313.27881"
         y="239.7858"
         id="use8046"
         width="100%"
         height="100%" />
      <use
         xlink:href="#glyph1-9"
         x="334.95081"
         y="239.7858"
         id="use8048"
         width="100%"
         height="100%" />
      <use
         xlink:href="#glyph1-10"
         x="356.6228"
         y="239.7858"
         id="use8050"
         width="100%"
         height="100%" />
      <use
         xlink:href="#glyph1-2"
         x="378.2948"
         y="239.7858"
         id="use8052"
         width="100%"
         height="100%" />
      <use
         xlink:href="#glyph1-11"
         x="399.9668"
         y="239.7858"
         id="use8054"
         width="100%"
         height="100%" />
    </g>
    <g
       style="fill:#ff0000;fill-opacity:1"
       id="g8098"
       transform="matrix(0.35277779,0,0,0.35277779,0.83370881,0.41045648)">
      <use
         xlink:href="#glyph1-13"
         x="161.5748"
         y="275.7858"
         id="use8064"
         width="100%"
         height="100%" />
      <use
         xlink:href="#glyph1-14"
         x="183.2468"
         y="275.7858"
         id="use8066"
         width="100%"
         height="100%" />
      <use
         xlink:href="#glyph1-2"
         x="204.91879"
         y="275.7858"
         id="use8068"
         width="100%"
         height="100%" />
      <use
         xlink:href="#glyph1-9"
         x="226.59081"
         y="275.7858"
         id="use8070"
         width="100%"
         height="100%" />
      <use
         xlink:href="#glyph1-11"
         x="248.2628"
         y="275.7858"
         id="use8072"
         width="100%"
         height="100%" />
      <use
         xlink:href="#glyph1-2"
         x="269.93481"
         y="275.7858"
         id="use8074"
         width="100%"
         height="100%" />
      <use
         xlink:href="#glyph1-15"
         x="291.60681"
         y="275.7858"
         id="use8076"
         width="100%"
         height="100%" />
      <use
         xlink:href="#glyph1-4"
         x="313.27881"
         y="275.7858"
         id="use8078"
         width="100%"
         height="100%" />
      <use
         xlink:href="#glyph1-9"
         x="334.95081"
         y="275.7858"
         id="use8080"
         width="100%"
         height="100%" />
      <use
         xlink:href="#glyph1-16"
         x="356.6228"
         y="275.7858"
         id="use8082"
         width="100%"
         height="100%" />
      <use
         xlink:href="#glyph1-4"
         x="378.2948"
         y="275.7858"
         id="use8084"
         width="100%"
         height="100%" />
      <use
         xlink:href="#glyph1-9"
         x="399.9668"
         y="275.7858"
         id="use8086"
         width="100%"
         height="100%" />
      <use
         xlink:href="#glyph1-4"
         x="421.63879"
         y="275.7858"
         id="use8088"
         width="100%"
         height="100%" />
      <use
         xlink:href="#glyph1-17"
         x="443.31079"
         y="275.7858"
         id="use8090"
         width="100%"
         height="100%" />
      <use
         xlink:href="#glyph1-18"
         x="464.98279"
         y="275.7858"
         id="use8092"
         width="100%"
         height="100%" />
      <use
         xlink:href="#glyph1-19"
         x="486.65479"
         y="275.7858"
         id="use8094"
         width="100%"
         height="100%" />
      <use
         xlink:href="#glyph1-14"
         x="508.32681"
         y="275.7858"
         id="use8096"
         width="100%"
         height="100%" />
    </g>
    <g
       style="fill:#ff0000;fill-opacity:1"
       id="g8136"
       transform="matrix(0.35277779,0,0,0.35277779,0.83370881,0.41045648)">
      <use
         xlink:href="#glyph1-3"
         x="161.5748"
         y="311.7858"
         id="use8104"
         width="100%"
         height="100%" />
      <use
         xlink:href="#glyph1-2"
         x="183.2468"
         y="311.7858"
         id="use8106"
         width="100%"
         height="100%" />
      <use
         xlink:href="#glyph1-20"
         x="204.91879"
         y="311.7858"
         id="use8108"
         width="100%"
         height="100%" />
      <use
         xlink:href="#glyph1-21"
         x="226.59081"
         y="311.7858"
         id="use8110"
         width="100%"
         height="100%" />
      <use
         xlink:href="#glyph1-8"
         x="248.2628"
         y="311.7858"
         id="use8112"
         width="100%"
         height="100%" />
      <use
         xlink:href="#glyph1-11"
         x="269.93481"
         y="311.7858"
         id="use8114"
         width="100%"
         height="100%" />
      <use
         xlink:href="#glyph1-4"
         x="291.60681"
         y="311.7858"
         id="use8116"
         width="100%"
         height="100%" />
      <use
         xlink:href="#glyph1-17"
         x="313.27881"
         y="311.7858"
         id="use8118"
         width="100%"
         height="100%" />
      <use
         xlink:href="#glyph1-9"
         x="334.95081"
         y="311.7858"
         id="use8120"
         width="100%"
         height="100%" />
      <use
         xlink:href="#glyph1-22"
         x="356.6228"
         y="311.7858"
         id="use8122"
         width="100%"
         height="100%" />
      <use
         xlink:href="#glyph1-20"
         x="378.2948"
         y="311.7858"
         id="use8124"
         width="100%"
         height="100%" />
      <use
         xlink:href="#glyph1-6"
         x="399.9668"
         y="311.7858"
         id="use8126"
         width="100%"
         height="100%" />
      <use
         xlink:href="#glyph1-23"
         x="421.63879"
         y="311.7858"
         id="use8128"
         width="100%"
         height="100%" />
      <use
         xlink:href="#glyph1-4"
         x="443.31079"
         y="311.7858"
         id="use8130"
         width="100%"
         height="100%" />
    </g>
  </g>
</svg>
